0	5.86
2.73e-08	5.86
5.45e-08	5.86
8.18e-08	5.86
2.15e-07	5.86
3.48e-07	5.86
4.82e-07	5.86
6.15e-07	5.86
8.47e-07	5.86
1.08e-06	5.86
1.31e-06	5.86
1.54e-06	5.86
1.77e-06	5.86
2.41e-06	5.86
3.04e-06	5.86
3.67e-06	5.86
4.31e-06	5.86
4.94e-06	5.86
5.57e-06	5.86
6.45e-06	5.86
7.32e-06	5.86
8.19e-06	5.86
9.06e-06	5.86
9.93e-06	5.86
1.08e-05	5.86
1.19e-05	5.86
1.3e-05	5.86
1.4e-05	5.86
1.51e-05	5.86
1.62e-05	5.86
1.73e-05	5.86
1.87e-05	5.86
2.02e-05	5.86
2.16e-05	5.86
2.31e-05	5.86
2.45e-05	5.86
2.59e-05	5.86
2.79e-05	5.86
2.99e-05	5.86
3.19e-05	5.86
3.39e-05	5.86
3.59e-05	5.86
3.79e-05	5.86
4.04e-05	5.86
4.29e-05	5.86
4.55e-05	5.86
4.8e-05	5.86
5.05e-05	5.86
5.3e-05	5.86
5.64e-05	5.86
5.97e-05	5.86
6.31e-05	5.86
6.65e-05	5.86
6.98e-05	5.86
7.32e-05	5.86
7.78e-05	5.86
8.24e-05	5.86
8.7e-05	5.86
9.16e-05	5.86
9.62e-05	5.86
0.000101	5.86
0.000107	5.86
0.000113	5.86
0.00012	5.86
0.000126	5.86
0.000132	5.86
0.000139	5.86
0.000147	5.86
0.000156	5.86
0.000165	5.86
0.000173	5.86
0.000182	5.86
0.00019	5.85
0.000202	5.85
0.000214	5.85
0.000225	5.85
0.000237	5.85
0.000248	5.85
0.00026	5.85
0.000275	5.85
0.000291	5.85
0.000306	5.85
0.000322	5.85
0.000337	5.85
0.000353	5.85
0.000373	5.85
0.000394	5.85
0.000414	5.84
0.000435	5.84
0.000455	5.84
0.000476	5.84
0.000503	5.84
0.00053	5.84
0.000557	5.84
0.000584	5.84
0.000611	5.84
0.000638	5.83
0.000674	5.83
0.00071	5.83
0.000746	5.83
0.000783	5.83
0.000819	5.83
0.000855	5.82
0.000903	5.82
0.00095	5.82
0.000998	5.82
0.00105	5.81
0.00109	5.81
0.00114	5.81
0.0012	5.81
0.00127	5.8
0.00133	5.8
0.00139	5.8
0.00146	5.8
0.00152	5.79
0.0016	5.79
0.00168	5.79
0.00176	5.78
0.00184	5.78
0.00193	5.77
0.00201	5.77
0.00211	5.77
0.00222	5.76
0.00232	5.76
0.00242	5.75
0.00253	5.75
0.00263	5.74
0.00276	5.74
0.00289	5.73
0.00303	5.72
0.00316	5.72
0.00329	5.71
0.00342	5.71
0.00358	5.7
0.00374	5.69
0.0039	5.68
0.00406	5.68
0.00422	5.67
0.00438	5.66
0.00458	5.65
0.00479	5.64
0.00499	5.63
0.00519	5.63
0.0054	5.62
0.0056	5.61
0.00587	5.59
0.00614	5.58
0.0064	5.57
0.00667	5.56
0.00694	5.55
0.00721	5.54
0.00754	5.52
0.00788	5.51
0.00822	5.49
0.00855	5.48
0.00889	5.46
0.00922	5.45
0.00963	5.43
0.01	5.41
0.0104	5.39
0.0108	5.38
0.0113	5.36
0.0117	5.34
0.0122	5.32
0.0127	5.3
0.0132	5.28
0.0137	5.26
0.0142	5.24
0.0147	5.21
0.0153	5.19
0.016	5.16
0.0166	5.13
0.0172	5.11
0.0179	5.08
0.0185	5.06
0.0193	5.02
0.0201	4.99
0.0209	4.96
0.0217	4.93
0.0225	4.9
0.0233	4.87
0.0243	4.83
0.0253	4.79
0.0263	4.75
0.0272	4.72
0.0282	4.68
0.0292	4.64
0.0304	4.6
0.0316	4.55
0.0328	4.51
0.0331	4.5
0.0335	4.48
0.0338	4.47
0.0342	4.46
0.0345	4.45
0.0348	4.44
0.0351	4.43
0.0354	4.42
0.0359	4.4
0.0364	4.38
0.0368	4.37
0.0373	4.35
0.0378	4.33
0.0388	4.3
0.0398	4.26
0.0408	4.23
0.0418	4.2
0.0428	4.16
0.0442	4.12
0.0456	4.07
0.0469	4.03
0.0483	3.98
0.0496	3.94
0.051	3.9
0.0529	3.84
0.0548	3.78
0.0566	3.73
0.0585	3.67
0.0604	3.62
0.0623	3.56
0.0643	3.51
0.0663	3.45
0.0667	3.44
0.0669	3.43
0.067	3.43
0.0672	3.43
0.0673	3.42
0.0674	3.42
0.0676	3.42
0.0678	3.41
0.0681	3.4
0.0684	3.39
0.0686	3.39
0.0689	3.38
0.0695	3.36
0.0701	3.35
0.0707	3.33
0.0713	3.31
0.0719	3.3
0.073	3.27
0.0742	3.24
0.0753	3.21
0.0764	3.18
0.0775	3.15
0.0792	3.11
0.0808	3.07
0.0825	3.03
0.0841	2.99
0.0858	2.95
0.0878	2.91
0.0898	2.86
0.0918	2.81
0.0939	2.77
0.0959	2.72
0.0983	2.67
0.0992	2.65
0.0998	2.64
0.1	2.64
0.1	2.63
0.1	2.63
0.1	2.63
0.1	2.62
0.101	2.62
0.101	2.62
0.101	2.61
0.101	2.61
0.101	2.61
0.102	2.6
0.102	2.59
0.102	2.58
0.103	2.57
0.103	2.56
0.104	2.55
0.105	2.54
0.105	2.52
0.106	2.51
0.107	2.5
0.108	2.48
0.109	2.46
0.11	2.44
0.111	2.41
0.112	2.39
0.113	2.37
0.115	2.34
0.117	2.3
0.119	2.27
0.12	2.24
0.122	2.21
0.124	2.17
0.127	2.12
0.129	2.08
0.132	2.04
0.133	2.03
0.133	2.02
0.133	2.02
0.133	2.02
0.134	2.01
0.134	2.01
0.134	2.01
0.134	2.01
0.134	2.01
0.134	2.01
0.134	2.01
0.134	2
0.135	2
0.135	1.99
0.135	1.99
0.135	1.99
0.136	1.98
0.136	1.97
0.136	1.97
0.137	1.96
0.137	1.95
0.138	1.94
0.139	1.93
0.139	1.92
0.14	1.91
0.141	1.9
0.142	1.89
0.143	1.87
0.144	1.86
0.145	1.84
0.146	1.83
0.147	1.81
0.148	1.79
0.15	1.77
0.151	1.75
0.153	1.73
0.155	1.7
0.157	1.67
0.159	1.65
0.161	1.62
0.163	1.59
0.165	1.56
0.166	1.55
0.167	1.55
0.167	1.55
0.167	1.54
0.167	1.54
0.167	1.54
0.167	1.54
0.167	1.54
0.167	1.54
0.167	1.54
0.167	1.54
0.167	1.54
0.167	1.54
0.168	1.53
0.168	1.53
0.168	1.53
0.168	1.53
0.169	1.52
0.169	1.52
0.169	1.51
0.17	1.51
0.17	1.5
0.171	1.5
0.171	1.49
0.172	1.48
0.173	1.47
0.174	1.46
0.174	1.45
0.175	1.44
0.176	1.43
0.178	1.42
0.179	1.4
0.18	1.39
0.181	1.37
0.183	1.36
0.185	1.34
0.186	1.32
0.188	1.3
0.19	1.28
0.192	1.26
0.195	1.24
0.197	1.21
0.199	1.19
0.2	1.19
0.2	1.18
0.201	1.18
0.201	1.17
0.201	1.17
0.202	1.17
0.202	1.16
0.203	1.16
0.203	1.15
0.204	1.15
0.204	1.14
0.206	1.13
0.207	1.12
0.209	1.1
0.21	1.09
0.212	1.08
0.214	1.06
0.217	1.04
0.219	1.02
0.221	0.999
0.224	0.98
0.227	0.952
0.231	0.925
0.232	0.917
0.233	0.909
0.233	0.907
0.233	0.907
0.233	0.906
0.234	0.906
0.234	0.905
0.234	0.904
0.234	0.904
0.234	0.903
0.234	0.902
0.234	0.901
0.234	0.901
0.235	0.898
0.235	0.896
0.235	0.894
0.235	0.891
0.236	0.889
0.236	0.885
0.237	0.882
0.237	0.878
0.238	0.874
0.238	0.87
0.239	0.864
0.24	0.858
0.241	0.852
0.242	0.846
0.243	0.84
0.244	0.831
0.246	0.822
0.247	0.813
0.248	0.804
0.25	0.796
0.251	0.785
0.253	0.774
0.255	0.763
0.257	0.753
0.258	0.742
0.261	0.728
0.263	0.715
0.265	0.701
0.266	0.697
0.267	0.695
0.267	0.694
0.267	0.694
0.267	0.693
0.267	0.693
0.267	0.693
0.267	0.692
0.267	0.692
0.267	0.691
0.267	0.69
0.268	0.69
0.268	0.688
0.268	0.687
0.268	0.686
0.268	0.685
0.269	0.683
0.269	0.681
0.27	0.679
0.27	0.676
0.27	0.674
0.271	0.671
0.272	0.668
0.272	0.664
0.273	0.66
0.274	0.656
0.274	0.653
0.276	0.647
0.277	0.641
0.278	0.636
0.279	0.63
0.28	0.625
0.282	0.617
0.283	0.609
0.285	0.601
0.286	0.593
0.288	0.586
0.29	0.576
0.292	0.567
0.294	0.557
0.296	0.548
0.298	0.539
0.299	0.536
0.3	0.532
0.3	0.532
0.3	0.532
0.3	0.531
0.3	0.531
0.3	0.531
0.3	0.53
0.301	0.53
0.301	0.529
0.301	0.529
0.301	0.528
0.301	0.527
0.301	0.526
0.302	0.525
0.302	0.524
0.302	0.523
0.303	0.521
0.303	0.519
0.304	0.517
0.304	0.515
0.305	0.513
0.305	0.51
0.306	0.507
0.307	0.504
0.308	0.501
0.308	0.498
0.309	0.493
0.311	0.489
0.312	0.484
0.313	0.48
0.314	0.475
0.316	0.469
0.318	0.462
0.319	0.456
0.321	0.449
0.323	0.443
0.325	0.435
0.328	0.427
0.33	0.419
0.332	0.411
0.333	0.409
0.333	0.407
0.333	0.407
0.334	0.407
0.334	0.407
0.334	0.406
0.334	0.406
0.334	0.406
0.334	0.405
0.334	0.405
0.334	0.404
0.335	0.403
0.335	0.402
0.335	0.402
0.335	0.401
0.336	0.4
0.336	0.398
0.337	0.396
0.337	0.395
0.338	0.393
0.338	0.391
0.339	0.389
0.34	0.386
0.341	0.383
0.342	0.381
0.343	0.378
0.344	0.374
0.345	0.37
0.347	0.366
0.348	0.362
0.349	0.358
0.351	0.352
0.353	0.347
0.355	0.341
0.357	0.336
0.359	0.331
0.362	0.323
0.365	0.316
0.366	0.314
0.367	0.312
0.367	0.312
0.367	0.312
0.367	0.311
0.367	0.311
0.367	0.311
0.367	0.31
0.368	0.31
0.368	0.309
0.368	0.309
0.368	0.308
0.369	0.307
0.369	0.306
0.37	0.304
0.37	0.303
0.371	0.302
0.372	0.3
0.372	0.298
0.373	0.296
0.374	0.294
0.375	0.292
0.376	0.289
0.378	0.285
0.379	0.282
0.381	0.279
0.382	0.275
0.384	0.271
0.387	0.266
0.389	0.261
0.391	0.257
0.393	0.252
0.396	0.246
0.4	0.24
0.4	0.239
0.4	0.239
0.4	0.238
0.401	0.238
0.401	0.237
0.401	0.237
0.402	0.236
0.402	0.235
0.402	0.235
0.403	0.234
0.403	0.233
0.404	0.231
0.405	0.229
0.406	0.228
0.407	0.226
0.408	0.224
0.41	0.221
0.411	0.219
0.413	0.216
0.414	0.214
0.416	0.21
0.419	0.206
0.421	0.202
0.424	0.198
0.426	0.194
0.43	0.189
0.433	0.183
0.434	0.182
0.434	0.182
0.435	0.181
0.435	0.181
0.435	0.18
0.436	0.179
0.436	0.179
0.437	0.178
0.438	0.177
0.438	0.176
0.44	0.174
0.441	0.172
0.443	0.17
0.445	0.167
0.446	0.165
0.449	0.161
0.452	0.158
0.455	0.154
0.458	0.151
0.461	0.147
0.465	0.142
0.466	0.141
0.468	0.139
0.469	0.138
0.47	0.136
0.471	0.135
0.473	0.134
0.474	0.132
0.476	0.13
0.477	0.129
0.479	0.127
0.482	0.124
0.485	0.121
0.488	0.118
0.491	0.116
0.494	0.113
0.499	0.108
0.501	0.107
0.502	0.106
0.504	0.104
0.505	0.103
0.507	0.102
0.509	0.1
0.511	0.0984
0.513	0.0967
0.515	0.0951
0.517	0.0935
0.522	0.09
0.527	0.0867
0.531	0.0835
0.535	0.081
0.539	0.0786
0.542	0.0766
0.545	0.0748
0.548	0.0729
0.551	0.0712
0.555	0.0694
0.56	0.0664
0.566	0.0635
0.567	0.0627
0.569	0.0619
0.57	0.0612
0.572	0.0604
0.573	0.0597
0.576	0.0587
0.578	0.0577
0.58	0.0567
0.582	0.0557
0.584	0.0547
0.589	0.0529
0.593	0.0511
0.597	0.0493
0.6	0.0482
0.601	0.0479
0.602	0.0475
0.603	0.0472
0.604	0.0469
0.605	0.0465
0.606	0.046
0.607	0.0455
0.609	0.045
0.61	0.0445
0.612	0.044
0.615	0.0428
0.618	0.0417
0.622	0.0406
0.625	0.0395
0.629	0.0384
0.633	0.0371
0.634	0.0367
0.635	0.0364
0.636	0.0361
0.638	0.0357
0.639	0.0354
0.64	0.0349
0.642	0.0345
0.644	0.034
0.645	0.0336
0.647	0.0331
0.651	0.0321
0.655	0.0311
0.659	0.0301
0.663	0.0291
0.667	0.0282
0.669	0.0279
0.67	0.0275
0.672	0.0272
0.673	0.0269
0.675	0.0266
0.677	0.0261
0.679	0.0256
0.681	0.0252
0.684	0.0247
0.688	0.0238
0.693	0.023
0.697	0.0222
0.702	0.0214
0.707	0.0205
0.711	0.0199
0.714	0.0193
0.718	0.0188
0.721	0.0183
0.727	0.0175
0.733	0.0167
0.735	0.0164
0.736	0.0162
0.738	0.016
0.74	0.0158
0.742	0.0155
0.744	0.0152
0.747	0.0149
0.749	0.0146
0.752	0.0144
0.754	0.0141
0.76	0.0134
0.766	0.0128
0.768	0.0126
0.77	0.0124
0.772	0.0122
0.774	0.012
0.776	0.0118
0.779	0.0116
0.782	0.0113
0.785	0.011
0.787	0.0108
0.79	0.0105
0.798	0.00986
0.807	0.00924
0.815	0.00866
0.823	0.00812
0.831	0.00761
0.841	0.00704
0.85	0.00652
0.86	0.00604
0.869	0.00559
0.879	0.00518
0.893	0.00462
0.907	0.00413
0.921	0.00369
0.935	0.0033
0.949	0.00295
0.965	0.0026
0.981	0.00229
0.997	0.00201
1	0.00197
