x	y	z	c
0	0	9.73	9.73
0.0333	0	9.35	9.35
0.0667	0	9.01	9.01
0.1	0	8.68	8.68
0.133	0	8.38	8.38
0.167	0	8.11	8.11
0.2	0	7.82	7.82
0.233	0	7.49	7.49
0.267	0	7.06	7.06
0.3	0	6.53	6.53
0.333	0	5.92	5.92
0.367	0	5.29	5.29
0.4	0	4.71	4.71
0.433	0	4.24	4.24
0.467	0	3.93	3.93
0.5	0	3.83	3.83
0.533	0	3.93	3.93
0.567	0	4.24	4.24
0.6	0	4.71	4.71
0.633	0	5.29	5.29
0.667	0	5.92	5.92
0.7	0	6.53	6.53
0.733	0	7.06	7.06
0.767	0	7.49	7.49
0.8	0	7.82	7.82
0.833	0	8.11	8.11
0.867	0	8.38	8.38
0.9	0	8.68	8.68
0.933	0	9.01	9.01
0.967	0	9.35	9.35
1	0	9.73	9.73
0	0.05	11.8	11.8
0.0333	0.05	11.3	11.3
0.0667	0.05	10.8	10.8
0.1	0.05	10.4	10.4
0.133	0.05	9.99	9.99
0.167	0.05	9.63	9.63
0.2	0.05	9.28	9.28
0.233	0.05	8.88	8.88
0.267	0.05	8.37	8.37
0.3	0.05	7.75	7.75
0.333	0.05	7.03	7.03
0.367	0.05	6.27	6.27
0.4	0.05	5.57	5.57
0.433	0.05	4.99	4.99
0.467	0.05	4.59	4.59
0.5	0.05	4.41	4.41
0.533	0.05	4.46	4.46
0.567	0.05	4.75	4.75
0.6	0.05	5.23	5.23
0.633	0.05	5.87	5.87
0.667	0.05	6.59	6.59
0.7	0.05	7.31	7.31
0.733	0.05	7.96	7.96
0.767	0.05	8.49	8.49
0.8	0.05	8.91	8.91
0.833	0.05	9.24	9.24
0.867	0.05	9.57	9.57
0.9	0.05	9.91	9.91
0.933	0.05	10.3	10.3
0.967	0.05	10.7	10.7
1	0.05	11.2	11.2
0	0.1	13.9	13.9
0.0333	0.1	13.3	13.3
0.0667	0.1	12.7	12.7
0.1	0.1	12.1	12.1
0.133	0.1	11.6	11.6
0.167	0.1	11.2	11.2
0.2	0.1	10.7	10.7
0.233	0.1	10.3	10.3
0.267	0.1	9.69	9.69
0.3	0.1	8.96	8.96
0.333	0.1	8.13	8.13
0.367	0.1	7.26	7.26
0.4	0.1	6.43	6.43
0.433	0.1	5.74	5.74
0.467	0.1	5.24	5.24
0.5	0.1	4.99	4.99
0.533	0.1	4.99	4.99
0.567	0.1	5.26	5.26
0.6	0.1	5.76	5.76
0.633	0.1	6.45	6.45
0.667	0.1	7.25	7.25
0.7	0.1	8.09	8.09
0.733	0.1	8.86	8.86
0.767	0.1	9.49	9.49
0.8	0.1	9.99	9.99
0.833	0.1	10.4	10.4
0.867	0.1	10.7	10.7
0.9	0.1	11.1	11.1
0.933	0.1	11.6	11.6
0.967	0.1	12.1	12.1
1	0.1	12.7	12.7
0	0.15	16.5	16.5
0.0333	0.15	15.6	15.6
0.0667	0.15	14.8	14.8
0.1	0.15	14.1	14.1
0.133	0.15	13.4	13.4
0.167	0.15	12.9	12.9
0.2	0.15	12.4	12.4
0.233	0.15	11.8	11.8
0.267	0.15	11.1	11.1
0.3	0.15	10.3	10.3
0.333	0.15	9.33	9.33
0.367	0.15	8.32	8.32
0.4	0.15	7.35	7.35
0.433	0.15	6.53	6.53
0.467	0.15	5.93	5.93
0.5	0.15	5.59	5.59
0.533	0.15	5.54	5.54
0.567	0.15	5.78	5.78
0.6	0.15	6.29	6.29
0.633	0.15	7.02	7.02
0.667	0.15	7.92	7.92
0.7	0.15	8.87	8.87
0.733	0.15	9.77	9.77
0.767	0.15	10.5	10.5
0.8	0.15	11.1	11.1
0.833	0.15	11.6	11.6
0.867	0.15	12	12
0.9	0.15	12.4	12.4
0.933	0.15	13	13
0.967	0.15	13.6	13.6
1	0.15	14.3	14.3
0	0.2	19	19
0.0333	0.2	17.9	17.9
0.0667	0.2	16.9	16.9
0.1	0.2	16.1	16.1
0.133	0.2	15.3	15.3
0.167	0.2	14.6	14.6
0.2	0.2	14	14
0.233	0.2	13.4	13.4
0.267	0.2	12.6	12.6
0.3	0.2	11.6	11.6
0.333	0.2	10.5	10.5
0.367	0.2	9.38	9.38
0.4	0.2	8.27	8.27
0.433	0.2	7.33	7.33
0.467	0.2	6.62	6.62
0.5	0.2	6.2	6.2
0.533	0.2	6.09	6.09
0.567	0.2	6.3	6.3
0.6	0.2	6.82	6.82
0.633	0.2	7.6	7.6
0.667	0.2	8.58	8.58
0.7	0.2	9.65	9.65
0.733	0.2	10.7	10.7
0.767	0.2	11.6	11.6
0.8	0.2	12.2	12.2
0.833	0.2	12.8	12.8
0.867	0.2	13.2	13.2
0.9	0.2	13.7	13.7
0.933	0.2	14.3	14.3
0.967	0.2	15	15
1	0.2	15.8	15.8
0	0.25	21.8	21.8
0.0333	0.25	20.5	20.5
0.0667	0.25	19.3	19.3
0.1	0.25	18.2	18.2
0.133	0.25	17.2	17.2
0.167	0.25	16.4	16.4
0.2	0.25	15.7	15.7
0.233	0.25	14.9	14.9
0.267	0.25	14.1	14.1
0.3	0.25	13	13
0.333	0.25	11.7	11.7
0.367	0.25	10.4	10.4
0.4	0.25	9.18	9.18
0.433	0.25	8.11	8.11
0.467	0.25	7.29	7.29
0.5	0.25	6.78	6.78
0.533	0.25	6.61	6.61
0.567	0.25	6.78	6.78
0.6	0.25	7.3	7.3
0.633	0.25	8.12	8.12
0.667	0.25	9.17	9.17
0.7	0.25	10.3	10.3
0.733	0.25	11.5	11.5
0.767	0.25	12.5	12.5
0.8	0.25	13.3	13.3
0.833	0.25	13.9	13.9
0.867	0.25	14.4	14.4
0.9	0.25	15	15
0.933	0.25	15.7	15.7
0.967	0.25	16.4	16.4
1	0.25	17.4	17.4
0	0.3	24.6	24.6
0.0333	0.3	23	23
0.0667	0.3	21.6	21.6
0.1	0.3	20.3	20.3
0.133	0.3	19.2	19.2
0.167	0.3	18.2	18.2
0.2	0.3	17.4	17.4
0.233	0.3	16.5	16.5
0.267	0.3	15.5	15.5
0.3	0.3	14.3	14.3
0.333	0.3	12.9	12.9
0.367	0.3	11.5	11.5
0.4	0.3	10.1	10.1
0.433	0.3	8.88	8.88
0.467	0.3	7.96	7.96
0.5	0.3	7.36	7.36
0.533	0.3	7.13	7.13
0.567	0.3	7.27	7.27
0.6	0.3	7.78	7.78
0.633	0.3	8.63	8.63
0.667	0.3	9.76	9.76
0.7	0.3	11	11
0.733	0.3	12.3	12.3
0.767	0.3	13.5	13.5
0.8	0.3	14.3	14.3
0.833	0.3	15	15
0.867	0.3	15.6	15.6
0.9	0.3	16.2	16.2
0.933	0.3	17	17
0.967	0.3	17.9	17.9
1	0.3	19	19
0	0.35	27.5	27.5
0.0333	0.35	25.7	25.7
0.0667	0.35	23.9	23.9
0.1	0.35	22.4	22.4
0.133	0.35	21.1	21.1
0.167	0.35	19.9	19.9
0.2	0.35	19	19
0.233	0.35	18	18
0.267	0.35	16.9	16.9
0.3	0.35	15.6	15.6
0.333	0.35	14	14
0.367	0.35	12.4	12.4
0.4	0.35	10.9	10.9
0.433	0.35	9.57	9.57
0.467	0.35	8.53	8.53
0.5	0.35	7.85	7.85
0.533	0.35	7.56	7.56
0.567	0.35	7.66	7.66
0.6	0.35	8.15	8.15
0.633	0.35	9.02	9.02
0.667	0.35	10.2	10.2
0.7	0.35	11.6	11.6
0.733	0.35	13	13
0.767	0.35	14.2	14.2
0.8	0.35	15.2	15.2
0.833	0.35	16	16
0.867	0.35	16.6	16.6
0.9	0.35	17.3	17.3
0.933	0.35	18.2	18.2
0.967	0.35	19.1	19.1
1	0.35	20.4	20.4
0	0.4	30.5	30.5
0.0333	0.4	28.3	28.3
0.0667	0.4	26.2	26.2
0.1	0.4	24.5	24.5
0.133	0.4	23	23
0.167	0.4	21.7	21.7
0.2	0.4	20.6	20.6
0.233	0.4	19.5	19.5
0.267	0.4	18.3	18.3
0.3	0.4	16.8	16.8
0.333	0.4	15.2	15.2
0.367	0.4	13.4	13.4
0.4	0.4	11.7	11.7
0.433	0.4	10.2	10.2
0.467	0.4	9.11	9.11
0.5	0.4	8.34	8.34
0.533	0.4	7.98	7.98
0.567	0.4	8.04	8.04
0.6	0.4	8.53	8.53
0.633	0.4	9.42	9.42
0.667	0.4	10.6	10.6
0.7	0.4	12.1	12.1
0.733	0.4	13.6	13.6
0.767	0.4	15	15
0.8	0.4	16.1	16.1
0.833	0.4	16.9	16.9
0.867	0.4	17.7	17.7
0.9	0.4	18.4	18.4
0.933	0.4	19.4	19.4
0.967	0.4	20.4	20.4
1	0.4	21.8	21.8
0	0.45	33.4	33.4
0.0333	0.45	30.9	30.9
0.0667	0.45	28.5	28.5
0.1	0.45	26.5	26.5
0.133	0.45	24.7	24.7
0.167	0.45	23.3	23.3
0.2	0.45	22	22
0.233	0.45	20.8	20.8
0.267	0.45	19.5	19.5
0.3	0.45	17.9	17.9
0.333	0.45	16.1	16.1
0.367	0.45	14.2	14.2
0.4	0.45	12.4	12.4
0.433	0.45	10.8	10.8
0.467	0.45	9.55	9.55
0.5	0.45	8.7	8.7
0.533	0.45	8.28	8.28
0.567	0.45	8.3	8.3
0.6	0.45	8.76	8.76
0.633	0.45	9.66	9.66
0.667	0.45	10.9	10.9
0.7	0.45	12.4	12.4
0.733	0.45	14	14
0.767	0.45	15.5	15.5
0.8	0.45	16.7	16.7
0.833	0.45	17.7	17.7
0.867	0.45	18.5	18.5
0.9	0.45	19.3	19.3
0.933	0.45	20.4	20.4
0.967	0.45	21.5	21.5
1	0.45	23.1	23.1
0	0.5	36.4	36.4
0.0333	0.5	33.5	33.5
0.0667	0.5	30.8	30.8
0.1	0.5	28.5	28.5
0.133	0.5	26.5	26.5
0.167	0.5	24.9	24.9
0.2	0.5	23.4	23.4
0.233	0.5	22.1	22.1
0.267	0.5	20.7	20.7
0.3	0.5	18.9	18.9
0.333	0.5	17	17
0.367	0.5	15	15
0.4	0.5	13	13
0.433	0.5	11.3	11.3
0.467	0.5	9.99	9.99
0.5	0.5	9.07	9.07
0.533	0.5	8.59	8.59
0.567	0.5	8.56	8.56
0.6	0.5	9	9
0.633	0.5	9.9	9.9
0.667	0.5	11.2	11.2
0.7	0.5	12.8	12.8
0.733	0.5	14.5	14.5
0.767	0.5	16	16
0.8	0.5	17.4	17.4
0.833	0.5	18.4	18.4
0.867	0.5	19.3	19.3
0.9	0.5	20.2	20.2
0.933	0.5	21.3	21.3
0.967	0.5	22.6	22.6
1	0.5	24.3	24.3
0	0.55	39.7	39.7
0.0333	0.55	36.3	36.3
0.0667	0.55	33.2	33.2
0.1	0.55	30.5	30.5
0.133	0.55	28.3	28.3
0.167	0.55	26.4	26.4
0.2	0.55	24.8	24.8
0.233	0.55	23.3	23.3
0.267	0.55	21.7	21.7
0.3	0.55	19.9	19.9
0.333	0.55	17.8	17.8
0.367	0.55	15.6	15.6
0.4	0.55	13.5	13.5
0.433	0.55	11.7	11.7
0.467	0.55	10.3	10.3
0.5	0.55	9.32	9.32
0.533	0.55	8.78	8.78
0.567	0.55	8.71	8.71
0.6	0.55	9.12	9.12
0.633	0.55	10	10
0.667	0.55	11.3	11.3
0.7	0.55	13	13
0.733	0.55	14.8	14.8
0.767	0.55	16.4	16.4
0.8	0.55	17.9	17.9
0.833	0.55	19	19
0.867	0.55	20	20
0.9	0.55	21	21
0.933	0.55	22.2	22.2
0.967	0.55	23.6	23.6
1	0.55	25.6	25.6
0	0.6	42.9	42.9
0.0333	0.6	39.1	39.1
0.0667	0.6	35.6	35.6
0.1	0.6	32.5	32.5
0.133	0.6	30	30
0.167	0.6	27.9	27.9
0.2	0.6	26.1	26.1
0.233	0.6	24.5	24.5
0.267	0.6	22.8	22.8
0.3	0.6	20.8	20.8
0.333	0.6	18.6	18.6
0.367	0.6	16.3	16.3
0.4	0.6	14.1	14.1
0.433	0.6	12.2	12.2
0.467	0.6	10.6	10.6
0.5	0.6	9.56	9.56
0.533	0.6	8.97	8.97
0.567	0.6	8.86	8.86
0.6	0.6	9.24	9.24
0.633	0.6	10.1	10.1
0.667	0.6	11.5	11.5
0.7	0.6	13.2	13.2
0.733	0.6	15	15
0.767	0.6	16.8	16.8
0.8	0.6	18.3	18.3
0.833	0.6	19.6	19.6
0.867	0.6	20.7	20.7
0.9	0.6	21.7	21.7
0.933	0.6	23.1	23.1
0.967	0.6	24.7	24.7
1	0.6	26.8	26.8
0	0.65	45.7	45.7
0.0333	0.65	41.4	41.4
0.0667	0.65	37.3	37.3
0.1	0.65	33.9	33.9
0.133	0.65	31.2	31.2
0.167	0.65	28.8	28.8
0.2	0.65	26.9	26.9
0.233	0.65	25.1	25.1
0.267	0.65	23.3	23.3
0.3	0.65	21.2	21.2
0.333	0.65	18.9	18.9
0.367	0.65	16.5	16.5
0.4	0.65	14.2	14.2
0.433	0.65	12.2	12.2
0.467	0.65	10.7	10.7
0.5	0.65	9.57	9.57
0.533	0.65	8.94	8.94
0.567	0.65	8.8	8.8
0.6	0.65	9.16	9.16
0.633	0.65	10	10
0.667	0.65	11.4	11.4
0.7	0.65	13.1	13.1
0.733	0.65	15	15
0.767	0.65	16.9	16.9
0.8	0.65	18.5	18.5
0.833	0.65	19.8	19.8
0.867	0.65	21	21
0.9	0.65	22.1	22.1
0.933	0.65	23.7	23.7
0.967	0.65	25.3	25.3
1	0.65	27.6	27.6
0	0.7	48.4	48.4
0.0333	0.7	43.6	43.6
0.0667	0.7	39.1	39.1
0.1	0.7	35.4	35.4
0.133	0.7	32.3	32.3
0.167	0.7	29.8	29.8
0.2	0.7	27.7	27.7
0.233	0.7	25.8	25.8
0.267	0.7	23.8	23.8
0.3	0.7	21.6	21.6
0.333	0.7	19.2	19.2
0.367	0.7	16.7	16.7
0.4	0.7	14.4	14.4
0.433	0.7	12.3	12.3
0.467	0.7	10.7	10.7
0.5	0.7	9.57	9.57
0.533	0.7	8.91	8.91
0.567	0.7	8.74	8.74
0.6	0.7	9.08	9.08
0.633	0.7	9.94	9.94
0.667	0.7	11.3	11.3
0.7	0.7	13	13
0.733	0.7	15	15
0.767	0.7	16.9	16.9
0.8	0.7	18.6	18.6
0.833	0.7	20	20
0.867	0.7	21.2	21.2
0.9	0.7	22.5	22.5
0.933	0.7	24.2	24.2
0.967	0.7	26	26
1	0.7	28.5	28.5
0	0.75	50.6	50.6
0.0333	0.75	45.3	45.3
0.0667	0.75	40.4	40.4
0.1	0.75	36.2	36.2
0.133	0.75	32.9	32.9
0.167	0.75	30.2	30.2
0.2	0.75	27.9	27.9
0.233	0.75	25.9	25.9
0.267	0.75	23.9	23.9
0.3	0.75	21.6	21.6
0.333	0.75	19.1	19.1
0.367	0.75	16.6	16.6
0.4	0.75	14.2	14.2
0.433	0.75	12.2	12.2
0.467	0.75	10.6	10.6
0.5	0.75	9.39	9.39
0.533	0.75	8.72	8.72
0.567	0.75	8.54	8.54
0.6	0.75	8.87	8.87
0.633	0.75	9.71	9.71
0.667	0.75	11	11
0.7	0.75	12.8	12.8
0.733	0.75	14.8	14.8
0.767	0.75	16.7	16.7
0.8	0.75	18.5	18.5
0.833	0.75	19.9	19.9
0.867	0.75	21.3	21.3
0.9	0.75	22.6	22.6
0.933	0.75	24.4	24.4
0.967	0.75	26.3	26.3
1	0.75	29.1	29.1
0	0.8	52.8	52.8
0.0333	0.8	47	47
0.0667	0.8	41.6	41.6
0.1	0.8	37.1	37.1
0.133	0.8	33.6	33.6
0.167	0.8	30.6	30.6
0.2	0.8	28.2	28.2
0.233	0.8	26.1	26.1
0.267	0.8	23.9	23.9
0.3	0.8	21.6	21.6
0.333	0.8	19.1	19.1
0.367	0.8	16.5	16.5
0.4	0.8	14.1	14.1
0.433	0.8	12	12
0.467	0.8	10.4	10.4
0.5	0.8	9.22	9.22
0.533	0.8	8.54	8.54
0.567	0.8	8.34	8.34
0.6	0.8	8.65	8.65
0.633	0.8	9.48	9.48
0.667	0.8	10.8	10.8
0.7	0.8	12.5	12.5
0.733	0.8	14.5	14.5
0.767	0.8	16.5	16.5
0.8	0.8	18.3	18.3
0.833	0.8	19.8	19.8
0.867	0.8	21.3	21.3
0.9	0.8	22.7	22.7
0.933	0.8	24.6	24.6
0.967	0.8	26.7	26.7
1	0.8	29.7	29.7
0	0.85	54.4	54.4
0.0333	0.85	47.9	47.9
0.0667	0.85	42.1	42.1
0.1	0.85	37.4	37.4
0.133	0.85	33.6	33.6
0.167	0.85	30.5	30.5
0.2	0.85	27.9	27.9
0.233	0.85	25.7	25.7
0.267	0.85	23.5	23.5
0.3	0.85	21.1	21.1
0.333	0.85	18.6	18.6
0.367	0.85	16	16
0.4	0.85	13.6	13.6
0.433	0.85	11.6	11.6
0.467	0.85	10	10
0.5	0.85	8.88	8.88
0.533	0.85	8.21	8.21
0.567	0.85	8.02	8.02
0.6	0.85	8.32	8.32
0.633	0.85	9.12	9.12
0.667	0.85	10.4	10.4
0.7	0.85	12.1	12.1
0.733	0.85	14.1	14.1
0.767	0.85	16.1	16.1
0.8	0.85	17.9	17.9
0.833	0.85	19.5	19.5
0.867	0.85	21	21
0.9	0.85	22.5	22.5
0.933	0.85	24.6	24.6
0.967	0.85	26.8	26.8
1	0.85	30.1	30.1
0	0.9	55.9	55.9
0.0333	0.9	48.9	48.9
0.0667	0.9	42.7	42.7
0.1	0.9	37.6	37.6
0.133	0.9	33.5	33.5
0.167	0.9	30.3	30.3
0.2	0.9	27.6	27.6
0.233	0.9	25.3	25.3
0.267	0.9	23	23
0.3	0.9	20.6	20.6
0.333	0.9	18.1	18.1
0.367	0.9	15.5	15.5
0.4	0.9	13.2	13.2
0.433	0.9	11.2	11.2
0.467	0.9	9.65	9.65
0.5	0.9	8.53	8.53
0.533	0.9	7.88	7.88
0.567	0.9	7.7	7.7
0.6	0.9	7.99	7.99
0.633	0.9	8.77	8.77
0.667	0.9	10	10
0.7	0.9	11.7	11.7
0.733	0.9	13.7	13.7
0.767	0.9	15.7	15.7
0.8	0.9	17.5	17.5
0.833	0.9	19.2	19.2
0.867	0.9	20.7	20.7
0.9	0.9	22.4	22.4
0.933	0.9	24.6	24.6
0.967	0.9	27	27
1	0.9	30.4	30.4
0	0.95	56.7	56.7
0.0333	0.95	49.2	49.2
0.0667	0.95	42.5	42.5
0.1	0.95	37.1	37.1
0.133	0.95	32.9	32.9
0.167	0.95	29.5	29.5
0.2	0.95	26.8	26.8
0.233	0.95	24.4	24.4
0.267	0.95	22.1	22.1
0.3	0.95	19.7	19.7
0.333	0.95	17.2	17.2
0.367	0.95	14.8	14.8
0.4	0.95	12.5	12.5
0.433	0.95	10.6	10.6
0.467	0.95	9.11	9.11
0.5	0.95	8.06	8.06
0.533	0.95	7.44	7.44
0.567	0.95	7.27	7.27
0.6	0.95	7.55	7.55
0.633	0.95	8.3	8.3
0.667	0.95	9.52	9.52
0.7	0.95	11.2	11.2
0.733	0.95	13.1	13.1
0.767	0.95	15	15
0.8	0.95	16.9	16.9
0.833	0.95	18.6	18.6
0.867	0.95	20.3	20.3
0.9	0.95	22	22
0.933	0.95	24.3	24.3
0.967	0.95	26.9	26.9
1	0.95	30.7	30.7
0	1	57.5	57.5
0.0333	1	49.4	49.4
0.0667	1	42.4	42.4
0.1	1	36.7	36.7
0.133	1	32.3	32.3
0.167	1	28.8	28.8
0.2	1	25.9	25.9
0.233	1	23.5	23.5
0.267	1	21.2	21.2
0.3	1	18.8	18.8
0.333	1	16.4	16.4
0.367	1	14	14
0.4	1	11.8	11.8
0.433	1	10	10
0.467	1	8.58	8.58
0.5	1	7.58	7.58
0.533	1	7	7
0.567	1	6.84	6.84
0.6	1	7.11	7.11
0.633	1	7.84	7.84
0.667	1	9.01	9.01
0.7	1	10.6	10.6
0.733	1	12.5	12.5
0.767	1	14.4	14.4
0.8	1	16.3	16.3
0.833	1	18	18
0.867	1	19.8	19.8
0.9	1	21.6	21.6
0.933	1	24.1	24.1
0.967	1	26.9	26.9
1	1	30.9	30.9
