x	y	z	c
0	0	1.51	1.51
0.0333	0	1.69	1.69
0.0667	0	1.8	1.8
0.1	0	1.85	1.85
0.133	0	1.85	1.85
0.167	0	1.79	1.79
0.2	0	1.67	1.67
0.233	0	1.49	1.49
0.267	0	1.26	1.26
0.3	0	0.983	0.983
0.333	0	0.683	0.683
0.367	0	0.374	0.374
0.4	0	0.0751	0.0751
0.433	0	-0.201	-0.201
0.467	0	-0.443	-0.443
0.5	0	-0.647	-0.647
0.533	0	-0.811	-0.811
0.567	0	-0.933	-0.933
0.6	0	-1.01	-1.01
0.633	0	-1.05	-1.05
0.667	0	-1.03	-1.03
0.7	0	-0.962	-0.962
0.733	0	-0.836	-0.836
0.767	0	-0.655	-0.655
0.8	0	-0.425	-0.425
0.833	0	-0.162	-0.162
0.867	0	0.122	0.122
0.9	0	0.412	0.412
0.933	0	0.696	0.696
0.967	0	0.956	0.956
1	0	1.2	1.2
0	0.05	1.58	1.58
0.0333	0.05	1.76	1.76
0.0667	0.05	1.89	1.89
0.1	0.05	1.97	1.97
0.133	0.05	1.99	1.99
0.167	0.05	1.96	1.96
0.2	0.05	1.87	1.87
0.233	0.05	1.72	1.72
0.267	0.05	1.51	1.51
0.3	0.05	1.25	1.25
0.333	0.05	0.956	0.956
0.367	0.05	0.64	0.64
0.4	0.05	0.327	0.327
0.433	0.05	0.0357	0.0357
0.467	0.05	-0.221	-0.221
0.5	0.05	-0.437	-0.437
0.533	0.05	-0.612	-0.612
0.567	0.05	-0.747	-0.747
0.6	0.05	-0.845	-0.845
0.633	0.05	-0.91	-0.91
0.667	0.05	-0.938	-0.938
0.7	0.05	-0.925	-0.925
0.733	0.05	-0.86	-0.86
0.767	0.05	-0.739	-0.739
0.8	0.05	-0.561	-0.561
0.833	0.05	-0.335	-0.335
0.867	0.05	-0.0731	-0.0731
0.9	0.05	0.211	0.211
0.933	0.05	0.504	0.504
0.967	0.05	0.79	0.79
1	0.05	1.08	1.08
0	0.1	1.66	1.66
0.0333	0.1	1.83	1.83
0.0667	0.1	1.98	1.98
0.1	0.1	2.08	2.08
0.133	0.1	2.13	2.13
0.167	0.1	2.13	2.13
0.2	0.1	2.07	2.07
0.233	0.1	1.95	1.95
0.267	0.1	1.77	1.77
0.3	0.1	1.52	1.52
0.333	0.1	1.23	1.23
0.367	0.1	0.905	0.905
0.4	0.1	0.579	0.579
0.433	0.1	0.272	0.272
0.467	0.1	0.000889	0.000889
0.5	0.1	-0.227	-0.227
0.533	0.1	-0.413	-0.413
0.567	0.1	-0.56	-0.56
0.6	0.1	-0.679	-0.679
0.633	0.1	-0.773	-0.773
0.667	0.1	-0.845	-0.845
0.7	0.1	-0.887	-0.887
0.733	0.1	-0.884	-0.884
0.767	0.1	-0.823	-0.823
0.8	0.1	-0.697	-0.697
0.833	0.1	-0.508	-0.508
0.867	0.1	-0.268	-0.268
0.9	0.1	0.0095	0.0095
0.933	0.1	0.312	0.312
0.967	0.1	0.623	0.623
1	0.1	0.957	0.957
0	0.15	1.27	1.27
0.0333	0.15	1.51	1.51
0.0667	0.15	1.75	1.75
0.1	0.15	1.96	1.96
0.133	0.15	2.13	2.13
0.167	0.15	2.25	2.25
0.2	0.15	2.32	2.32
0.233	0.15	2.32	2.32
0.267	0.15	2.24	2.24
0.3	0.15	2.07	2.07
0.333	0.15	1.82	1.82
0.367	0.15	1.51	1.51
0.4	0.15	1.19	1.19
0.433	0.15	0.875	0.875
0.467	0.15	0.598	0.598
0.5	0.15	0.365	0.365
0.533	0.15	0.173	0.173
0.567	0.15	0.00752	0.00752
0.6	0.15	-0.151	-0.151
0.633	0.15	-0.32	-0.32
0.667	0.15	-0.506	-0.506
0.7	0.15	-0.702	-0.702
0.733	0.15	-0.881	-0.881
0.767	0.15	-1.01	-1.01
0.8	0.15	-1.06	-1.06
0.833	0.15	-1.02	-1.02
0.867	0.15	-0.894	-0.894
0.9	0.15	-0.692	-0.692
0.933	0.15	-0.425	-0.425
0.967	0.15	-0.101	-0.101
1	0.15	0.308	0.308
0	0.2	0.888	0.888
0.0333	0.2	1.19	1.19
0.0667	0.2	1.52	1.52
0.1	0.2	1.85	1.85
0.133	0.2	2.13	2.13
0.167	0.2	2.38	2.38
0.2	0.2	2.57	2.57
0.233	0.2	2.7	2.7
0.267	0.2	2.72	2.72
0.3	0.2	2.62	2.62
0.333	0.2	2.41	2.41
0.367	0.2	2.12	2.12
0.4	0.2	1.8	1.8
0.433	0.2	1.48	1.48
0.467	0.2	1.19	1.19
0.5	0.2	0.957	0.957
0.533	0.2	0.759	0.759
0.567	0.2	0.575	0.575
0.6	0.2	0.377	0.377
0.633	0.2	0.134	0.134
0.667	0.2	-0.168	-0.168
0.7	0.2	-0.518	-0.518
0.733	0.2	-0.879	-0.879
0.767	0.2	-1.2	-1.2
0.8	0.2	-1.42	-1.42
0.833	0.2	-1.53	-1.53
0.867	0.2	-1.52	-1.52
0.9	0.2	-1.39	-1.39
0.933	0.2	-1.16	-1.16
0.967	0.2	-0.826	-0.826
1	0.2	-0.34	-0.34
0	0.25	0.129	0.129
0.0333	0.25	0.625	0.625
0.0667	0.25	1.18	1.18
0.1	0.25	1.76	1.76
0.133	0.25	2.28	2.28
0.167	0.25	2.76	2.76
0.2	0.25	3.18	3.18
0.233	0.25	3.51	3.51
0.267	0.25	3.68	3.68
0.3	0.25	3.69	3.69
0.333	0.25	3.51	3.51
0.367	0.25	3.21	3.21
0.4	0.25	2.85	2.85
0.433	0.25	2.49	2.49
0.467	0.25	2.16	2.16
0.5	0.25	1.88	1.88
0.533	0.25	1.64	1.64
0.567	0.25	1.4	1.4
0.6	0.25	1.11	1.11
0.633	0.25	0.717	0.717
0.667	0.25	0.206	0.206
0.7	0.25	-0.413	-0.413
0.733	0.25	-1.08	-1.08
0.767	0.25	-1.71	-1.71
0.8	0.25	-2.22	-2.22
0.833	0.25	-2.56	-2.56
0.867	0.25	-2.72	-2.72
0.9	0.25	-2.69	-2.69
0.933	0.25	-2.48	-2.48
0.967	0.25	-2.1	-2.1
1	0.25	-1.45	-1.45
0	0.3	-0.631	-0.631
0.0333	0.3	0.0573	0.0573
0.0667	0.3	0.843	0.843
0.1	0.3	1.66	1.66
0.133	0.3	2.43	2.43
0.167	0.3	3.15	3.15
0.2	0.3	3.79	3.79
0.233	0.3	4.32	4.32
0.267	0.3	4.65	4.65
0.3	0.3	4.75	4.75
0.333	0.3	4.62	4.62
0.367	0.3	4.31	4.31
0.4	0.3	3.91	3.91
0.433	0.3	3.49	3.49
0.467	0.3	3.12	3.12
0.5	0.3	2.8	2.8
0.533	0.3	2.52	2.52
0.567	0.3	2.22	2.22
0.6	0.3	1.83	1.83
0.633	0.3	1.3	1.3
0.667	0.3	0.58	0.58
0.7	0.3	-0.308	-0.308
0.733	0.3	-1.28	-1.28
0.767	0.3	-2.23	-2.23
0.8	0.3	-3.02	-3.02
0.833	0.3	-3.59	-3.59
0.867	0.3	-3.91	-3.91
0.9	0.3	-3.98	-3.98
0.933	0.3	-3.81	-3.81
0.967	0.3	-3.37	-3.37
1	0.3	-2.56	-2.56
0	0.35	-1.36	-1.36
0.0333	0.35	-0.329	-0.329
0.0667	0.35	0.819	0.819
0.1	0.35	2	2
0.133	0.35	3.1	3.1
0.167	0.35	4.11	4.11
0.2	0.35	5.01	5.01
0.233	0.35	5.74	5.74
0.267	0.35	6.22	6.22
0.3	0.35	6.37	6.37
0.333	0.35	6.2	6.2
0.367	0.35	5.8	5.8
0.4	0.35	5.28	5.28
0.433	0.35	4.75	4.75
0.467	0.35	4.26	4.26
0.5	0.35	3.84	3.84
0.533	0.35	3.46	3.46
0.567	0.35	3.04	3.04
0.6	0.35	2.51	2.51
0.633	0.35	1.76	1.76
0.667	0.35	0.752	0.752
0.7	0.35	-0.486	-0.486
0.733	0.35	-1.85	-1.85
0.767	0.35	-3.17	-3.17
0.8	0.35	-4.28	-4.28
0.833	0.35	-5.09	-5.09
0.867	0.35	-5.56	-5.56
0.9	0.35	-5.68	-5.68
0.933	0.35	-5.46	-5.46
0.967	0.35	-4.88	-4.88
1	0.35	-3.76	-3.76
0	0.4	-2.08	-2.08
0.0333	0.4	-0.716	-0.716
0.0667	0.4	0.795	0.795
0.1	0.4	2.34	2.34
0.133	0.4	3.76	3.76
0.167	0.4	5.07	5.07
0.2	0.4	6.23	6.23
0.233	0.4	7.17	7.17
0.267	0.4	7.78	7.78
0.3	0.4	7.98	7.98
0.333	0.4	7.79	7.79
0.367	0.4	7.3	7.3
0.4	0.4	6.66	6.66
0.433	0.4	6	6
0.467	0.4	5.4	5.4
0.5	0.4	4.88	4.88
0.533	0.4	4.4	4.4
0.567	0.4	3.87	3.87
0.6	0.4	3.18	3.18
0.633	0.4	2.21	2.21
0.667	0.4	0.923	0.923
0.7	0.4	-0.665	-0.665
0.733	0.4	-2.41	-2.41
0.767	0.4	-4.11	-4.11
0.8	0.4	-5.55	-5.55
0.833	0.4	-6.59	-6.59
0.867	0.4	-7.21	-7.21
0.9	0.4	-7.38	-7.38
0.933	0.4	-7.11	-7.11
0.967	0.4	-6.38	-6.38
1	0.4	-4.97	-4.97
0	0.45	-2.25	-2.25
0.0333	0.45	-0.444	-0.444
0.0667	0.45	1.5	1.5
0.1	0.45	3.43	3.43
0.133	0.45	5.18	5.18
0.167	0.45	6.76	6.76
0.2	0.45	8.12	8.12
0.233	0.45	9.19	9.19
0.267	0.45	9.84	9.84
0.3	0.45	9.98	9.98
0.333	0.45	9.64	9.64
0.367	0.45	8.96	8.96
0.4	0.45	8.1	8.1
0.433	0.45	7.24	7.24
0.467	0.45	6.46	6.46
0.5	0.45	5.78	5.78
0.533	0.45	5.15	5.15
0.567	0.45	4.45	4.45
0.6	0.45	3.56	3.56
0.633	0.45	2.34	2.34
0.667	0.45	0.733	0.733
0.7	0.45	-1.23	-1.23
0.733	0.45	-3.37	-3.37
0.767	0.45	-5.42	-5.42
0.8	0.45	-7.14	-7.14
0.833	0.45	-8.34	-8.34
0.867	0.45	-9.02	-9.02
0.9	0.45	-9.14	-9.14
0.933	0.45	-8.7	-8.7
0.967	0.45	-7.7	-7.7
1	0.45	-5.85	-5.85
0	0.5	-2.42	-2.42
0.0333	0.5	-0.173	-0.173
0.0667	0.5	2.2	2.2
0.1	0.5	4.53	4.53
0.133	0.5	6.61	6.61
0.167	0.5	8.44	8.44
0.2	0.5	10	10
0.233	0.5	11.2	11.2
0.267	0.5	11.9	11.9
0.3	0.5	12	12
0.333	0.5	11.5	11.5
0.367	0.5	10.6	10.6
0.4	0.5	9.55	9.55
0.433	0.5	8.48	8.48
0.467	0.5	7.52	7.52
0.5	0.5	6.68	6.68
0.533	0.5	5.9	5.9
0.567	0.5	5.03	5.03
0.6	0.5	3.94	3.94
0.633	0.5	2.47	2.47
0.667	0.5	0.543	0.543
0.7	0.5	-1.79	-1.79
0.733	0.5	-4.32	-4.32
0.767	0.5	-6.74	-6.74
0.8	0.5	-8.73	-8.73
0.833	0.5	-10.1	-10.1
0.867	0.5	-10.8	-10.8
0.9	0.5	-10.9	-10.9
0.933	0.5	-10.3	-10.3
0.967	0.5	-9.03	-9.03
1	0.5	-6.74	-6.74
0	0.55	-1.71	-1.71
0.0333	0.55	0.994	0.994
0.0667	0.55	3.77	3.77
0.1	0.55	6.43	6.43
0.133	0.55	8.76	8.76
0.167	0.55	10.8	10.8
0.2	0.55	12.4	12.4
0.233	0.55	13.6	13.6
0.267	0.55	14.2	14.2
0.3	0.55	14.1	14.1
0.333	0.55	13.4	13.4
0.367	0.55	12.2	12.2
0.4	0.55	10.8	10.8
0.433	0.55	9.52	9.52
0.467	0.55	8.34	8.34
0.5	0.55	7.31	7.31
0.533	0.55	6.34	6.34
0.567	0.55	5.29	5.29
0.6	0.55	3.99	3.99
0.633	0.55	2.27	2.27
0.667	0.55	0.0351	0.0351
0.7	0.55	-2.64	-2.64
0.733	0.55	-5.51	-5.51
0.767	0.55	-8.21	-8.21
0.8	0.55	-10.4	-10.4
0.833	0.55	-11.8	-11.8
0.867	0.55	-12.5	-12.5
0.9	0.55	-12.4	-12.4
0.933	0.55	-11.5	-11.5
0.967	0.55	-9.9	-9.9
1	0.55	-7.07	-7.07
0	0.6	-0.99	-0.99
0.0333	0.6	2.16	2.16
0.0667	0.6	5.35	5.35
0.1	0.6	8.34	8.34
0.133	0.6	10.9	10.9
0.167	0.6	13.1	13.1
0.2	0.6	14.8	14.8
0.233	0.6	16	16
0.267	0.6	16.5	16.5
0.3	0.6	16.2	16.2
0.333	0.6	15.3	15.3
0.367	0.6	13.8	13.8
0.4	0.6	12.1	12.1
0.433	0.6	10.6	10.6
0.467	0.6	9.16	9.16
0.5	0.6	7.93	7.93
0.533	0.6	6.78	6.78
0.567	0.6	5.55	5.55
0.6	0.6	4.04	4.04
0.633	0.6	2.06	2.06
0.667	0.6	-0.472	-0.472
0.7	0.6	-3.48	-3.48
0.733	0.6	-6.69	-6.69
0.767	0.6	-9.68	-9.68
0.8	0.6	-12	-12
0.833	0.6	-13.6	-13.6
0.867	0.6	-14.2	-14.2
0.9	0.6	-13.9	-13.9
0.933	0.6	-12.8	-12.8
0.967	0.6	-10.8	-10.8
1	0.6	-7.4	-7.4
0	0.65	0.685	0.685
0.0333	0.65	4.11	4.11
0.0667	0.65	7.5	7.5
0.1	0.65	10.6	10.6
0.133	0.65	13.2	13.2
0.167	0.65	15.3	15.3
0.2	0.65	16.9	16.9
0.233	0.65	18	18
0.267	0.65	18.3	18.3
0.3	0.65	17.7	17.7
0.333	0.65	16.4	16.4
0.367	0.65	14.7	14.7
0.4	0.65	12.8	12.8
0.433	0.65	11	11
0.467	0.65	9.4	9.4
0.5	0.65	8.02	8.02
0.533	0.65	6.73	6.73
0.567	0.65	5.37	5.37
0.6	0.65	3.71	3.71
0.633	0.65	1.56	1.56
0.667	0.65	-1.15	-1.15
0.7	0.65	-4.35	-4.35
0.733	0.65	-7.73	-7.73
0.767	0.65	-10.8	-10.8
0.8	0.65	-13.2	-13.2
0.833	0.65	-14.7	-14.7
0.867	0.65	-15.2	-15.2
0.9	0.65	-14.7	-14.7
0.933	0.65	-13.2	-13.2
0.967	0.65	-10.8	-10.8
1	0.65	-6.94	-6.94
0	0.7	2.36	2.36
0.0333	0.7	6.07	6.07
0.0667	0.7	9.66	9.66
0.1	0.7	12.9	12.9
0.133	0.7	15.5	15.5
0.167	0.7	17.6	17.6
0.2	0.7	19.1	19.1
0.233	0.7	20	20
0.267	0.7	20	20
0.3	0.7	19.2	19.2
0.333	0.7	17.6	17.6
0.367	0.7	15.6	15.6
0.4	0.7	13.4	13.4
0.433	0.7	11.4	11.4
0.467	0.7	9.64	9.64
0.5	0.7	8.11	8.11
0.533	0.7	6.69	6.69
0.567	0.7	5.18	5.18
0.6	0.7	3.38	3.38
0.633	0.7	1.07	1.07
0.667	0.7	-1.83	-1.83
0.7	0.7	-5.22	-5.22
0.733	0.7	-8.76	-8.76
0.767	0.7	-12	-12
0.8	0.7	-14.4	-14.4
0.833	0.7	-15.8	-15.8
0.867	0.7	-16.1	-16.1
0.9	0.7	-15.4	-15.4
0.933	0.7	-13.7	-13.7
0.967	0.7	-10.9	-10.9
1	0.7	-6.49	-6.49
0	0.75	4.37	4.37
0.0333	0.75	8.16	8.16
0.0667	0.75	11.8	11.8
0.1	0.75	14.9	14.9
0.133	0.75	17.4	17.4
0.167	0.75	19.2	19.2
0.2	0.75	20.5	20.5
0.233	0.75	21.2	21.2
0.267	0.75	21	21
0.3	0.75	19.9	19.9
0.333	0.75	18	18
0.367	0.75	15.8	15.8
0.4	0.75	13.4	13.4
0.433	0.75	11.3	11.3
0.467	0.75	9.42	9.42
0.5	0.75	7.81	7.81
0.533	0.75	6.31	6.31
0.567	0.75	4.75	4.75
0.6	0.75	2.88	2.88
0.633	0.75	0.512	0.512
0.667	0.75	-2.44	-2.44
0.7	0.75	-5.86	-5.86
0.733	0.75	-9.41	-9.41
0.767	0.75	-12.6	-12.6
0.8	0.75	-14.9	-14.9
0.833	0.75	-16.2	-16.2
0.867	0.75	-16.4	-16.4
0.9	0.75	-15.5	-15.5
0.933	0.75	-13.5	-13.5
0.967	0.75	-10.5	-10.5
1	0.75	-5.66	-5.66
0	0.8	6.38	6.38
0.0333	0.8	10.2	10.2
0.0667	0.8	13.8	13.8
0.1	0.8	16.9	16.9
0.133	0.8	19.2	19.2
0.167	0.8	20.9	20.9
0.2	0.8	22	22
0.233	0.8	22.4	22.4
0.267	0.8	21.9	21.9
0.3	0.8	20.6	20.6
0.333	0.8	18.5	18.5
0.367	0.8	16	16
0.4	0.8	13.5	13.5
0.433	0.8	11.2	11.2
0.467	0.8	9.21	9.21
0.5	0.8	7.51	7.51
0.533	0.8	5.94	5.94
0.567	0.8	4.31	4.31
0.6	0.8	2.38	2.38
0.633	0.8	-0.0428	-0.0428
0.667	0.8	-3.04	-3.04
0.7	0.8	-6.5	-6.5
0.733	0.8	-10.1	-10.1
0.767	0.8	-13.2	-13.2
0.8	0.8	-15.5	-15.5
0.833	0.8	-16.6	-16.6
0.867	0.8	-16.6	-16.6
0.9	0.8	-15.6	-15.6
0.933	0.8	-13.3	-13.3
0.967	0.8	-10	-10
1	0.8	-4.83	-4.83
0	0.85	8.05	8.05
0.0333	0.85	11.8	11.8
0.0667	0.85	15.3	15.3
0.1	0.85	18.2	18.2
0.133	0.85	20.3	20.3
0.167	0.85	21.7	21.7
0.2	0.85	22.5	22.5
0.233	0.85	22.6	22.6
0.267	0.85	21.9	21.9
0.3	0.85	20.4	20.4
0.333	0.85	18.1	18.1
0.367	0.85	15.6	15.6
0.4	0.85	13	13
0.433	0.85	10.7	10.7
0.467	0.85	8.68	8.68
0.5	0.85	6.97	6.97
0.533	0.85	5.4	5.4
0.567	0.85	3.78	3.78
0.6	0.85	1.88	1.88
0.633	0.85	-0.493	-0.493
0.667	0.85	-3.42	-3.42
0.7	0.85	-6.77	-6.77
0.733	0.85	-10.2	-10.2
0.767	0.85	-13.2	-13.2
0.8	0.85	-15.4	-15.4
0.833	0.85	-16.4	-16.4
0.867	0.85	-16.3	-16.3
0.9	0.85	-15.2	-15.2
0.933	0.85	-12.8	-12.8
0.967	0.85	-9.4	-9.4
1	0.85	-4.01	-4.01
0	0.9	9.72	9.72
0.0333	0.9	13.4	13.4
0.0667	0.9	16.8	16.8
0.1	0.9	19.4	19.4
0.133	0.9	21.3	21.3
0.167	0.9	22.5	22.5
0.2	0.9	23	23
0.233	0.9	22.9	22.9
0.267	0.9	22	22
0.3	0.9	20.2	20.2
0.333	0.9	17.8	17.8
0.367	0.9	15.1	15.1
0.4	0.9	12.5	12.5
0.433	0.9	10.2	10.2
0.467	0.9	8.14	8.14
0.5	0.9	6.42	6.42
0.533	0.9	4.86	4.86
0.567	0.9	3.25	3.25
0.6	0.9	1.38	1.38
0.633	0.9	-0.943	-0.943
0.667	0.9	-3.79	-3.79
0.7	0.9	-7.05	-7.05
0.733	0.9	-10.4	-10.4
0.767	0.9	-13.3	-13.3
0.8	0.9	-15.3	-15.3
0.833	0.9	-16.2	-16.2
0.867	0.9	-16.1	-16.1
0.9	0.9	-14.8	-14.8
0.933	0.9	-12.3	-12.3
0.967	0.9	-8.78	-8.78
1	0.9	-3.19	-3.19
0	0.95	10.7	10.7
0.0333	0.95	14.3	14.3
0.0667	0.95	17.4	17.4
0.1	0.95	19.9	19.9
0.133	0.95	21.5	21.5
0.167	0.95	22.4	22.4
0.2	0.95	22.7	22.7
0.233	0.95	22.4	22.4
0.267	0.95	21.3	21.3
0.3	0.95	19.5	19.5
0.333	0.95	17	17
0.367	0.95	14.3	14.3
0.4	0.95	11.7	11.7
0.433	0.95	9.41	9.41
0.467	0.95	7.45	7.45
0.5	0.95	5.79	5.79
0.533	0.95	4.28	4.28
0.567	0.95	2.75	2.75
0.6	0.95	0.984	0.984
0.633	0.95	-1.2	-1.2
0.667	0.95	-3.89	-3.89
0.7	0.95	-6.97	-6.97
0.733	0.95	-10.1	-10.1
0.767	0.95	-12.9	-12.9
0.8	0.95	-14.8	-14.8
0.833	0.95	-15.7	-15.7
0.867	0.95	-15.5	-15.5
0.9	0.95	-14.2	-14.2
0.933	0.95	-11.8	-11.8
0.967	0.95	-8.25	-8.25
1	0.95	-2.62	-2.62
0	1	11.7	11.7
0.0333	1	15.2	15.2
0.0667	1	18.1	18.1
0.1	1	20.3	20.3
0.133	1	21.7	21.7
0.167	1	22.4	22.4
0.2	1	22.4	22.4
0.233	1	21.9	21.9
0.267	1	20.7	20.7
0.3	1	18.7	18.7
0.333	1	16.2	16.2
0.367	1	13.5	13.5
0.4	1	10.9	10.9
0.433	1	8.68	8.68
0.467	1	6.76	6.76
0.5	1	5.15	5.15
0.533	1	3.71	3.71
0.567	1	2.26	2.26
0.6	1	0.592	0.592
0.633	1	-1.46	-1.46
0.667	1	-3.98	-3.98
0.7	1	-6.88	-6.88
0.733	1	-9.85	-9.85
0.767	1	-12.5	-12.5
0.8	1	-14.3	-14.3
0.833	1	-15.1	-15.1
0.867	1	-14.9	-14.9
0.9	1	-13.7	-13.7
0.933	1	-11.2	-11.2
0.967	1	-7.73	-7.73
1	1	-2.05	-2.05
