0	0	0
2.73e-08	0	-1.17e-10
5.45e-08	0	-2.34e-10
8.18e-08	0	-3.51e-10
2.15e-07	0	-9.18e-10
3.48e-07	0	-1.48e-09
4.82e-07	0	-2.03e-09
6.15e-07	0	-2.58e-09
8.47e-07	0	-3.51e-09
1.08e-06	0	-4.42e-09
1.31e-06	0	-5.31e-09
1.54e-06	0	-6.18e-09
1.77e-06	0	-7.02e-09
2.41e-06	0	-9.2e-09
3.04e-06	0	-1.12e-08
3.67e-06	0	-1.3e-08
4.31e-06	0	-1.46e-08
4.94e-06	0	-1.59e-08
5.57e-06	0	-1.71e-08
6.45e-06	0	-1.83e-08
7.32e-06	0	-1.9e-08
8.19e-06	0	-1.92e-08
9.06e-06	0	-1.9e-08
9.93e-06	0	-1.82e-08
1.08e-05	0	-1.69e-08
1.19e-05	0	-1.45e-08
1.3e-05	0	-1.13e-08
1.4e-05	0	-7.13e-09
1.51e-05	0	-2.07e-09
1.62e-05	0	3.92e-09
1.73e-05	0	1.09e-08
1.87e-05	0	2.17e-08
2.02e-05	0	3.44e-08
2.16e-05	0	4.89e-08
2.31e-05	0	6.54e-08
2.45e-05	0	8.38e-08
2.59e-05	0	1.04e-07
2.79e-05	0	1.36e-07
2.99e-05	0	1.71e-07
3.19e-05	0	2.1e-07
3.39e-05	0	2.54e-07
3.59e-05	0	3.01e-07
3.79e-05	0	3.53e-07
4.04e-05	0	4.26e-07
4.29e-05	0	5.06e-07
4.55e-05	0	5.93e-07
4.8e-05	0	6.87e-07
5.05e-05	0	7.9e-07
5.3e-05	0	9e-07
5.64e-05	0	1.06e-06
5.97e-05	0	1.23e-06
6.31e-05	0	1.42e-06
6.65e-05	0	1.62e-06
6.98e-05	0	1.84e-06
7.32e-05	0	2.07e-06
7.78e-05	0	2.41e-06
8.24e-05	0	2.79e-06
8.7e-05	0	3.19e-06
9.16e-05	0	3.62e-06
9.62e-05	0	4.09e-06
0.000101	0	4.59e-06
0.000107	0	5.33e-06
0.000113	0	6.13e-06
0.00012	0	6.99e-06
0.000126	0	7.93e-06
0.000132	0	8.92e-06
0.000139	0	9.99e-06
0.000147	0	1.15e-05
0.000156	0	1.32e-05
0.000165	0	1.5e-05
0.000173	0	1.7e-05
0.000182	0	1.91e-05
0.00019	0	2.13e-05
0.000202	0	2.45e-05
0.000214	0	2.79e-05
0.000225	0	3.17e-05
0.000237	0	3.56e-05
0.000248	0	3.99e-05
0.00026	0	4.44e-05
0.000275	0	5.08e-05
0.000291	0	5.77e-05
0.000306	0	6.52e-05
0.000322	0	7.31e-05
0.000337	0	8.15e-05
0.000353	0	9.04e-05
0.000373	0	0.000103
0.000394	0	0.000117
0.000414	0	0.000131
0.000435	0	0.000146
0.000455	0	0.000163
0.000476	0	0.00018
0.000503	0	0.000204
0.00053	0	0.00023
0.000557	0	0.000258
0.000584	0	0.000287
0.000611	0	0.000318
0.000638	0	0.000351
0.000674	0	0.000398
0.00071	0	0.000447
0.000746	0	0.0005
0.000783	0	0.000556
0.000819	0	0.000615
0.000855	0	0.000677
0.000903	0	0.000763
0.00095	0	0.000855
0.000998	0	0.000952
0.00105	0	0.00105
0.00109	0	0.00116
0.00114	0	0.00127
0.0012	0	0.00143
0.00127	0	0.0016
0.00133	0	0.00177
0.00139	0	0.00196
0.00146	0	0.00215
0.00152	0	0.00235
0.0016	0	0.00262
0.00168	0	0.00291
0.00176	0	0.00321
0.00184	0	0.00352
0.00193	0	0.00385
0.00201	0	0.00419
0.00211	0	0.00464
0.00222	0	0.00512
0.00232	0	0.00561
0.00242	0	0.00613
0.00253	0	0.00666
0.00263	0	0.00722
0.00276	0	0.00794
0.00289	0	0.0087
0.00303	0	0.00948
0.00316	0	0.0103
0.00329	0	0.0111
0.00342	0	0.012
0.00358	0	0.0131
0.00374	0	0.0142
0.0039	0	0.0154
0.00406	0	0.0166
0.00422	0	0.0178
0.00438	0	0.0191
0.00458	0	0.0207
0.00479	0	0.0224
0.00499	0	0.0242
0.00519	0	0.0259
0.0054	0	0.0278
0.0056	0	0.0296
0.00587	0	0.0322
0.00614	0	0.0348
0.0064	0	0.0374
0.00667	0	0.0401
0.00694	0	0.0429
0.00721	0	0.0457
0.00754	0	0.0493
0.00788	0	0.053
0.00822	0	0.0567
0.00855	0	0.0605
0.00889	0	0.0644
0.00922	0	0.0683
0.00963	0	0.0731
0.01	0	0.078
0.0104	0	0.0829
0.0108	0	0.0878
0.0113	0	0.0928
0.0117	0	0.0979
0.0122	0	0.104
0.0127	0	0.111
0.0132	0	0.117
0.0137	0	0.123
0.0142	0	0.13
0.0147	0	0.136
0.0153	0	0.145
0.016	0	0.153
0.0166	0	0.161
0.0172	0	0.169
0.0179	0	0.177
0.0185	0	0.186
0.0193	0	0.196
0.0201	0	0.206
0.0209	0	0.216
0.0217	0	0.226
0.0225	0	0.236
0.0233	0	0.245
0.0243	0	0.257
0.0253	0	0.269
0.0263	0	0.28
0.0272	0	0.292
0.0282	0	0.303
0.0292	0	0.314
0.0304	0	0.327
0.0316	0	0.339
0.0328	0	0.351
0.0331	0	0.355
0.0335	0	0.359
0.0338	0	0.362
0.0342	0	0.365
0.0345	0	0.368
0.0348	0	0.371
0.0351	0	0.374
0.0354	0	0.377
0.0359	0	0.382
0.0364	0	0.386
0.0368	0	0.39
0.0373	0	0.394
0.0378	0	0.399
0.0388	0	0.407
0.0398	0	0.416
0.0408	0	0.424
0.0418	0	0.432
0.0428	0	0.439
0.0442	0	0.449
0.0456	0	0.459
0.0469	0	0.468
0.0483	0	0.476
0.0496	0	0.484
0.051	0	0.492
0.0529	0	0.502
0.0548	0	0.511
0.0566	0	0.519
0.0585	0	0.526
0.0604	0	0.533
0.0623	0	0.539
0.0643	0	0.545
0.0663	0	0.55
0.0667	0	0.551
0.0669	0	0.551
0.067	0	0.551
0.0672	0	0.551
0.0673	0	0.552
0.0674	0	0.552
0.0676	0	0.552
0.0678	0	0.553
0.0681	0	0.553
0.0684	0	0.554
0.0686	0	0.554
0.0689	0	0.555
0.0695	0	0.556
0.0701	0	0.557
0.0707	0	0.558
0.0713	0	0.559
0.0719	0	0.56
0.073	0	0.561
0.0742	0	0.562
0.0753	0	0.564
0.0764	0	0.564
0.0775	0	0.565
0.0792	0	0.566
0.0808	0	0.567
0.0825	0	0.567
0.0841	0	0.567
0.0858	0	0.566
0.0878	0	0.565
0.0898	0	0.564
0.0918	0	0.562
0.0939	0	0.56
0.0959	0	0.558
0.0983	0	0.555
0.0992	0	0.554
0.0998	0	0.553
0.1	0	0.553
0.1	0	0.552
0.1	0	0.552
0.1	0	0.552
0.1	0	0.552
0.101	0	0.552
0.101	0	0.551
0.101	0	0.551
0.101	0	0.551
0.101	0	0.551
0.102	0	0.55
0.102	0	0.549
0.102	0	0.549
0.103	0	0.548
0.103	0	0.547
0.104	0	0.546
0.105	0	0.545
0.105	0	0.544
0.106	0	0.542
0.107	0	0.541
0.108	0	0.54
0.109	0	0.538
0.11	0	0.535
0.111	0	0.533
0.112	0	0.531
0.113	0	0.528
0.115	0	0.525
0.117	0	0.521
0.119	0	0.517
0.12	0	0.513
0.122	0	0.508
0.124	0	0.503
0.127	0	0.497
0.129	0	0.49
0.132	0	0.484
0.133	0	0.482
0.133	0	0.48
0.133	0	0.48
0.133	0	0.48
0.134	0	0.48
0.134	0	0.48
0.134	0	0.479
0.134	0	0.479
0.134	0	0.479
0.134	0	0.479
0.134	0	0.478
0.134	0	0.478
0.135	0	0.477
0.135	0	0.477
0.135	0	0.476
0.135	0	0.475
0.136	0	0.474
0.136	0	0.473
0.136	0	0.472
0.137	0	0.471
0.137	0	0.47
0.138	0	0.468
0.139	0	0.467
0.139	0	0.465
0.14	0	0.463
0.141	0	0.461
0.142	0	0.459
0.143	0	0.456
0.144	0	0.453
0.145	0	0.451
0.146	0	0.448
0.147	0	0.444
0.148	0	0.44
0.15	0	0.436
0.151	0	0.432
0.153	0	0.429
0.155	0	0.423
0.157	0	0.418
0.159	0	0.413
0.161	0	0.407
0.163	0	0.402
0.165	0	0.395
0.166	0	0.393
0.167	0	0.392
0.167	0	0.392
0.167	0	0.392
0.167	0	0.392
0.167	0	0.391
0.167	0	0.391
0.167	0	0.391
0.167	0	0.391
0.167	0	0.391
0.167	0	0.39
0.167	0	0.39
0.167	0	0.39
0.168	0	0.39
0.168	0	0.389
0.168	0	0.388
0.168	0	0.388
0.169	0	0.387
0.169	0	0.386
0.169	0	0.385
0.17	0	0.384
0.17	0	0.382
0.171	0	0.381
0.171	0	0.38
0.172	0	0.378
0.173	0	0.376
0.174	0	0.374
0.174	0	0.372
0.175	0	0.37
0.176	0	0.367
0.178	0	0.364
0.179	0	0.36
0.18	0	0.357
0.181	0	0.354
0.183	0	0.35
0.185	0	0.346
0.186	0	0.342
0.188	0	0.338
0.19	0	0.334
0.192	0	0.328
0.195	0	0.322
0.197	0	0.317
0.199	0	0.311
0.2	0	0.31
0.2	0	0.309
0.201	0	0.308
0.201	0	0.307
0.201	0	0.307
0.202	0	0.306
0.202	0	0.304
0.203	0	0.303
0.203	0	0.302
0.204	0	0.301
0.204	0	0.3
0.206	0	0.297
0.207	0	0.293
0.209	0	0.29
0.21	0	0.287
0.212	0	0.284
0.214	0	0.279
0.217	0	0.274
0.219	0	0.269
0.221	0	0.264
0.224	0	0.259
0.227	0	0.252
0.231	0	0.245
0.232	0	0.243
0.233	0	0.241
0.233	0	0.241
0.233	0	0.241
0.233	0	0.241
0.234	0	0.24
0.234	0	0.24
0.234	0	0.24
0.234	0	0.24
0.234	0	0.24
0.234	0	0.24
0.234	0	0.239
0.234	0	0.239
0.235	0	0.239
0.235	0	0.238
0.235	0	0.237
0.235	0	0.237
0.236	0	0.236
0.236	0	0.235
0.237	0	0.234
0.237	0	0.233
0.238	0	0.232
0.238	0	0.231
0.239	0	0.23
0.24	0	0.228
0.241	0	0.227
0.242	0	0.225
0.243	0	0.224
0.244	0	0.221
0.246	0	0.219
0.247	0	0.217
0.248	0	0.214
0.25	0	0.212
0.251	0	0.209
0.253	0	0.206
0.255	0	0.203
0.257	0	0.201
0.258	0	0.198
0.261	0	0.194
0.263	0	0.191
0.265	0	0.187
0.266	0	0.186
0.267	0	0.186
0.267	0	0.185
0.267	0	0.185
0.267	0	0.185
0.267	0	0.185
0.267	0	0.185
0.267	0	0.185
0.267	0	0.185
0.267	0	0.184
0.267	0	0.184
0.268	0	0.184
0.268	0	0.184
0.268	0	0.183
0.268	0	0.183
0.268	0	0.183
0.269	0	0.182
0.269	0	0.182
0.27	0	0.181
0.27	0	0.181
0.27	0	0.18
0.271	0	0.179
0.272	0	0.178
0.272	0	0.177
0.273	0	0.176
0.274	0	0.175
0.274	0	0.174
0.276	0	0.173
0.277	0	0.171
0.278	0	0.17
0.279	0	0.168
0.28	0	0.167
0.282	0	0.165
0.283	0	0.163
0.285	0	0.161
0.286	0	0.158
0.288	0	0.156
0.29	0	0.154
0.292	0	0.151
0.294	0	0.149
0.296	0	0.146
0.298	0	0.144
0.299	0	0.143
0.3	0	0.142
0.3	0	0.142
0.3	0	0.142
0.3	0	0.142
0.3	0	0.142
0.3	0	0.142
0.3	0	0.142
0.301	0	0.141
0.301	0	0.141
0.301	0	0.141
0.301	0	0.141
0.301	0	0.141
0.301	0	0.141
0.302	0	0.14
0.302	0	0.14
0.302	0	0.14
0.303	0	0.139
0.303	0	0.139
0.304	0	0.138
0.304	0	0.137
0.305	0	0.137
0.305	0	0.136
0.306	0	0.135
0.307	0	0.134
0.308	0	0.134
0.308	0	0.133
0.309	0	0.132
0.311	0	0.13
0.312	0	0.129
0.313	0	0.128
0.314	0	0.127
0.316	0	0.125
0.318	0	0.123
0.319	0	0.122
0.321	0	0.12
0.323	0	0.118
0.325	0	0.116
0.328	0	0.114
0.33	0	0.112
0.332	0	0.11
0.333	0	0.109
0.333	0	0.109
0.333	0	0.108
0.334	0	0.108
0.334	0	0.108
0.334	0	0.108
0.334	0	0.108
0.334	0	0.108
0.334	0	0.108
0.334	0	0.108
0.334	0	0.108
0.335	0	0.107
0.335	0	0.107
0.335	0	0.107
0.335	0	0.107
0.336	0	0.107
0.336	0	0.106
0.337	0	0.106
0.337	0	0.105
0.338	0	0.105
0.338	0	0.104
0.339	0	0.104
0.34	0	0.103
0.341	0	0.102
0.342	0	0.101
0.343	0	0.101
0.344	0	0.0996
0.345	0	0.0985
0.347	0	0.0974
0.348	0	0.0963
0.349	0	0.0953
0.351	0	0.0937
0.353	0	0.0922
0.355	0	0.0908
0.357	0	0.0893
0.359	0	0.0879
0.362	0	0.0859
0.365	0	0.0841
0.366	0	0.0834
0.367	0	0.083
0.367	0	0.0829
0.367	0	0.0828
0.367	0	0.0827
0.367	0	0.0826
0.367	0	0.0825
0.367	0	0.0824
0.368	0	0.0822
0.368	0	0.0821
0.368	0	0.082
0.368	0	0.0819
0.369	0	0.0815
0.369	0	0.0812
0.37	0	0.0808
0.37	0	0.0805
0.371	0	0.0802
0.372	0	0.0796
0.372	0	0.0791
0.373	0	0.0786
0.374	0	0.078
0.375	0	0.0775
0.376	0	0.0766
0.378	0	0.0757
0.379	0	0.0748
0.381	0	0.0739
0.382	0	0.0731
0.384	0	0.0718
0.387	0	0.0705
0.389	0	0.0692
0.391	0	0.068
0.393	0	0.0668
0.396	0	0.0651
0.4	0	0.0635
0.4	0	0.0633
0.4	0	0.0632
0.4	0	0.0631
0.401	0	0.0629
0.401	0	0.0628
0.401	0	0.0626
0.402	0	0.0625
0.402	0	0.0623
0.402	0	0.0622
0.403	0	0.062
0.403	0	0.0616
0.404	0	0.0612
0.405	0	0.0607
0.406	0	0.0603
0.407	0	0.0599
0.408	0	0.0592
0.41	0	0.0585
0.411	0	0.0579
0.413	0	0.0572
0.414	0	0.0565
0.416	0	0.0555
0.419	0	0.0544
0.421	0	0.0534
0.424	0	0.0524
0.426	0	0.0514
0.43	0	0.0498
0.433	0	0.0484
0.434	0	0.0482
0.434	0	0.0481
0.435	0	0.0479
0.435	0	0.0478
0.435	0	0.0477
0.436	0	0.0474
0.436	0	0.0472
0.437	0	0.047
0.438	0	0.0468
0.438	0	0.0466
0.44	0	0.046
0.441	0	0.0454
0.443	0	0.0448
0.445	0	0.0442
0.446	0	0.0437
0.449	0	0.0427
0.452	0	0.0417
0.455	0	0.0407
0.458	0	0.0398
0.461	0	0.0389
0.465	0	0.0375
0.466	0	0.0371
0.468	0	0.0368
0.469	0	0.0364
0.47	0	0.0361
0.471	0	0.0357
0.473	0	0.0353
0.474	0	0.0349
0.476	0	0.0344
0.477	0	0.034
0.479	0	0.0336
0.482	0	0.0328
0.485	0	0.0321
0.488	0	0.0313
0.491	0	0.0306
0.494	0	0.0298
0.499	0	0.0286
0.501	0	0.0283
0.502	0	0.0279
0.504	0	0.0276
0.505	0	0.0273
0.507	0	0.0269
0.509	0	0.0265
0.511	0	0.026
0.513	0	0.0256
0.515	0	0.0252
0.517	0	0.0248
0.522	0	0.0238
0.527	0	0.023
0.531	0	0.0221
0.535	0	0.0215
0.539	0	0.0208
0.542	0	0.0203
0.545	0	0.0198
0.548	0	0.0194
0.551	0	0.0189
0.555	0	0.0184
0.56	0	0.0176
0.566	0	0.0169
0.567	0	0.0167
0.569	0	0.0165
0.57	0	0.0163
0.572	0	0.0161
0.573	0	0.0159
0.576	0	0.0156
0.578	0	0.0153
0.58	0	0.0151
0.582	0	0.0148
0.584	0	0.0146
0.589	0	0.0141
0.593	0	0.0136
0.597	0	0.0131
