0	0	0
1.79e-06	0	9.43e-10
3.58e-06	0	3.16e-09
5.36e-06	0	6.88e-09
9.99e-06	0	2.4e-08
1.46e-05	0	5.41e-08
1.93e-05	0	9.96e-08
2.39e-05	0	1.62e-07
3.32e-05	0	3.48e-07
4.25e-05	0	6.19e-07
5.17e-05	0	9.85e-07
6.1e-05	0	1.45e-06
7.77e-05	0	2.57e-06
9.44e-05	0	4.06e-06
0.000111	0	5.97e-06
0.000128	0	8.31e-06
0.000144	0	1.11e-05
0.000182	0	1.91e-05
0.000219	0	2.97e-05
0.000257	0	4.3e-05
0.000294	0	5.92e-05
0.000332	0	7.83e-05
0.000394	0	0.000116
0.000455	0	0.000163
0.000517	0	0.000218
0.000579	0	0.000282
0.000641	0	0.000355
0.000734	0	0.000482
0.000827	0	0.000629
0.00092	0	0.000797
0.00101	0	0.000984
0.00111	0	0.00119
0.00124	0	0.00151
0.00136	0	0.00187
0.00149	0	0.00227
0.00162	0	0.0027
0.00175	0	0.00317
0.00192	0	0.00384
0.00209	0	0.00457
0.00227	0	0.00536
0.00244	0	0.0062
0.00261	0	0.00709
0.00283	0	0.00831
0.00305	0	0.0096
0.00326	0	0.011
0.00348	0	0.0124
0.0037	0	0.0139
0.00398	0	0.0159
0.00425	0	0.0181
0.00453	0	0.0203
0.00481	0	0.0226
0.00508	0	0.025
0.00536	0	0.0274
0.00581	0	0.0316
0.00627	0	0.0361
0.00672	0	0.0406
0.00718	0	0.0454
0.00763	0	0.0503
0.00808	0	0.0553
0.00862	0	0.0613
0.00916	0	0.0676
0.00969	0	0.0739
0.0102	0	0.0803
0.0108	0	0.0869
0.0113	0	0.0935
0.012	0	0.102
0.0126	0	0.11
0.0132	0	0.118
0.0139	0	0.126
0.0145	0	0.135
0.0152	0	0.143
0.0158	0	0.151
0.0167	0	0.163
0.0177	0	0.175
0.0186	0	0.186
0.0195	0	0.198
0.0204	0	0.21
0.0213	0	0.221
0.0222	0	0.232
0.0234	0	0.246
0.0245	0	0.26
0.0256	0	0.273
0.0267	0	0.286
0.0279	0	0.299
0.029	0	0.312
0.0301	0	0.325
0.0312	0	0.337
0.0325	0	0.35
0.0334	0	0.36
0.0337	0	0.363
0.0339	0	0.365
0.0341	0	0.367
0.0343	0	0.369
0.0345	0	0.371
0.0347	0	0.374
0.035	0	0.376
0.0354	0	0.38
0.0358	0	0.385
0.0363	0	0.389
0.0367	0	0.393
0.0371	0	0.397
0.038	0	0.406
0.039	0	0.415
0.0399	0	0.424
0.0408	0	0.432
0.0417	0	0.441
0.0428	0	0.45
0.0438	0	0.458
0.0448	0	0.467
0.0458	0	0.476
0.0468	0	0.484
0.0483	0	0.495
0.0498	0	0.507
0.0512	0	0.518
0.0527	0	0.528
0.0541	0	0.538
0.0556	0	0.548
0.0573	0	0.559
0.0591	0	0.57
0.0609	0	0.581
0.0626	0	0.591
0.0644	0	0.6
0.0661	0	0.609
0.0666	0	0.611
0.0667	0	0.612
0.0668	0	0.612
0.067	0	0.613
0.0671	0	0.613
0.0672	0	0.614
0.0673	0	0.615
0.0674	0	0.615
0.0677	0	0.616
0.0679	0	0.617
0.0682	0	0.619
0.0684	0	0.62
0.0688	0	0.622
0.0692	0	0.623
0.0697	0	0.625
0.0701	0	0.627
0.0705	0	0.629
0.0715	0	0.633
0.0724	0	0.637
0.0734	0	0.641
0.0744	0	0.644
0.0753	0	0.648
0.0767	0	0.652
0.0781	0	0.657
0.0795	0	0.661
0.0808	0	0.664
0.0822	0	0.668
0.0839	0	0.672
0.0855	0	0.675
0.0872	0	0.679
0.0889	0	0.681
0.0905	0	0.684
0.0922	0	0.686
0.0945	0	0.688
0.0968	0	0.689
0.0991	0	0.69
0.0996	0	0.69
0.1	0	0.691
0.1	0	0.691
0.1	0	0.691
0.1	0	0.691
0.1	0	0.691
0.101	0	0.691
0.101	0	0.691
0.101	0	0.691
0.101	0	0.691
0.101	0	0.691
0.102	0	0.691
0.102	0	0.691
0.102	0	0.691
0.103	0	0.69
0.103	0	0.69
0.104	0	0.69
0.104	0	0.69
0.105	0	0.69
0.106	0	0.689
0.107	0	0.689
0.107	0	0.689
0.109	0	0.688
0.11	0	0.687
0.111	0	0.686
0.112	0	0.684
0.113	0	0.683
0.115	0	0.681
0.117	0	0.678
0.118	0	0.676
0.12	0	0.673
0.121	0	0.67
0.123	0	0.667
0.125	0	0.663
0.127	0	0.658
0.129	0	0.654
0.131	0	0.648
0.133	0	0.643
0.133	0	0.642
0.134	0	0.642
0.134	0	0.642
0.134	0	0.641
0.134	0	0.641
0.134	0	0.641
0.134	0	0.64
0.134	0	0.64
0.135	0	0.639
0.135	0	0.639
0.135	0	0.638
0.135	0	0.637
0.136	0	0.636
0.136	0	0.635
0.136	0	0.634
0.137	0	0.633
0.137	0	0.632
0.138	0	0.63
0.139	0	0.628
0.139	0	0.626
0.14	0	0.625
0.141	0	0.622
0.142	0	0.619
0.143	0	0.616
0.144	0	0.613
0.145	0	0.61
0.146	0	0.606
0.147	0	0.601
0.149	0	0.597
0.15	0	0.592
0.151	0	0.588
0.153	0	0.582
0.155	0	0.576
0.156	0	0.57
0.158	0	0.564
0.16	0	0.558
0.162	0	0.551
0.164	0	0.543
0.166	0	0.535
0.167	0	0.534
0.167	0	0.534
0.167	0	0.533
0.167	0	0.533
0.167	0	0.533
0.167	0	0.532
0.167	0	0.532
0.167	0	0.532
0.167	0	0.531
0.168	0	0.531
0.168	0	0.53
0.168	0	0.529
0.168	0	0.529
0.168	0	0.528
0.169	0	0.527
0.169	0	0.525
0.169	0	0.524
0.17	0	0.523
0.17	0	0.521
0.171	0	0.519
0.171	0	0.517
0.172	0	0.515
0.173	0	0.512
0.173	0	0.51
0.174	0	0.507
0.175	0	0.503
0.176	0	0.5
0.177	0	0.496
0.178	0	0.493
0.179	0	0.488
0.181	0	0.482
0.182	0	0.477
0.184	0	0.472
0.185	0	0.467
0.187	0	0.461
0.189	0	0.454
0.19	0	0.448
0.192	0	0.441
0.194	0	0.435
0.196	0	0.427
0.198	0	0.42
0.199	0	0.415
0.2	0	0.413
0.2	0	0.413
0.2	0	0.412
0.201	0	0.411
0.201	0	0.411
0.201	0	0.41
0.201	0	0.409
0.202	0	0.408
0.202	0	0.407
0.202	0	0.406
0.203	0	0.405
0.203	0	0.402
0.204	0	0.399
0.205	0	0.397
0.206	0	0.394
0.206	0	0.391
0.208	0	0.387
0.209	0	0.382
0.211	0	0.378
0.212	0	0.373
0.213	0	0.369
0.215	0	0.362
0.217	0	0.355
0.22	0	0.349
0.222	0	0.342
0.224	0	0.336
0.227	0	0.327
0.229	0	0.319
0.232	0	0.311
0.233	0	0.309
0.233	0	0.308
0.233	0	0.307
0.233	0	0.307
0.234	0	0.307
0.234	0	0.306
0.234	0	0.306
0.234	0	0.306
0.234	0	0.306
0.234	0	0.305
0.234	0	0.305
0.234	0	0.304
0.235	0	0.304
0.235	0	0.303
0.235	0	0.302
0.235	0	0.301
0.236	0	0.301
0.236	0	0.299
0.237	0	0.298
0.237	0	0.297
0.238	0	0.295
0.238	0	0.294
0.239	0	0.292
0.24	0	0.289
0.24	0	0.287
0.241	0	0.285
0.242	0	0.283
0.243	0	0.28
0.244	0	0.276
0.246	0	0.273
0.247	0	0.27
0.248	0	0.267
0.25	0	0.262
0.252	0	0.257
0.254	0	0.253
0.256	0	0.248
0.257	0	0.244
0.26	0	0.238
0.262	0	0.233
0.264	0	0.228
0.266	0	0.223
0.267	0	0.222
0.267	0	0.222
0.267	0	0.222
0.267	0	0.222
0.267	0	0.222
0.267	0	0.221
0.267	0	0.221
0.267	0	0.221
0.267	0	0.221
0.267	0	0.22
0.268	0	0.22
0.268	0	0.22
0.268	0	0.219
0.269	0	0.218
0.269	0	0.217
0.269	0	0.217
0.27	0	0.216
0.27	0	0.215
0.271	0	0.214
0.271	0	0.213
0.272	0	0.211
0.272	0	0.21
0.273	0	0.208
0.274	0	0.206
0.275	0	0.205
0.276	0	0.203
0.277	0	0.2
0.278	0	0.198
0.279	0	0.195
0.281	0	0.193
0.282	0	0.19
0.284	0	0.187
0.285	0	0.184
0.287	0	0.181
0.289	0	0.177
0.291	0	0.174
0.293	0	0.17
0.295	0	0.166
0.297	0	0.162
0.3	0	0.159
0.3	0	0.158
0.3	0	0.158
0.3	0	0.158
0.3	0	0.158
0.3	0	0.157
0.301	0	0.157
0.301	0	0.157
0.301	0	0.157
0.301	0	0.157
0.301	0	0.156
0.301	0	0.156
0.302	0	0.155
0.302	0	0.155
0.302	0	0.154
0.303	0	0.153
0.303	0	0.153
0.304	0	0.152
0.305	0	0.151
0.305	0	0.15
0.306	0	0.149
0.306	0	0.148
0.308	0	0.146
0.309	0	0.145
0.31	0	0.143
0.311	0	0.141
0.312	0	0.14
0.313	0	0.138
0.315	0	0.135
0.317	0	0.133
0.318	0	0.131
0.32	0	0.129
0.322	0	0.126
0.324	0	0.123
0.327	0	0.12
0.329	0	0.117
0.331	0	0.114
0.332	0	0.113
0.333	0	0.112
0.333	0	0.112
0.333	0	0.111
0.334	0	0.111
0.334	0	0.111
0.334	0	0.111
0.334	0	0.111
0.334	0	0.11
0.335	0	0.11
0.335	0	0.11
0.335	0	0.11
0.335	0	0.109
0.336	0	0.109
0.336	0	0.108
0.337	0	0.107
0.338	0	0.107
0.338	0	0.106
0.339	0	0.105
0.34	0	0.104
0.341	0	0.103
0.342	0	0.102
0.343	0	0.101
0.345	0	0.099
0.346	0	0.0973
0.348	0	0.0957
0.349	0	0.0941
0.351	0	0.0925
0.353	0	0.0902
0.356	0	0.0879
0.358	0	0.0857
0.361	0	0.0836
0.363	0	0.0815
0.366	0	0.0788
0.367	0	0.0783
0.367	0	0.0781
0.367	0	0.078
0.367	0	0.0778
0.368	0	0.0776
0.368	0	0.0775
0.368	0	0.0772
0.368	0	0.0769
0.369	0	0.0766
0.369	0	0.0764
0.37	0	0.0758
0.37	0	0.0753
0.371	0	0.0748
0.372	0	0.0742
0.373	0	0.0737
0.374	0	0.0726
0.375	0	0.0716
0.377	0	0.0705
0.378	0	0.0695
0.379	0	0.0685
0.382	0	0.0668
0.384	0	0.0651
0.387	0	0.0635
0.389	0	0.0619
0.392	0	0.0603
0.395	0	0.0581
0.399	0	0.056
0.4	0	0.0555
0.4	0	0.055
0.401	0	0.0545
0.402	0	0.0541
0.403	0	0.0537
0.403	0	0.0533
0.404	0	0.0529
0.405	0	0.0523
0.406	0	0.0518
0.407	0	0.0512
0.408	0	0.0506
0.411	0	0.0496
0.413	0	0.0485
0.415	0	0.0475
0.417	0	0.0465
0.419	0	0.0455
0.423	0	0.0437
0.427	0	0.0419
0.431	0	0.0402
0.433	0	0.0392
0.434	0	0.039
0.435	0	0.0387
0.436	0	0.0384
0.436	0	0.0381
0.437	0	0.0378
0.438	0	0.0374
0.44	0	0.0369
0.441	0	0.0365
0.442	0	0.0361
0.444	0	0.0352
0.447	0	0.0344
0.449	0	0.0336
0.451	0	0.0329
0.454	0	0.0321
0.458	0	0.0306
0.463	0	0.0292
0.467	0	0.0283
0.468	0	0.028
0.469	0	0.0277
0.47	0	0.0274
0.471	0	0.0271
0.472	0	0.0268
0.474	0	0.0264
0.475	0	0.026
0.477	0	0.0256
0.479	0	0.0252
0.482	0	0.0244
0.485	0	0.0236
0.489	0	0.0229
0.492	0	0.0222
0.495	0	0.0216
0.5	0	0.0205
0.502	0	0.0202
0.504	0	0.0199
0.505	0	0.0196
0.507	0	0.0193
0.509	0	0.019
0.512	0	0.0185
0.514	0	0.0181
0.517	0	0.0177
0.519	0	0.0172
0.524	0	0.0165
0.529	0	0.0157
0.534	0	0.015
0.538	0	0.0145
0.542	0	0.0141
0.545	0	0.0137
0.548	0	0.0133
0.552	0	0.0129
0.556	0	0.0124
0.56	0	0.012
0.564	0	0.0115
0.569	0	0.0111
0.573	0	0.0107
0.576	0	0.0104
0.58	0	0.0101
0.583	0	0.00978
0.587	0	0.00949
0.59	0	0.00921
0.596	0	0.00877
