x	y	z	c
0	0	0	0
0	0.05	0	0
0	0.1	0	0
0	0.15	0	0
0	0.2	0	0
0	0.25	0	0
0	0.3	0	0
0	0.35	0	0
0	0.4	0	0
0	0.45	0	0
0	0.5	0	0
0	0.55	0	0
0	0.6	0	0
0	0.65	0	0
0	0.7	0	0
0	0.75	0	0
0	0.8	0	0
0	0.85	0	0
0	0.9	0	0
0	0.95	0	0
0	1	0	0
0.02	0	0.147	0.147
0.02	0.05	0.129	0.129
0.02	0.1	0.111	0.111
0.02	0.15	0.108	0.108
0.02	0.2	0.105	0.105
0.02	0.25	0.111	0.111
0.02	0.3	0.117	0.117
0.02	0.35	0.129	0.129
0.02	0.4	0.14	0.14
0.02	0.45	0.158	0.158
0.02	0.5	0.175	0.175
0.02	0.55	0.196	0.196
0.02	0.6	0.217	0.217
0.02	0.65	0.231	0.231
0.02	0.7	0.245	0.245
0.02	0.75	0.228	0.228
0.02	0.8	0.212	0.212
0.02	0.85	0.119	0.119
0.02	0.9	0.0264	0.0264
0.02	0.95	-0.233	-0.233
0.02	1	-0.493	-0.493
0.04	0	0.336	0.336
0.04	0.05	0.321	0.321
0.04	0.1	0.305	0.305
0.04	0.15	0.305	0.305
0.04	0.2	0.305	0.305
0.04	0.25	0.319	0.319
0.04	0.3	0.334	0.334
0.04	0.35	0.362	0.362
0.04	0.4	0.39	0.39
0.04	0.45	0.418	0.418
0.04	0.5	0.446	0.446
0.04	0.55	0.447	0.447
0.04	0.6	0.448	0.448
0.04	0.65	0.386	0.386
0.04	0.7	0.323	0.323
0.04	0.75	0.155	0.155
0.04	0.8	-0.0138	-0.0138
0.04	0.85	-0.339	-0.339
0.04	0.9	-0.664	-0.664
0.04	0.95	-1.21	-1.21
0.04	1	-1.75	-1.75
0.06	0	0.496	0.496
0.06	0.05	0.489	0.489
0.06	0.1	0.481	0.481
0.06	0.15	0.485	0.485
0.06	0.2	0.49	0.49
0.06	0.25	0.507	0.507
0.06	0.3	0.524	0.524
0.06	0.35	0.545	0.545
0.06	0.4	0.565	0.565
0.06	0.45	0.554	0.554
0.06	0.5	0.544	0.544
0.06	0.55	0.462	0.462
0.06	0.6	0.379	0.379
0.06	0.65	0.194	0.194
0.06	0.7	0.0084	0.0084
0.06	0.75	-0.301	-0.301
0.06	0.8	-0.61	-0.61
0.06	0.85	-1.05	-1.05
0.06	0.9	-1.5	-1.5
0.06	0.95	-2.08	-2.08
0.06	1	-2.66	-2.66
0.08	0	0.623	0.623
0.08	0.05	0.621	0.621
0.08	0.1	0.62	0.62
0.08	0.15	0.623	0.623
0.08	0.2	0.627	0.627
0.08	0.25	0.633	0.633
0.08	0.3	0.638	0.638
0.08	0.35	0.622	0.622
0.08	0.4	0.607	0.607
0.08	0.45	0.527	0.527
0.08	0.5	0.448	0.448
0.08	0.55	0.276	0.276
0.08	0.6	0.103	0.103
0.08	0.65	-0.168	-0.168
0.08	0.7	-0.439	-0.439
0.08	0.75	-0.801	-0.801
0.08	0.8	-1.16	-1.16
0.08	0.85	-1.6	-1.6
0.08	0.9	-2.03	-2.03
0.08	0.95	-2.49	-2.49
0.08	1	-2.96	-2.96
0.1	0	0.716	0.716
0.1	0.05	0.715	0.715
0.1	0.1	0.715	0.715
0.1	0.15	0.711	0.711
0.1	0.2	0.706	0.706
0.1	0.25	0.687	0.687
0.1	0.3	0.667	0.667
0.1	0.35	0.602	0.602
0.1	0.4	0.538	0.538
0.1	0.45	0.393	0.393
0.1	0.5	0.248	0.248
0.1	0.55	0.0176	0.0176
0.1	0.6	-0.213	-0.213
0.1	0.65	-0.51	-0.51
0.1	0.7	-0.808	-0.808
0.1	0.75	-1.15	-1.15
0.1	0.8	-1.49	-1.49
0.1	0.85	-1.83	-1.83
0.1	0.9	-2.18	-2.18
0.1	0.95	-2.48	-2.48
0.1	1	-2.77	-2.77
0.12	0	0.769	0.769
0.12	0.05	0.767	0.767
0.12	0.1	0.765	0.765
0.12	0.15	0.747	0.747
0.12	0.2	0.729	0.729
0.12	0.25	0.68	0.68
0.12	0.3	0.631	0.631
0.12	0.35	0.521	0.521
0.12	0.4	0.411	0.411
0.12	0.45	0.223	0.223
0.12	0.5	0.0346	0.0346
0.12	0.55	-0.214	-0.214
0.12	0.6	-0.462	-0.462
0.12	0.65	-0.74	-0.74
0.12	0.7	-1.02	-1.02
0.12	0.75	-1.29	-1.29
0.12	0.8	-1.57	-1.57
0.12	0.85	-1.8	-1.8
0.12	0.9	-2.04	-2.04
0.12	0.95	-2.18	-2.18
0.12	1	-2.32	-2.32
0.14	0	0.783	0.783
0.14	0.05	0.777	0.777
0.14	0.1	0.772	0.772
0.14	0.15	0.74	0.74
0.14	0.2	0.707	0.707
0.14	0.25	0.632	0.632
0.14	0.3	0.557	0.557
0.14	0.35	0.416	0.416
0.14	0.4	0.274	0.274
0.14	0.45	0.0697	0.0697
0.14	0.5	-0.135	-0.135
0.14	0.55	-0.371	-0.371
0.14	0.6	-0.606	-0.606
0.14	0.65	-0.839	-0.839
0.14	0.7	-1.07	-1.07
0.14	0.75	-1.27	-1.27
0.14	0.8	-1.47	-1.47
0.14	0.85	-1.61	-1.61
0.14	0.9	-1.74	-1.74
0.14	0.95	-1.77	-1.77
0.14	1	-1.8	-1.8
0.16	0	0.761	0.761
0.16	0.05	0.752	0.752
0.16	0.1	0.743	0.743
0.16	0.15	0.699	0.699
0.16	0.2	0.656	0.656
0.16	0.25	0.563	0.563
0.16	0.3	0.47	0.47
0.16	0.35	0.314	0.314
0.16	0.4	0.159	0.159
0.16	0.45	-0.0411	-0.0411
0.16	0.5	-0.241	-0.241
0.16	0.55	-0.446	-0.446
0.16	0.6	-0.651	-0.651
0.16	0.65	-0.831	-0.831
0.16	0.7	-1.01	-1.01
0.16	0.75	-1.14	-1.14
0.16	0.8	-1.27	-1.27
0.16	0.85	-1.33	-1.33
0.16	0.9	-1.39	-1.39
0.16	0.95	-1.35	-1.35
0.16	1	-1.32	-1.32
0.18	0	0.712	0.712
0.18	0.05	0.7	0.7
0.18	0.1	0.688	0.688
0.18	0.15	0.638	0.638
0.18	0.2	0.589	0.589
0.18	0.25	0.488	0.488
0.18	0.3	0.387	0.387
0.18	0.35	0.231	0.231
0.18	0.4	0.0753	0.0753
0.18	0.45	-0.106	-0.106
0.18	0.5	-0.287	-0.287
0.18	0.55	-0.455	-0.455
0.18	0.6	-0.624	-0.624
0.18	0.65	-0.755	-0.755
0.18	0.7	-0.886	-0.886
0.18	0.75	-0.964	-0.964
0.18	0.8	-1.04	-1.04
0.18	0.85	-1.05	-1.05
0.18	0.9	-1.07	-1.07
0.18	0.95	-0.996	-0.996
0.18	1	-0.926	-0.926
0.2	0	0.645	0.645
0.2	0.05	0.632	0.632
0.2	0.1	0.619	0.619
0.2	0.15	0.567	0.567
0.2	0.2	0.515	0.515
0.2	0.25	0.415	0.415
0.2	0.3	0.314	0.314
0.2	0.35	0.169	0.169
0.2	0.4	0.0241	0.0241
0.2	0.45	-0.132	-0.132
0.2	0.5	-0.288	-0.288
0.2	0.55	-0.421	-0.421
0.2	0.6	-0.554	-0.554
0.2	0.65	-0.646	-0.646
0.2	0.7	-0.737	-0.737
0.2	0.75	-0.78	-0.78
0.2	0.8	-0.822	-0.822
0.2	0.85	-0.807	-0.807
0.2	0.9	-0.793	-0.793
0.2	0.95	-0.715	-0.715
0.2	1	-0.636	-0.636
0.22	0	0.569	0.569
0.22	0.05	0.556	0.556
0.22	0.1	0.543	0.543
0.22	0.15	0.493	0.493
0.22	0.2	0.444	0.444
0.22	0.25	0.35	0.35
0.22	0.3	0.256	0.256
0.22	0.35	0.127	0.127
0.22	0.4	-0.0016	-0.0016
0.22	0.45	-0.131	-0.131
0.22	0.5	-0.261	-0.261
0.22	0.55	-0.364	-0.364
0.22	0.6	-0.466	-0.466
0.22	0.65	-0.529	-0.529
0.22	0.7	-0.593	-0.593
0.22	0.75	-0.613	-0.613
0.22	0.8	-0.634	-0.634
0.22	0.85	-0.609	-0.609
0.22	0.9	-0.585	-0.585
0.22	0.95	-0.512	-0.512
0.22	1	-0.44	-0.44
0.24	0	0.492	0.492
0.24	0.05	0.48	0.48
0.24	0.1	0.468	0.468
0.24	0.15	0.423	0.423
0.24	0.2	0.377	0.377
0.24	0.25	0.294	0.294
0.24	0.3	0.211	0.211
0.24	0.35	0.1	0.1
0.24	0.4	-0.00989	-0.00989
0.24	0.45	-0.115	-0.115
0.24	0.5	-0.221	-0.221
0.24	0.55	-0.299	-0.299
0.24	0.6	-0.378	-0.378
0.24	0.65	-0.421	-0.421
0.24	0.7	-0.465	-0.465
0.24	0.75	-0.474	-0.474
0.24	0.8	-0.482	-0.482
0.24	0.85	-0.456	-0.456
0.24	0.9	-0.429	-0.429
0.24	0.95	-0.368	-0.368
0.24	1	-0.307	-0.307
0.26	0	0.418	0.418
0.26	0.05	0.407	0.407
0.26	0.1	0.397	0.397
0.26	0.15	0.358	0.358
0.26	0.2	0.318	0.318
0.26	0.25	0.247	0.247
0.26	0.3	0.176	0.176
0.26	0.35	0.0837	0.0837
0.26	0.4	-0.00809	-0.00809
0.26	0.45	-0.0927	-0.0927
0.26	0.5	-0.177	-0.177
0.26	0.55	-0.237	-0.237
0.26	0.6	-0.297	-0.297
0.26	0.65	-0.328	-0.328
0.26	0.7	-0.36	-0.36
0.26	0.75	-0.363	-0.363
0.26	0.8	-0.366	-0.366
0.26	0.85	-0.343	-0.343
0.26	0.9	-0.32	-0.32
0.26	0.95	-0.271	-0.271
0.26	1	-0.222	-0.222
0.28	0	0.35	0.35
0.28	0.05	0.342	0.342
0.28	0.1	0.333	0.333
0.28	0.15	0.3	0.3
0.28	0.2	0.267	0.267
0.28	0.25	0.207	0.207
0.28	0.3	0.148	0.148
0.28	0.35	0.0733	0.0733
0.28	0.4	-0.00158	-0.00158
0.28	0.45	-0.0688	-0.0688
0.28	0.5	-0.136	-0.136
0.28	0.55	-0.182	-0.182
0.28	0.6	-0.228	-0.228
0.28	0.65	-0.251	-0.251
0.28	0.7	-0.274	-0.274
0.28	0.75	-0.275	-0.275
0.28	0.8	-0.276	-0.276
0.28	0.85	-0.258	-0.258
0.28	0.9	-0.239	-0.239
0.28	0.95	-0.201	-0.201
0.28	1	-0.164	-0.164
0.3	0	0.29	0.29
0.3	0.05	0.283	0.283
0.3	0.1	0.277	0.277
0.3	0.15	0.25	0.25
0.3	0.2	0.223	0.223
0.3	0.25	0.174	0.174
0.3	0.3	0.126	0.126
0.3	0.35	0.0662	0.0662
0.3	0.4	0.00625	0.00625
0.3	0.45	-0.0467	-0.0467
0.3	0.5	-0.0997	-0.0997
0.3	0.55	-0.136	-0.136
0.3	0.6	-0.172	-0.172
0.3	0.65	-0.19	-0.19
0.3	0.7	-0.207	-0.207
0.3	0.75	-0.208	-0.208
0.3	0.8	-0.209	-0.209
0.3	0.85	-0.195	-0.195
0.3	0.9	-0.181	-0.181
0.3	0.95	-0.152	-0.152
0.3	1	-0.124	-0.124
0.32	0	0.239	0.239
0.32	0.05	0.233	0.233
0.32	0.1	0.228	0.228
0.32	0.15	0.207	0.207
0.32	0.2	0.185	0.185
0.32	0.25	0.147	0.147
0.32	0.3	0.108	0.108
0.32	0.35	0.0609	0.0609
0.32	0.4	0.0135	0.0135
0.32	0.45	-0.0282	-0.0282
0.32	0.5	-0.0698	-0.0698
0.32	0.55	-0.0981	-0.0981
0.32	0.6	-0.126	-0.126
0.32	0.65	-0.141	-0.141
0.32	0.7	-0.155	-0.155
0.32	0.75	-0.156	-0.156
0.32	0.8	-0.158	-0.158
0.32	0.85	-0.148	-0.148
0.32	0.9	-0.139	-0.139
0.32	0.95	-0.119	-0.119
0.32	1	-0.0997	-0.0997
0.34	0	0.195	0.195
0.34	0.05	0.191	0.191
0.34	0.1	0.187	0.187
0.34	0.15	0.17	0.17
0.34	0.2	0.153	0.153
0.34	0.25	0.123	0.123
0.34	0.3	0.0934	0.0934
0.34	0.35	0.0563	0.0563
0.34	0.4	0.0192	0.0192
0.34	0.45	-0.0134	-0.0134
0.34	0.5	-0.046	-0.046
0.34	0.55	-0.0685	-0.0685
0.34	0.6	-0.091	-0.091
0.34	0.65	-0.103	-0.103
0.34	0.7	-0.115	-0.115
0.34	0.75	-0.117	-0.117
0.34	0.8	-0.12	-0.12
0.34	0.85	-0.113	-0.113
0.34	0.9	-0.107	-0.107
0.34	0.95	-0.0938	-0.0938
0.34	1	-0.0804	-0.0804
0.36	0	0.158	0.158
0.36	0.05	0.155	0.155
0.36	0.1	0.152	0.152
0.36	0.15	0.14	0.14
0.36	0.2	0.127	0.127
0.36	0.25	0.104	0.104
0.36	0.3	0.0807	0.0807
0.36	0.35	0.0519	0.0519
0.36	0.4	0.0232	0.0232
0.36	0.45	-0.0023	-0.0023
0.36	0.5	-0.0278	-0.0278
0.36	0.55	-0.0459	-0.0459
0.36	0.6	-0.0639	-0.0639
0.36	0.65	-0.0741	-0.0741
0.36	0.7	-0.0844	-0.0844
0.36	0.75	-0.0877	-0.0877
0.36	0.8	-0.091	-0.091
0.36	0.85	-0.0881	-0.0881
0.36	0.9	-0.0853	-0.0853
0.36	0.95	-0.0772	-0.0772
0.36	1	-0.0692	-0.0692
0.38	0	0.128	0.128
0.38	0.05	0.126	0.126
0.38	0.1	0.124	0.124
0.38	0.15	0.114	0.114
0.38	0.2	0.105	0.105
0.38	0.25	0.0872	0.0872
0.38	0.3	0.0696	0.0696
0.38	0.35	0.0476	0.0476
0.38	0.4	0.0255	0.0255
0.38	0.45	0.00548	0.00548
0.38	0.5	-0.0145	-0.0145
0.38	0.55	-0.0291	-0.0291
0.38	0.6	-0.0438	-0.0438
0.38	0.65	-0.0528	-0.0528
0.38	0.7	-0.0618	-0.0618
0.38	0.75	-0.0658	-0.0658
0.38	0.8	-0.0697	-0.0697
0.38	0.85	-0.0693	-0.0693
0.38	0.9	-0.0689	-0.0689
0.38	0.95	-0.0648	-0.0648
0.38	1	-0.0608	-0.0608
0.4	0	0.103	0.103
0.4	0.05	0.102	0.102
0.4	0.1	0.101	0.101
0.4	0.15	0.0936	0.0936
0.4	0.2	0.0865	0.0865
0.4	0.25	0.0733	0.0733
0.4	0.3	0.06	0.06
0.4	0.35	0.0431	0.0431
0.4	0.4	0.0262	0.0262
0.4	0.45	0.0105	0.0105
0.4	0.5	-0.00524	-0.00524
0.4	0.55	-0.0173	-0.0173
0.4	0.6	-0.0293	-0.0293
0.4	0.65	-0.0374	-0.0374
0.4	0.7	-0.0455	-0.0455
0.4	0.75	-0.0501	-0.0501
0.4	0.8	-0.0547	-0.0547
0.4	0.85	-0.0561	-0.0561
0.4	0.9	-0.0576	-0.0576
0.4	0.95	-0.0566	-0.0566
0.4	1	-0.0555	-0.0555
0.42	0	0.083	0.083
0.42	0.05	0.0824	0.0824
0.42	0.1	0.0818	0.0818
0.42	0.15	0.0766	0.0766
0.42	0.2	0.0715	0.0715
0.42	0.25	0.0615	0.0615
0.42	0.3	0.0516	0.0516
0.42	0.35	0.0386	0.0386
0.42	0.4	0.0256	0.0256
0.42	0.45	0.0132	0.0132
0.42	0.5	0.000711	0.000711
0.42	0.55	-0.00934	-0.00934
0.42	0.6	-0.0194	-0.0194
0.42	0.65	-0.0268	-0.0268
0.42	0.7	-0.0341	-0.0341
0.42	0.75	-0.0391	-0.0391
0.42	0.8	-0.044	-0.044
0.42	0.85	-0.0469	-0.0469
0.42	0.9	-0.0498	-0.0498
0.42	0.95	-0.0511	-0.0511
0.42	1	-0.0524	-0.0524
0.44	0	0.067	0.067
0.44	0.05	0.0667	0.0667
0.44	0.1	0.0665	0.0665
0.44	0.15	0.0628	0.0628
0.44	0.2	0.0591	0.0591
0.44	0.25	0.0516	0.0516
0.44	0.3	0.0441	0.0441
0.44	0.35	0.0341	0.0341
0.44	0.4	0.0241	0.0241
0.44	0.45	0.0141	0.0141
0.44	0.5	0.00414	0.00414
0.44	0.55	-0.00439	-0.00439
0.44	0.6	-0.0129	-0.0129
0.44	0.65	-0.0197	-0.0197
0.44	0.7	-0.0265	-0.0265
0.44	0.75	-0.0317	-0.0317
0.44	0.8	-0.0368	-0.0368
0.44	0.85	-0.0407	-0.0407
0.44	0.9	-0.0445	-0.0445
0.44	0.95	-0.0473	-0.0473
0.44	1	-0.0502	-0.0502
0.46	0	0.0541	0.0541
0.46	0.05	0.0541	0.0541
0.46	0.1	0.0542	0.0542
0.46	0.15	0.0515	0.0515
0.46	0.2	0.0488	0.0488
0.46	0.25	0.0432	0.0432
0.46	0.3	0.0376	0.0376
0.46	0.35	0.0298	0.0298
0.46	0.4	0.022	0.022
0.46	0.45	0.0138	0.0138
0.46	0.5	0.00565	0.00565
0.46	0.55	-0.0017	-0.0017
0.46	0.6	-0.00905	-0.00905
0.46	0.65	-0.0153	-0.0153
0.46	0.7	-0.0216	-0.0216
0.46	0.75	-0.0268	-0.0268
0.46	0.8	-0.0321	-0.0321
0.46	0.85	-0.0365	-0.0365
0.46	0.9	-0.0409	-0.0409
0.46	0.95	-0.0447	-0.0447
0.46	1	-0.0485	-0.0485
0.48	0	0.0438	0.0438
0.48	0.05	0.044	0.044
0.48	0.1	0.0442	0.0442
0.48	0.15	0.0423	0.0423
0.48	0.2	0.0404	0.0404
0.48	0.25	0.0361	0.0361
0.48	0.3	0.0318	0.0318
0.48	0.35	0.0256	0.0256
0.48	0.4	0.0194	0.0194
0.48	0.45	0.0126	0.0126
0.48	0.5	0.00587	0.00587
0.48	0.55	-0.00056	-0.00056
0.48	0.6	-0.00698	-0.00698
0.48	0.65	-0.0128	-0.0128
0.48	0.7	-0.0186	-0.0186
0.48	0.75	-0.0237	-0.0237
0.48	0.8	-0.0289	-0.0289
0.48	0.85	-0.0335	-0.0335
0.48	0.9	-0.0382	-0.0382
0.48	0.95	-0.0424	-0.0424
0.48	1	-0.0466	-0.0466
0.5	0	0.0356	0.0356
0.5	0.05	0.0359	0.0359
0.5	0.1	0.0362	0.0362
0.5	0.15	0.0348	0.0348
0.5	0.2	0.0334	0.0334
0.5	0.25	0.03	0.03
0.5	0.3	0.0267	0.0267
0.5	0.35	0.0217	0.0217
0.5	0.4	0.0167	0.0167
0.5	0.45	0.011	0.011
0.5	0.5	0.00524	0.00524
0.5	0.55	-0.000434	-0.000434
0.5	0.6	-0.00611	-0.00611
0.5	0.65	-0.0114	-0.0114
0.5	0.7	-0.0168	-0.0168
0.5	0.75	-0.0217	-0.0217
0.5	0.8	-0.0266	-0.0266
0.5	0.85	-0.0312	-0.0312
0.5	0.9	-0.0357	-0.0357
0.5	0.95	-0.04	-0.04
0.5	1	-0.0442	-0.0442
0.52	0	0.029	0.029
0.52	0.05	0.0293	0.0293
0.52	0.1	0.0296	0.0296
0.52	0.15	0.0286	0.0286
0.52	0.2	0.0276	0.0276
0.52	0.25	0.0249	0.0249
0.52	0.3	0.0223	0.0223
0.52	0.35	0.0181	0.0181
0.52	0.4	0.014	0.014
0.52	0.45	0.00907	0.00907
0.52	0.5	0.00416	0.00416
0.52	0.55	-0.000871	-0.000871
0.52	0.6	-0.0059	-0.0059
0.52	0.65	-0.0107	-0.0107
0.52	0.7	-0.0156	-0.0156
0.52	0.75	-0.0201	-0.0201
0.52	0.8	-0.0247	-0.0247
0.52	0.85	-0.029	-0.029
0.52	0.9	-0.0332	-0.0332
0.52	0.95	-0.0371	-0.0371
0.52	1	-0.041	-0.041
0.54	0	0.0237	0.0237
0.54	0.05	0.024	0.024
0.54	0.1	0.0243	0.0243
0.54	0.15	0.0236	0.0236
0.54	0.2	0.0228	0.0228
0.54	0.25	0.0206	0.0206
0.54	0.3	0.0185	0.0185
0.54	0.35	0.0149	0.0149
0.54	0.4	0.0114	0.0114
0.54	0.45	0.00718	0.00718
0.54	0.5	0.00291	0.00291
0.54	0.55	-0.00154	-0.00154
0.54	0.6	-0.00598	-0.00598
0.54	0.65	-0.0103	-0.0103
0.54	0.7	-0.0146	-0.0146
0.54	0.75	-0.0187	-0.0187
0.54	0.8	-0.0228	-0.0228
0.54	0.85	-0.0266	-0.0266
0.54	0.9	-0.0303	-0.0303
0.54	0.95	-0.0337	-0.0337
0.54	1	-0.037	-0.037
0.56	0	0.0193	0.0193
0.56	0.05	0.0197	0.0197
0.56	0.1	0.02	0.02
0.56	0.15	0.0194	0.0194
0.56	0.2	0.0188	0.0188
0.56	0.25	0.017	0.017
0.56	0.3	0.0152	0.0152
0.56	0.35	0.0121	0.0121
0.56	0.4	0.00914	0.00914
0.56	0.45	0.00542	0.00542
0.56	0.5	0.0017	0.0017
0.56	0.55	-0.00221	-0.00221
0.56	0.6	-0.00611	-0.00611
0.56	0.65	-0.0099	-0.0099
0.56	0.7	-0.0137	-0.0137
0.56	0.75	-0.0172	-0.0172
0.56	0.8	-0.0208	-0.0208
0.56	0.85	-0.0239	-0.0239
0.56	0.9	-0.0271	-0.0271
0.56	0.95	-0.0297	-0.0297
0.56	1	-0.0323	-0.0323
0.58	0	0.0158	0.0158
0.58	0.05	0.0161	0.0161
0.58	0.1	0.0165	0.0165
0.58	0.15	0.0159	0.0159
0.58	0.2	0.0154	0.0154
0.58	0.25	0.0139	0.0139
0.58	0.3	0.0123	0.0123
0.58	0.35	0.00974	0.00974
0.58	0.4	0.00713	0.00713
0.58	0.45	0.00389	0.00389
0.58	0.5	0.000649	0.000649
0.58	0.55	-0.00274	-0.00274
0.58	0.6	-0.00612	-0.00612
0.58	0.65	-0.00937	-0.00937
0.58	0.7	-0.0126	-0.0126
0.58	0.75	-0.0156	-0.0156
0.58	0.8	-0.0185	-0.0185
0.58	0.85	-0.021	-0.021
0.58	0.9	-0.0236	-0.0236
0.58	0.95	-0.0255	-0.0255
0.58	1	-0.0274	-0.0274
0.6	0	0.013	0.013
0.6	0.05	0.0133	0.0133
0.6	0.1	0.0135	0.0135
0.6	0.15	0.0131	0.0131
0.6	0.2	0.0127	0.0127
0.6	0.25	0.0113	0.0113
0.6	0.3	0.00999	0.00999
0.6	0.35	0.00772	0.00772
0.6	0.4	0.00545	0.00545
0.6	0.45	0.00264	0.00264
0.6	0.5	-0.000175	-0.000175
0.6	0.55	-0.00307	-0.00307
0.6	0.6	-0.00596	-0.00596
0.6	0.65	-0.00867	-0.00867
0.6	0.7	-0.0114	-0.0114
0.6	0.75	-0.0138	-0.0138
0.6	0.8	-0.0161	-0.0161
0.6	0.85	-0.018	-0.018
0.6	0.9	-0.02	-0.02
0.6	0.95	-0.0212	-0.0212
0.6	1	-0.0225	-0.0225
