x	y	z	c
0	0	-1.68e-16	-1.68e-16
0	0.05	0.00384	0.00384
0	0.1	0.0298	0.0298
0	0.15	0.0959	0.0959
0	0.2	0.212	0.212
0	0.25	0.38	0.38
0	0.3	0.588	0.588
0	0.35	0.821	0.821
0	0.4	1.06	1.06
0	0.45	1.27	1.27
0	0.5	1.45	1.45
0	0.55	1.58	1.58
0	0.6	1.67	1.67
0	0.65	1.73	1.73
0	0.7	1.78	1.78
0	0.75	1.84	1.84
0	0.8	1.92	1.92
0	0.85	2.06	2.06
0	0.9	2.26	2.26
0	0.95	2.51	2.51
0	1	2.79	2.79
0.02	0	1.86e-05	1.86e-05
0.02	0.05	0.0933	0.0933
0.02	0.1	0.189	0.189
0.02	0.15	0.288	0.288
0.02	0.2	0.392	0.392
0.02	0.25	0.502	0.502
0.02	0.3	0.616	0.616
0.02	0.35	0.736	0.736
0.02	0.4	0.858	0.858
0.02	0.45	0.982	0.982
0.02	0.5	1.11	1.11
0.02	0.55	1.23	1.23
0.02	0.6	1.36	1.36
0.02	0.65	1.48	1.48
0.02	0.7	1.61	1.61
0.02	0.75	1.73	1.73
0.02	0.8	1.84	1.84
0.02	0.85	1.94	1.94
0.02	0.9	2.02	2.02
0.02	0.95	2.07	2.07
0.02	1	2.07	2.07
0.04	0	1.8e-05	1.8e-05
0.04	0.05	0.0901	0.0901
0.04	0.1	0.181	0.181
0.04	0.15	0.272	0.272
0.04	0.2	0.364	0.364
0.04	0.25	0.458	0.458
0.04	0.3	0.553	0.553
0.04	0.35	0.648	0.648
0.04	0.4	0.745	0.745
0.04	0.45	0.841	0.841
0.04	0.5	0.934	0.934
0.04	0.55	1.02	1.02
0.04	0.6	1.1	1.1
0.04	0.65	1.17	1.17
0.04	0.7	1.22	1.22
0.04	0.75	1.25	1.25
0.04	0.8	1.25	1.25
0.04	0.85	1.22	1.22
0.04	0.9	1.16	1.16
0.04	0.95	1.07	1.07
0.04	1	0.933	0.933
0.06	0	1.56e-05	1.56e-05
0.06	0.05	0.0781	0.0781
0.06	0.1	0.156	0.156
0.06	0.15	0.234	0.234
0.06	0.2	0.311	0.311
0.06	0.25	0.387	0.387
0.06	0.3	0.462	0.462
0.06	0.35	0.534	0.534
0.06	0.4	0.603	0.603
0.06	0.45	0.667	0.667
0.06	0.5	0.724	0.724
0.06	0.55	0.77	0.77
0.06	0.6	0.801	0.801
0.06	0.65	0.816	0.816
0.06	0.7	0.81	0.81
0.06	0.75	0.782	0.782
0.06	0.8	0.731	0.731
0.06	0.85	0.657	0.657
0.06	0.9	0.562	0.562
0.06	0.95	0.446	0.446
0.06	1	0.312	0.312
0.08	0	1.25e-05	1.25e-05
0.08	0.05	0.0626	0.0626
0.08	0.1	0.125	0.125
0.08	0.15	0.185	0.185
0.08	0.2	0.245	0.245
0.08	0.25	0.302	0.302
0.08	0.3	0.356	0.356
0.08	0.35	0.406	0.406
0.08	0.4	0.45	0.45
0.08	0.45	0.487	0.487
0.08	0.5	0.516	0.516
0.08	0.55	0.533	0.533
0.08	0.6	0.537	0.537
0.08	0.65	0.526	0.526
0.08	0.7	0.499	0.499
0.08	0.75	0.455	0.455
0.08	0.8	0.397	0.397
0.08	0.85	0.325	0.325
0.08	0.9	0.241	0.241
0.08	0.95	0.146	0.146
0.08	1	0.0463	0.0463
0.1	0	9.31e-06	9.31e-06
0.1	0.05	0.0465	0.0465
0.1	0.1	0.0923	0.0923
0.1	0.15	0.137	0.137
0.1	0.2	0.179	0.179
0.1	0.25	0.219	0.219
0.1	0.3	0.256	0.256
0.1	0.35	0.288	0.288
0.1	0.4	0.315	0.315
0.1	0.45	0.335	0.335
0.1	0.5	0.348	0.348
0.1	0.55	0.351	0.351
0.1	0.6	0.343	0.343
0.1	0.65	0.324	0.324
0.1	0.7	0.294	0.294
0.1	0.75	0.253	0.253
0.1	0.8	0.204	0.204
0.1	0.85	0.147	0.147
0.1	0.9	0.0836	0.0836
0.1	0.95	0.0143	0.0143
0.1	1	-0.0544	-0.0544
0.12	0	6.51e-06	6.51e-06
0.12	0.05	0.0325	0.0325
0.12	0.1	0.0643	0.0643
0.12	0.15	0.0949	0.0949
0.12	0.2	0.124	0.124
0.12	0.25	0.151	0.151
0.12	0.3	0.174	0.174
0.12	0.35	0.194	0.194
0.12	0.4	0.21	0.21
0.12	0.45	0.22	0.22
0.12	0.5	0.225	0.225
0.12	0.55	0.221	0.221
0.12	0.6	0.211	0.211
0.12	0.65	0.192	0.192
0.12	0.7	0.167	0.167
0.12	0.75	0.134	0.134
0.12	0.8	0.0967	0.0967
0.12	0.85	0.0546	0.0546
0.12	0.9	0.00915	0.00915
0.12	0.95	-0.0397	-0.0397
0.12	1	-0.0859	-0.0859
0.14	0	4.34e-06	4.34e-06
0.14	0.05	0.0216	0.0216
0.14	0.1	0.0428	0.0428
0.14	0.15	0.063	0.063
0.14	0.2	0.082	0.082
0.14	0.25	0.099	0.099
0.14	0.3	0.114	0.114
0.14	0.35	0.126	0.126
0.14	0.4	0.135	0.135
0.14	0.45	0.139	0.139
0.14	0.5	0.14	0.14
0.14	0.55	0.134	0.134
0.14	0.6	0.124	0.124
0.14	0.65	0.108	0.108
0.14	0.7	0.0875	0.0875
0.14	0.75	0.063	0.063
0.14	0.8	0.0361	0.0361
0.14	0.85	0.0062	0.0062
0.14	0.9	-0.0255	-0.0255
0.14	0.95	-0.0594	-0.0594
0.14	1	-0.0903	-0.0903
0.16	0	2.79e-06	2.79e-06
0.16	0.05	0.0139	0.0139
0.16	0.1	0.0275	0.0275
0.16	0.15	0.0403	0.0403
0.16	0.2	0.0524	0.0524
0.16	0.25	0.063	0.063
0.16	0.3	0.0721	0.0721
0.16	0.35	0.0789	0.0789
0.16	0.4	0.0837	0.0837
0.16	0.45	0.0849	0.0849
0.16	0.5	0.0834	0.0834
0.16	0.55	0.0775	0.0775
0.16	0.6	0.0685	0.0685
0.16	0.65	0.0556	0.0556
0.16	0.7	0.0405	0.0405
0.16	0.75	0.0225	0.0225
0.16	0.8	0.00329	0.00329
0.16	0.85	-0.0177	-0.0177
0.16	0.9	-0.04	-0.04
0.16	0.95	-0.0636	-0.0636
0.16	1	-0.0845	-0.0845
0.18	0	1.74e-06	1.74e-06
0.18	0.05	0.00866	0.00866
0.18	0.1	0.0171	0.0171
0.18	0.15	0.025	0.025
0.18	0.2	0.0325	0.0325
0.18	0.25	0.0388	0.0388
0.18	0.3	0.0442	0.0442
0.18	0.35	0.0479	0.0479
0.18	0.4	0.0501	0.0501
0.18	0.45	0.0497	0.0497
0.18	0.5	0.0474	0.0474
0.18	0.55	0.042	0.042
0.18	0.6	0.0346	0.0346
0.18	0.65	0.0247	0.0247
0.18	0.7	0.0135	0.0135
0.18	0.75	0.000781	0.000781
0.18	0.8	-0.0125	-0.0125
0.18	0.85	-0.0269	-0.0269
0.18	0.9	-0.042	-0.042
0.18	0.95	-0.058	-0.058
0.18	1	-0.0719	-0.0719
0.2	0	1.05e-06	1.05e-06
0.2	0.05	0.0052	0.0052
0.2	0.1	0.0103	0.0103
0.2	0.15	0.015	0.015
0.2	0.2	0.0194	0.0194
0.2	0.25	0.023	0.023
0.2	0.3	0.026	0.026
0.2	0.35	0.0276	0.0276
0.2	0.4	0.0283	0.0283
0.2	0.45	0.0269	0.0269
0.2	0.5	0.0244	0.0244
0.2	0.55	0.0195	0.0195
0.2	0.6	0.0134	0.0134
0.2	0.65	0.00569	0.00569
0.2	0.7	-0.00258	-0.00258
0.2	0.75	-0.0116	-0.0116
0.2	0.8	-0.0209	-0.0209
0.2	0.85	-0.0306	-0.0306
0.2	0.9	-0.0409	-0.0409
0.2	0.95	-0.0514	-0.0514
0.2	1	-0.0603	-0.0603
0.22	0	6.12e-07	6.12e-07
0.22	0.05	0.00302	0.00302
0.22	0.1	0.00596	0.00596
0.22	0.15	0.00869	0.00869
0.22	0.2	0.0112	0.0112
0.22	0.25	0.0132	0.0132
0.22	0.3	0.0148	0.0148
0.22	0.35	0.0153	0.0153
0.22	0.4	0.0152	0.0152
0.22	0.45	0.0137	0.0137
0.22	0.5	0.0114	0.0114
0.22	0.55	0.00748	0.00748
0.22	0.6	0.00293	0.00293
0.22	0.65	-0.00244	-0.00244
0.22	0.7	-0.00797	-0.00797
0.22	0.75	-0.0137	-0.0137
0.22	0.8	-0.0195	-0.0195
0.22	0.85	-0.0253	-0.0253
0.22	0.9	-0.0315	-0.0315
0.22	0.95	-0.0378	-0.0378
0.22	1	-0.043	-0.043
0.24	0	3.4e-07	3.4e-07
0.24	0.05	0.00166	0.00166
0.24	0.1	0.00329	0.00329
0.24	0.15	0.00477	0.00477
0.24	0.2	0.00616	0.00616
0.24	0.25	0.00713	0.00713
0.24	0.3	0.00783	0.00783
0.24	0.35	0.0078	0.0078
0.24	0.4	0.00734	0.00734
0.24	0.45	0.0058	0.0058
0.24	0.5	0.00379	0.00379
0.24	0.55	0.000689	0.000689
0.24	0.6	-0.0027	-0.0027
0.24	0.65	-0.00642	-0.00642
0.24	0.7	-0.0101	-0.0101
0.24	0.75	-0.0135	-0.0135
0.24	0.8	-0.0169	-0.0169
0.24	0.85	-0.0201	-0.0201
0.24	0.9	-0.0236	-0.0236
0.24	0.95	-0.0269	-0.0269
0.24	1	-0.0295	-0.0295
0.26	0	1.82e-07	1.82e-07
0.26	0.05	0.00088	0.00088
0.26	0.1	0.00174	0.00174
0.26	0.15	0.00252	0.00252
0.26	0.2	0.00325	0.00325
0.26	0.25	0.00369	0.00369
0.26	0.3	0.00395	0.00395
0.26	0.35	0.00367	0.00367
0.26	0.4	0.00311	0.00311
0.26	0.45	0.00178	0.00178
0.26	0.5	0.000185	0.000185
0.26	0.55	-0.00211	-0.00211
0.26	0.6	-0.00449	-0.00449
0.26	0.65	-0.00687	-0.00687
0.26	0.7	-0.00907	-0.00907
0.26	0.75	-0.0109	-0.0109
0.26	0.8	-0.0126	-0.0126
0.26	0.85	-0.014	-0.014
0.26	0.9	-0.0157	-0.0157
0.26	0.95	-0.0171	-0.0171
0.26	1	-0.0181	-0.0181
0.28	0	9.68e-08	9.68e-08
0.28	0.05	0.000457	0.000457
0.28	0.1	0.000918	0.000918
0.28	0.15	0.00133	0.00133
0.28	0.2	0.00172	0.00172
0.28	0.25	0.00192	0.00192
0.28	0.3	0.002	0.002
0.28	0.35	0.0017	0.0017
0.28	0.4	0.00121	0.00121
0.28	0.45	0.000198	0.000198
0.28	0.5	-0.000964	-0.000964
0.28	0.55	-0.00254	-0.00254
0.28	0.6	-0.00408	-0.00408
0.28	0.65	-0.00542	-0.00542
0.28	0.7	-0.00654	-0.00654
0.28	0.75	-0.00719	-0.00719
0.28	0.8	-0.00775	-0.00775
0.28	0.85	-0.00796	-0.00796
0.28	0.9	-0.00839	-0.00839
0.28	0.95	-0.00859	-0.00859
0.28	1	-0.00868	-0.00868
0.3	0	5.54e-08	5.54e-08
0.3	0.05	0.000252	0.000252
0.3	0.1	0.000515	0.000515
0.3	0.15	0.000743	0.000743
0.3	0.2	0.000965	0.000965
0.3	0.25	0.00104	0.00104
0.3	0.3	0.00103	0.00103
0.3	0.35	0.000727	0.000727
0.3	0.4	0.000302	0.000302
0.3	0.45	-0.000496	-0.000496
0.3	0.5	-0.00138	-0.00138
0.3	0.55	-0.0025	-0.0025
0.3	0.6	-0.00353	-0.00353
0.3	0.65	-0.00428	-0.00428
0.3	0.7	-0.00483	-0.00483
0.3	0.75	-0.0049	-0.0049
0.3	0.8	-0.00492	-0.00492
0.3	0.85	-0.0046	-0.0046
0.3	0.9	-0.00447	-0.00447
0.3	0.95	-0.00412	-0.00412
0.3	1	-0.00382	-0.00382
0.32	0	3.97e-08	3.97e-08
0.32	0.05	0.000178	0.000178
0.32	0.1	0.000376	0.000376
0.32	0.15	0.000555	0.000555
0.32	0.2	0.000741	0.000741
0.32	0.25	0.00083	0.00083
0.32	0.3	0.000865	0.000865
0.32	0.35	0.000701	0.000701
0.32	0.4	0.000451	0.000451
0.32	0.45	-4.48e-05	-4.48e-05
0.32	0.5	-0.000588	-0.000588
0.32	0.55	-0.00124	-0.00124
0.32	0.6	-0.0018	-0.0018
0.32	0.65	-0.00206	-0.00206
0.32	0.7	-0.00216	-0.00216
0.32	0.75	-0.00182	-0.00182
0.32	0.8	-0.00149	-0.00149
0.32	0.85	-0.000885	-0.000885
0.32	0.9	-0.00047	-0.00047
0.32	0.95	9.62e-05	9.62e-05
0.32	1	0.000451	0.000451
0.34	0	3.59e-08	3.59e-08
0.34	0.05	0.000162	0.000162
0.34	0.1	0.000345	0.000345
0.34	0.15	0.000513	0.000513
0.34	0.2	0.000687	0.000687
0.34	0.25	0.000792	0.000792
0.34	0.3	0.000848	0.000848
0.34	0.35	0.000761	0.000761
0.34	0.4	0.000604	0.000604
0.34	0.45	0.00028	0.00028
0.34	0.5	-8.23e-05	-8.23e-05
0.34	0.55	-0.00049	-0.00049
0.34	0.6	-0.000817	-0.000817
0.34	0.65	-0.000861	-0.000861
0.34	0.7	-0.000796	-0.000796
0.34	0.75	-0.00037	-0.00037
0.34	0.8	1.57e-05	1.57e-05
0.34	0.85	0.000616	0.000616
0.34	0.9	0.00104	0.00104
0.34	0.95	0.00157	0.00157
0.34	1	0.00181	0.00181
0.36	0	3.7e-08	3.7e-08
0.36	0.05	0.00017	0.00017
0.36	0.1	0.00036	0.00036
0.36	0.15	0.000537	0.000537
0.36	0.2	0.000716	0.000716
0.36	0.25	0.000846	0.000846
0.36	0.3	0.000929	0.000929
0.36	0.35	0.000909	0.000909
0.36	0.4	0.000824	0.000824
0.36	0.45	0.000629	0.000629
0.36	0.5	0.000394	0.000394
0.36	0.55	0.000151	0.000151
0.36	0.6	-2.98e-05	-2.98e-05
0.36	0.65	3.4e-05	3.4e-05
0.36	0.7	0.000167	0.000167
0.36	0.75	0.000597	0.000597
0.36	0.8	0.000965	0.000965
0.36	0.85	0.0015	0.0015
0.36	0.9	0.00187	0.00187
0.36	0.95	0.0023	0.0023
0.36	1	0.0024	0.0024
0.38	0	3.84e-08	3.84e-08
0.38	0.05	0.00018	0.00018
0.38	0.1	0.000379	0.000379
0.38	0.15	0.000566	0.000566
0.38	0.2	0.000752	0.000752
0.38	0.25	0.000904	0.000904
0.38	0.3	0.00101	0.00101
0.38	0.35	0.00104	0.00104
0.38	0.4	0.00101	0.00101
0.38	0.45	0.000907	0.000907
0.38	0.5	0.000757	0.000757
0.38	0.55	0.000614	0.000614
0.38	0.6	0.000509	0.000509
0.38	0.65	0.000597	0.000597
0.38	0.7	0.000715	0.000715
0.38	0.75	0.00106	0.00106
0.38	0.8	0.00133	0.00133
0.38	0.85	0.00171	0.00171
0.38	0.9	0.00196	0.00196
0.38	0.95	0.00224	0.00224
0.38	1	0.0022	0.0022
0.4	0	3.82e-08	3.82e-08
0.4	0.05	0.000181	0.000181
0.4	0.1	0.000377	0.000377
0.4	0.15	0.000558	0.000558
0.4	0.2	0.000732	0.000732
0.4	0.25	0.000879	0.000879
0.4	0.3	0.000978	0.000978
0.4	0.35	0.00102	0.00102
0.4	0.4	0.001	0.001
0.4	0.45	0.000938	0.000938
0.4	0.5	0.000823	0.000823
0.4	0.55	0.000726	0.000726
0.4	0.6	0.000653	0.000653
0.4	0.65	0.000737	0.000737
0.4	0.7	0.000834	0.000834
0.4	0.75	0.00111	0.00111
0.4	0.8	0.00131	0.00131
0.4	0.85	0.0016	0.0016
0.4	0.9	0.00176	0.00176
0.4	0.95	0.00195	0.00195
0.4	1	0.0018	0.0018
0.42	0	3.61e-08	3.61e-08
0.42	0.05	0.000174	0.000174
0.42	0.1	0.000361	0.000361
0.42	0.15	0.000533	0.000533
0.42	0.2	0.000698	0.000698
0.42	0.25	0.000844	0.000844
0.42	0.3	0.000943	0.000943
0.42	0.35	0.001	0.001
0.42	0.4	0.001	0.001
0.42	0.45	0.000975	0.000975
0.42	0.5	0.000894	0.000894
0.42	0.55	0.000831	0.000831
0.42	0.6	0.000777	0.000777
0.42	0.65	0.000839	0.000839
0.42	0.7	0.000896	0.000896
0.42	0.75	0.00109	0.00109
0.42	0.8	0.0012	0.0012
0.42	0.85	0.00139	0.00139
0.42	0.9	0.00147	0.00147
0.42	0.95	0.00158	0.00158
0.42	1	0.0014	0.0014
0.44	0	3.25e-08	3.25e-08
0.44	0.05	0.000157	0.000157
0.44	0.1	0.000325	0.000325
0.44	0.15	0.000477	0.000477
0.44	0.2	0.000618	0.000618
0.44	0.25	0.000746	0.000746
0.44	0.3	0.000827	0.000827
0.44	0.35	0.000882	0.000882
0.44	0.4	0.000881	0.000881
0.44	0.45	0.000863	0.000863
0.44	0.5	0.000795	0.000795
0.44	0.55	0.000748	0.000748
0.44	0.6	0.000705	0.000705
0.44	0.65	0.000751	0.000751
0.44	0.7	0.000786	0.000786
0.44	0.75	0.000925	0.000925
0.44	0.8	0.000992	0.000992
0.44	0.85	0.00111	0.00111
0.44	0.9	0.00115	0.00115
0.44	0.95	0.00121	0.00121
0.44	1	0.00101	0.00101
0.46	0	2.8e-08	2.8e-08
0.46	0.05	0.000136	0.000136
0.46	0.1	0.000281	0.000281
0.46	0.15	0.00041	0.00041
0.46	0.2	0.000529	0.000529
0.46	0.25	0.000639	0.000639
0.46	0.3	0.000705	0.000705
0.46	0.35	0.000754	0.000754
0.46	0.4	0.000752	0.000752
0.46	0.45	0.000744	0.000744
0.46	0.5	0.000689	0.000689
0.46	0.55	0.000656	0.000656
0.46	0.6	0.000623	0.000623
0.46	0.65	0.000658	0.000658
0.46	0.7	0.00068	0.00068
0.46	0.75	0.000782	0.000782
0.46	0.8	0.000824	0.000824
0.46	0.85	0.000906	0.000906
0.46	0.9	0.000935	0.000935
0.46	0.95	0.000979	0.000979
0.46	1	0.0008	0.0008
0.48	0	2.32e-08	2.32e-08
0.48	0.05	0.000113	0.000113
0.48	0.1	0.000235	0.000235
0.48	0.15	0.000341	0.000341
0.48	0.2	0.000437	0.000437
0.48	0.25	0.000527	0.000527
0.48	0.3	0.000578	0.000578
0.48	0.35	0.000619	0.000619
0.48	0.4	0.000615	0.000615
0.48	0.45	0.000613	0.000613
0.48	0.5	0.000569	0.000569
0.48	0.55	0.000548	0.000548
0.48	0.6	0.000525	0.000525
0.48	0.65	0.000554	0.000554
0.48	0.7	0.000568	0.000568
0.48	0.75	0.000644	0.000644
0.48	0.8	0.000666	0.000666
0.48	0.85	0.00072	0.00072
0.48	0.9	0.000737	0.000737
0.48	0.95	0.000769	0.000769
0.48	1	0.000622	0.000622
0.5	0	1.86e-08	1.86e-08
0.5	0.05	9.12e-05	9.12e-05
0.5	0.1	0.000189	0.000189
0.5	0.15	0.000272	0.000272
0.5	0.2	0.000345	0.000345
0.5	0.25	0.000415	0.000415
0.5	0.3	0.00045	0.00045
0.5	0.35	0.000482	0.000482
0.5	0.4	0.000475	0.000475
0.5	0.45	0.000476	0.000476
0.5	0.5	0.000442	0.000442
0.5	0.55	0.000432	0.000432
0.5	0.6	0.000423	0.000423
0.5	0.65	0.000455	0.000455
0.5	0.7	0.000474	0.000474
0.5	0.75	0.000541	0.000541
0.5	0.8	0.000564	0.000564
0.5	0.85	0.000611	0.000611
0.5	0.9	0.000634	0.000634
0.5	0.95	0.000667	0.000667
0.5	1	0.000558	0.000558
0.52	0	1.46e-08	1.46e-08
0.52	0.05	7.19e-05	7.19e-05
0.52	0.1	0.00015	0.00015
0.52	0.15	0.000215	0.000215
0.52	0.2	0.000271	0.000271
0.52	0.25	0.000327	0.000327
0.52	0.3	0.000353	0.000353
0.52	0.35	0.00038	0.00038
0.52	0.4	0.000374	0.000374
0.52	0.45	0.00038	0.00038
0.52	0.5	0.000357	0.000357
0.52	0.55	0.000356	0.000356
0.52	0.6	0.000356	0.000356
0.52	0.65	0.000388	0.000388
0.52	0.7	0.000407	0.000407
0.52	0.75	0.000462	0.000462
0.52	0.8	0.000478	0.000478
0.52	0.85	0.000515	0.000515
0.52	0.9	0.000539	0.000539
0.52	0.95	0.000574	0.000574
0.52	1	0.000503	0.000503
0.54	0	1.12e-08	1.12e-08
0.54	0.05	5.56e-05	5.56e-05
0.54	0.1	0.000116	0.000116
0.54	0.15	0.000165	0.000165
0.54	0.2	0.000207	0.000207
0.54	0.25	0.00025	0.00025
0.54	0.3	0.000268	0.000268
0.54	0.35	0.000289	0.000289
0.54	0.4	0.000285	0.000285
0.54	0.45	0.000294	0.000294
0.54	0.5	0.00028	0.00028
0.54	0.55	0.000289	0.000289
0.54	0.6	0.000299	0.000299
0.54	0.65	0.000334	0.000334
0.54	0.7	0.000357	0.000357
0.54	0.75	0.000406	0.000406
0.54	0.8	0.000424	0.000424
0.54	0.85	0.000457	0.000457
0.54	0.9	0.000486	0.000486
0.54	0.95	0.000523	0.000523
0.54	1	0.000485	0.000485
0.56	0	8.39e-09	8.39e-09
0.56	0.05	4.19e-05	4.19e-05
0.56	0.1	8.82e-05	8.82e-05
0.56	0.15	0.000124	0.000124
0.56	0.2	0.000154	0.000154
0.56	0.25	0.000186	0.000186
0.56	0.3	0.000197	0.000197
0.56	0.35	0.000215	0.000215
0.56	0.4	0.000211	0.000211
0.56	0.45	0.000224	0.000224
0.56	0.5	0.000219	0.000219
0.56	0.55	0.000235	0.000235
0.56	0.6	0.000253	0.000253
0.56	0.65	0.000292	0.000292
0.56	0.7	0.00032	0.00032
0.56	0.75	0.000366	0.000366
0.56	0.8	0.000387	0.000387
0.56	0.85	0.000419	0.000419
0.56	0.9	0.000453	0.000453
0.56	0.95	0.000493	0.000493
0.56	1	0.000482	0.000482
0.58	0	6.24e-09	6.24e-09
0.58	0.05	3.15e-05	3.15e-05
0.58	0.1	6.69e-05	6.69e-05
0.58	0.15	9.31e-05	9.31e-05
0.58	0.2	0.000115	0.000115
0.58	0.25	0.000139	0.000139
0.58	0.3	0.000147	0.000147
0.58	0.35	0.000162	0.000162
0.58	0.4	0.000161	0.000161
0.58	0.45	0.000175	0.000175
0.58	0.5	0.000177	0.000177
0.58	0.55	0.000198	0.000198
0.58	0.6	0.000222	0.000222
0.58	0.65	0.000261	0.000261
0.58	0.7	0.00029	0.00029
0.58	0.75	0.000333	0.000333
0.58	0.8	0.000353	0.000353
0.58	0.85	0.000382	0.000382
0.58	0.9	0.000417	0.000417
0.58	0.95	0.000457	0.000457
0.58	1	0.000465	0.000465
0.6	0	4.62e-09	4.62e-09
0.6	0.05	2.35e-05	2.35e-05
0.6	0.1	5.03e-05	5.03e-05
0.6	0.15	6.9e-05	6.9e-05
0.6	0.2	8.41e-05	8.41e-05
0.6	0.25	0.000103	0.000103
0.6	0.3	0.000108	0.000108
0.6	0.35	0.000121	0.000121
0.6	0.4	0.000122	0.000122
0.6	0.45	0.000138	0.000138
0.6	0.5	0.000145	0.000145
0.6	0.55	0.000171	0.000171
0.6	0.6	0.000198	0.000198
0.6	0.65	0.000239	0.000239
0.6	0.7	0.000269	0.000269
0.6	0.75	0.000309	0.000309
0.6	0.8	0.00033	0.00033
0.6	0.85	0.000358	0.000358
0.6	0.9	0.000394	0.000394
0.6	0.95	0.000433	0.000433
0.6	1	0.000453	0.000453
