x	y	z	c
0	0	-1.68e-16	-1.68e-16
0	0.05	0.00384	0.00384
0	0.1	0.03	0.03
0	0.15	0.0975	0.0975
0	0.2	0.221	0.221
0	0.25	0.413	0.413
0	0.3	0.685	0.685
0	0.35	1.05	1.05
0	0.4	1.52	1.52
0	0.45	2.08	2.08
0	0.5	2.73	2.73
0	0.55	3.46	3.46
0	0.6	4.24	4.24
0	0.65	5.1	5.1
0	0.7	6.03	6.03
0	0.75	7.09	7.09
0	0.8	8.28	8.28
0	0.85	9.66	9.66
0	0.9	11.2	11.2
0	0.95	13.1	13.1
0	1	15	15
0.02	0	0.199	0.199
0.02	0.05	0.212	0.212
0.02	0.1	0.255	0.255
0.02	0.15	0.331	0.331
0.02	0.2	0.451	0.451
0.02	0.25	0.626	0.626
0.02	0.3	0.868	0.868
0.02	0.35	1.19	1.19
0.02	0.4	1.61	1.61
0.02	0.45	2.12	2.12
0.02	0.5	2.73	2.73
0.02	0.55	3.44	3.44
0.02	0.6	4.25	4.25
0.02	0.65	5.18	5.18
0.02	0.7	6.2	6.2
0.02	0.75	7.35	7.35
0.02	0.8	8.59	8.59
0.02	0.85	9.98	9.98
0.02	0.9	11.5	11.5
0.02	0.95	13.1	13.1
0.02	1	14.6	14.6
0.04	0	0.381	0.381
0.04	0.05	0.393	0.393
0.04	0.1	0.432	0.432
0.04	0.15	0.503	0.503
0.04	0.2	0.613	0.613
0.04	0.25	0.775	0.775
0.04	0.3	1	1
0.04	0.35	1.31	1.31
0.04	0.4	1.7	1.7
0.04	0.45	2.2	2.2
0.04	0.5	2.79	2.79
0.04	0.55	3.49	3.49
0.04	0.6	4.26	4.26
0.04	0.65	5.12	5.12
0.04	0.7	6.04	6.04
0.04	0.75	7.01	7.01
0.04	0.8	7.99	7.99
0.04	0.85	8.99	8.99
0.04	0.9	9.94	9.94
0.04	0.95	10.8	10.8
0.04	1	11.5	11.5
0.06	0	0.521	0.521
0.06	0.05	0.533	0.533
0.06	0.1	0.57	0.57
0.06	0.15	0.637	0.637
0.06	0.2	0.741	0.741
0.06	0.25	0.896	0.896
0.06	0.3	1.11	1.11
0.06	0.35	1.4	1.4
0.06	0.4	1.77	1.77
0.06	0.45	2.22	2.22
0.06	0.5	2.75	2.75
0.06	0.55	3.34	3.34
0.06	0.6	3.96	3.96
0.06	0.65	4.62	4.62
0.06	0.7	5.27	5.27
0.06	0.75	5.91	5.91
0.06	0.8	6.48	6.48
0.06	0.85	6.99	6.99
0.06	0.9	7.37	7.37
0.06	0.95	7.59	7.59
0.06	1	7.52	7.52
0.08	0	0.632	0.632
0.08	0.05	0.643	0.643
0.08	0.1	0.678	0.678
0.08	0.15	0.742	0.742
0.08	0.2	0.84	0.84
0.08	0.25	0.984	0.984
0.08	0.3	1.18	1.18
0.08	0.35	1.44	1.44
0.08	0.4	1.75	1.75
0.08	0.45	2.13	2.13
0.08	0.5	2.53	2.53
0.08	0.55	2.96	2.96
0.08	0.6	3.38	3.38
0.08	0.65	3.79	3.79
0.08	0.7	4.16	4.16
0.08	0.75	4.46	4.46
0.08	0.8	4.68	4.68
0.08	0.85	4.79	4.79
0.08	0.9	4.76	4.76
0.08	0.95	4.55	4.55
0.08	1	4.09	4.09
0.1	0	0.714	0.714
0.1	0.05	0.724	0.724
0.1	0.1	0.756	0.756
0.1	0.15	0.813	0.813
0.1	0.2	0.9	0.9
0.1	0.25	1.03	1.03
0.1	0.3	1.19	1.19
0.1	0.35	1.4	1.4
0.1	0.4	1.64	1.64
0.1	0.45	1.91	1.91
0.1	0.5	2.18	2.18
0.1	0.55	2.45	2.45
0.1	0.6	2.68	2.68
0.1	0.65	2.87	2.87
0.1	0.7	3	3
0.1	0.75	3.07	3.07
0.1	0.8	3.04	3.04
0.1	0.85	2.9	2.9
0.1	0.9	2.64	2.64
0.1	0.95	2.22	2.22
0.1	1	1.63	1.63
0.12	0	0.763	0.763
0.12	0.05	0.771	0.771
0.12	0.1	0.798	0.798
0.12	0.15	0.845	0.845
0.12	0.2	0.916	0.916
0.12	0.25	1.02	1.02
0.12	0.3	1.14	1.14
0.12	0.35	1.29	1.29
0.12	0.4	1.46	1.46
0.12	0.45	1.63	1.63
0.12	0.5	1.78	1.78
0.12	0.55	1.91	1.91
0.12	0.6	1.99	1.99
0.12	0.65	2.03	2.03
0.12	0.7	2.01	2.01
0.12	0.75	1.93	1.93
0.12	0.8	1.76	1.76
0.12	0.85	1.51	1.51
0.12	0.9	1.16	1.16
0.12	0.95	0.687	0.687
0.12	1	0.115	0.115
0.14	0	0.775	0.775
0.14	0.05	0.782	0.782
0.14	0.1	0.802	0.802
0.14	0.15	0.838	0.838
0.14	0.2	0.89	0.89
0.14	0.25	0.962	0.962
0.14	0.3	1.05	1.05
0.14	0.35	1.15	1.15
0.14	0.4	1.24	1.24
0.14	0.45	1.33	1.33
0.14	0.5	1.39	1.39
0.14	0.55	1.42	1.42
0.14	0.6	1.41	1.41
0.14	0.65	1.36	1.36
0.14	0.7	1.25	1.25
0.14	0.75	1.1	1.1
0.14	0.8	0.876	0.876
0.14	0.85	0.592	0.592
0.14	0.9	0.235	0.235
0.14	0.95	-0.204	-0.204
0.14	1	-0.691	-0.691
0.16	0	0.754	0.754
0.16	0.05	0.758	0.758
0.16	0.1	0.773	0.773
0.16	0.15	0.797	0.797
0.16	0.2	0.832	0.832
0.16	0.25	0.878	0.878
0.16	0.3	0.929	0.929
0.16	0.35	0.985	0.985
0.16	0.4	1.03	1.03
0.16	0.45	1.06	1.06
0.16	0.5	1.06	1.06
0.16	0.55	1.03	1.03
0.16	0.6	0.967	0.967
0.16	0.65	0.869	0.869
0.16	0.7	0.73	0.73
0.16	0.75	0.551	0.551
0.16	0.8	0.329	0.329
0.16	0.85	0.061	0.061
0.16	0.9	-0.255	-0.255
0.16	0.95	-0.626	-0.626
0.16	1	-1.01	-1.01
0.18	0	0.706	0.706
0.18	0.05	0.708	0.708
0.18	0.1	0.717	0.717
0.18	0.15	0.732	0.732
0.18	0.2	0.752	0.752
0.18	0.25	0.778	0.778
0.18	0.3	0.802	0.802
0.18	0.35	0.825	0.825
0.18	0.4	0.832	0.832
0.18	0.45	0.825	0.825
0.18	0.5	0.789	0.789
0.18	0.55	0.732	0.732
0.18	0.6	0.644	0.644
0.18	0.65	0.53	0.53
0.18	0.7	0.386	0.386
0.18	0.75	0.213	0.213
0.18	0.8	0.0106	0.0106
0.18	0.85	-0.223	-0.223
0.18	0.9	-0.488	-0.488
0.18	0.95	-0.789	-0.789
0.18	1	-1.09	-1.09
0.2	0	0.64	0.64
0.2	0.05	0.641	0.641
0.2	0.1	0.646	0.646
0.2	0.15	0.653	0.653
0.2	0.2	0.662	0.662
0.2	0.25	0.673	0.673
0.2	0.3	0.68	0.68
0.2	0.35	0.681	0.681
0.2	0.4	0.667	0.667
0.2	0.45	0.639	0.639
0.2	0.5	0.588	0.588
0.2	0.55	0.519	0.519
0.2	0.6	0.427	0.427
0.2	0.65	0.316	0.316
0.2	0.7	0.184	0.184
0.2	0.75	0.0318	0.0318
0.2	0.8	-0.14	-0.14
0.2	0.85	-0.333	-0.333
0.2	0.9	-0.545	-0.545
0.2	0.95	-0.782	-0.782
0.2	1	-1.01	-1.01
0.22	0	0.565	0.565
0.22	0.05	0.566	0.566
0.22	0.1	0.567	0.567
0.22	0.15	0.569	0.569
0.22	0.2	0.571	0.571
0.22	0.25	0.571	0.571
0.22	0.3	0.566	0.566
0.22	0.35	0.554	0.554
0.22	0.4	0.528	0.528
0.22	0.45	0.49	0.49
0.22	0.5	0.433	0.433
0.22	0.55	0.362	0.362
0.22	0.6	0.275	0.275
0.22	0.65	0.173	0.173
0.22	0.7	0.0575	0.0575
0.22	0.75	-0.0721	-0.0721
0.22	0.8	-0.214	-0.214
0.22	0.85	-0.37	-0.37
0.22	0.9	-0.538	-0.538
0.22	0.95	-0.72	-0.72
0.22	1	-0.889	-0.889
0.24	0	0.489	0.489
0.24	0.05	0.488	0.488
0.24	0.1	0.488	0.488
0.24	0.15	0.487	0.487
0.24	0.2	0.484	0.484
0.24	0.25	0.478	0.478
0.24	0.3	0.467	0.467
0.24	0.35	0.448	0.448
0.24	0.4	0.418	0.418
0.24	0.45	0.377	0.377
0.24	0.5	0.322	0.322
0.24	0.55	0.256	0.256
0.24	0.6	0.178	0.178
0.24	0.65	0.0905	0.0905
0.24	0.7	-0.00657	-0.00657
0.24	0.75	-0.113	-0.113
0.24	0.8	-0.227	-0.227
0.24	0.85	-0.349	-0.349
0.24	0.9	-0.478	-0.478
0.24	0.95	-0.615	-0.615
0.24	1	-0.74	-0.74
0.26	0	0.415	0.415
0.26	0.05	0.415	0.415
0.26	0.1	0.413	0.413
0.26	0.15	0.41	0.41
0.26	0.2	0.405	0.405
0.26	0.25	0.396	0.396
0.26	0.3	0.381	0.381
0.26	0.35	0.36	0.36
0.26	0.4	0.33	0.33
0.26	0.45	0.29	0.29
0.26	0.5	0.24	0.24
0.26	0.55	0.181	0.181
0.26	0.6	0.115	0.115
0.26	0.65	0.0411	0.0411
0.26	0.7	-0.0387	-0.0387
0.26	0.75	-0.124	-0.124
0.26	0.8	-0.215	-0.215
0.26	0.85	-0.31	-0.31
0.26	0.9	-0.409	-0.409
0.26	0.95	-0.511	-0.511
0.26	1	-0.603	-0.603
0.28	0	0.348	0.348
0.28	0.05	0.347	0.347
0.28	0.1	0.345	0.345
0.28	0.15	0.341	0.341
0.28	0.2	0.335	0.335
0.28	0.25	0.325	0.325
0.28	0.3	0.31	0.31
0.28	0.35	0.289	0.289
0.28	0.4	0.26	0.26
0.28	0.45	0.224	0.224
0.28	0.5	0.18	0.18
0.28	0.55	0.131	0.131
0.28	0.6	0.0756	0.0756
0.28	0.65	0.0161	0.0161
0.28	0.7	-0.0471	-0.0471
0.28	0.75	-0.114	-0.114
0.28	0.8	-0.182	-0.182
0.28	0.85	-0.253	-0.253
0.28	0.9	-0.325	-0.325
0.28	0.95	-0.398	-0.398
0.28	1	-0.462	-0.462
0.3	0	0.289	0.289
0.3	0.05	0.288	0.288
0.3	0.1	0.286	0.286
0.3	0.15	0.281	0.281
0.3	0.2	0.275	0.275
0.3	0.25	0.265	0.265
0.3	0.3	0.251	0.251
0.3	0.35	0.231	0.231
0.3	0.4	0.206	0.206
0.3	0.45	0.175	0.175
0.3	0.5	0.138	0.138
0.3	0.55	0.0965	0.0965
0.3	0.6	0.0513	0.0513
0.3	0.65	0.00323	0.00323
0.3	0.7	-0.0471	-0.0471
0.3	0.75	-0.0993	-0.0993
0.3	0.8	-0.152	-0.152
0.3	0.85	-0.206	-0.206
0.3	0.9	-0.259	-0.259
0.3	0.95	-0.311	-0.311
0.3	1	-0.355	-0.355
0.32	0	0.237	0.237
0.32	0.05	0.236	0.236
0.32	0.1	0.234	0.234
0.32	0.15	0.23	0.23
0.32	0.2	0.224	0.224
0.32	0.25	0.215	0.215
0.32	0.3	0.202	0.202
0.32	0.35	0.185	0.185
0.32	0.4	0.163	0.163
0.32	0.45	0.137	0.137
0.32	0.5	0.107	0.107
0.32	0.55	0.0743	0.0743
0.32	0.6	0.0391	0.0391
0.32	0.65	0.00253	0.00253
0.32	0.7	-0.035	-0.035
0.32	0.75	-0.0731	-0.0731
0.32	0.8	-0.111	-0.111
0.32	0.85	-0.149	-0.149
0.32	0.9	-0.185	-0.185
0.32	0.95	-0.22	-0.22
0.32	1	-0.249	-0.249
0.34	0	0.193	0.193
0.34	0.05	0.193	0.193
0.34	0.1	0.191	0.191
0.34	0.15	0.187	0.187
0.34	0.2	0.181	0.181
0.34	0.25	0.173	0.173
0.34	0.3	0.162	0.162
0.34	0.35	0.148	0.148
0.34	0.4	0.13	0.13
0.34	0.45	0.109	0.109
0.34	0.5	0.0848	0.0848
0.34	0.55	0.0591	0.0591
0.34	0.6	0.0318	0.0318
0.34	0.65	0.00393	0.00393
0.34	0.7	-0.0243	-0.0243
0.34	0.75	-0.0524	-0.0524
0.34	0.8	-0.0799	-0.0799
0.34	0.85	-0.106	-0.106
0.34	0.9	-0.131	-0.131
0.34	0.95	-0.154	-0.154
0.34	1	-0.173	-0.173
0.36	0	0.157	0.157
0.36	0.05	0.156	0.156
0.36	0.1	0.155	0.155
0.36	0.15	0.152	0.152
0.36	0.2	0.147	0.147
0.36	0.25	0.14	0.14
0.36	0.3	0.131	0.131
0.36	0.35	0.119	0.119
0.36	0.4	0.104	0.104
0.36	0.45	0.0875	0.0875
0.36	0.5	0.0688	0.0688
0.36	0.55	0.0491	0.0491
0.36	0.6	0.0284	0.0284
0.36	0.65	0.00761	0.00761
0.36	0.7	-0.0132	-0.0132
0.36	0.75	-0.0335	-0.0335
0.36	0.8	-0.0532	-0.0532
0.36	0.85	-0.0719	-0.0719
0.36	0.9	-0.0891	-0.0891
0.36	0.95	-0.105	-0.105
0.36	1	-0.117	-0.117
0.38	0	0.127	0.127
0.38	0.05	0.126	0.126
0.38	0.1	0.125	0.125
0.38	0.15	0.122	0.122
0.38	0.2	0.118	0.118
0.38	0.25	0.113	0.113
0.38	0.3	0.106	0.106
0.38	0.35	0.0961	0.0961
0.38	0.4	0.0847	0.0847
0.38	0.45	0.0717	0.0717
0.38	0.5	0.0574	0.0574
0.38	0.55	0.0426	0.0426
0.38	0.6	0.0273	0.0273
0.38	0.65	0.0121	0.0121
0.38	0.7	-0.00294	-0.00294
0.38	0.75	-0.0174	-0.0174
0.38	0.8	-0.0312	-0.0312
0.38	0.85	-0.0441	-0.0441
0.38	0.9	-0.0557	-0.0557
0.38	0.95	-0.0658	-0.0658
0.38	1	-0.0739	-0.0739
0.4	0	0.102	0.102
0.4	0.05	0.102	0.102
0.4	0.1	0.101	0.101
0.4	0.15	0.0986	0.0986
0.4	0.2	0.0955	0.0955
0.4	0.25	0.091	0.091
0.4	0.3	0.0852	0.0852
0.4	0.35	0.0778	0.0778
0.4	0.4	0.0689	0.0689
0.4	0.45	0.0589	0.0589
0.4	0.5	0.048	0.048
0.4	0.55	0.0368	0.0368
0.4	0.6	0.0254	0.0254
0.4	0.65	0.0141	0.0141
0.4	0.7	0.00304	0.00304
0.4	0.75	-0.00749	-0.00749
0.4	0.8	-0.0175	-0.0175
0.4	0.85	-0.0266	-0.0266
0.4	0.9	-0.0349	-0.0349
0.4	0.95	-0.0418	-0.0418
0.4	1	-0.0473	-0.0473
0.42	0	0.0824	0.0824
0.42	0.05	0.0821	0.0821
0.42	0.1	0.0813	0.0813
0.42	0.15	0.0796	0.0796
0.42	0.2	0.0772	0.0772
0.42	0.25	0.0738	0.0738
0.42	0.3	0.0693	0.0693
0.42	0.35	0.0636	0.0636
0.42	0.4	0.057	0.057
0.42	0.45	0.0494	0.0494
0.42	0.5	0.0414	0.0414
0.42	0.55	0.0332	0.0332
0.42	0.6	0.0249	0.0249
0.42	0.65	0.0167	0.0167
0.42	0.7	0.00883	0.00883
0.42	0.75	0.00135	0.00135
0.42	0.8	-0.00573	-0.00573
0.42	0.85	-0.0121	-0.0121
0.42	0.9	-0.0179	-0.0179
0.42	0.95	-0.0228	-0.0228
0.42	1	-0.0269	-0.0269
0.44	0	0.0665	0.0665
0.44	0.05	0.0662	0.0662
0.44	0.1	0.0656	0.0656
0.44	0.15	0.0643	0.0643
0.44	0.2	0.0624	0.0624
0.44	0.25	0.0598	0.0598
0.44	0.3	0.0564	0.0564
0.44	0.35	0.0521	0.0521
0.44	0.4	0.0471	0.0471
0.44	0.45	0.0414	0.0414
0.44	0.5	0.0354	0.0354
0.44	0.55	0.0293	0.0293
0.44	0.6	0.0231	0.0231
0.44	0.65	0.0171	0.0171
0.44	0.7	0.0112	0.0112
0.44	0.75	0.00576	0.00576
0.44	0.8	0.000543	0.000543
0.44	0.85	-0.00414	-0.00414
0.44	0.9	-0.00843	-0.00843
0.44	0.95	-0.012	-0.012
0.44	1	-0.0151	-0.0151
0.46	0	0.0537	0.0537
0.46	0.05	0.0536	0.0536
0.46	0.1	0.053	0.053
0.46	0.15	0.0521	0.0521
0.46	0.2	0.0507	0.0507
0.46	0.25	0.0487	0.0487
0.46	0.3	0.0462	0.0462
0.46	0.35	0.043	0.043
0.46	0.4	0.0392	0.0392
0.46	0.45	0.035	0.035
0.46	0.5	0.0305	0.0305
0.46	0.55	0.026	0.026
0.46	0.6	0.0215	0.0215
0.46	0.65	0.0171	0.0171
0.46	0.7	0.0127	0.0127
0.46	0.75	0.00872	0.00872
0.46	0.8	0.00486	0.00486
0.46	0.85	0.00141	0.00141
0.46	0.9	-0.0018	-0.0018
0.46	0.95	-0.00447	-0.00447
0.46	1	-0.00699	-0.00699
0.48	0	0.0436	0.0436
0.48	0.05	0.0435	0.0435
0.48	0.1	0.0431	0.0431
0.48	0.15	0.0423	0.0423
0.48	0.2	0.0413	0.0413
0.48	0.25	0.0398	0.0398
0.48	0.3	0.038	0.038
0.48	0.35	0.0356	0.0356
0.48	0.4	0.0328	0.0328
0.48	0.45	0.0297	0.0297
0.48	0.5	0.0263	0.0263
0.48	0.55	0.023	0.023
0.48	0.6	0.0196	0.0196
0.48	0.65	0.0163	0.0163
0.48	0.7	0.013	0.013
0.48	0.75	0.01	0.01
0.48	0.8	0.0071	0.0071
0.48	0.85	0.00448	0.00448
0.48	0.9	0.00198	0.00198
0.48	0.95	-9.35e-05	-9.35e-05
0.48	1	-0.00218	-0.00218
0.5	0	0.0354	0.0354
0.5	0.05	0.0353	0.0353
0.5	0.1	0.035	0.035
0.5	0.15	0.0345	0.0345
0.5	0.2	0.0337	0.0337
0.5	0.25	0.0326	0.0326
0.5	0.3	0.0312	0.0312
0.5	0.35	0.0294	0.0294
0.5	0.4	0.0273	0.0273
0.5	0.45	0.025	0.025
0.5	0.5	0.0225	0.0225
0.5	0.55	0.0199	0.0199
0.5	0.6	0.0174	0.0174
0.5	0.65	0.0149	0.0149
0.5	0.7	0.0124	0.0124
0.5	0.75	0.0101	0.0101
0.5	0.8	0.00789	0.00789
0.5	0.85	0.00588	0.00588
0.5	0.9	0.00393	0.00393
0.5	0.95	0.00228	0.00228
0.5	1	0.00056	0.00056
0.52	0	0.0288	0.0288
0.52	0.05	0.0288	0.0288
0.52	0.1	0.0286	0.0286
0.52	0.15	0.0282	0.0282
0.52	0.2	0.0276	0.0276
0.52	0.25	0.0268	0.0268
0.52	0.3	0.0258	0.0258
0.52	0.35	0.0245	0.0245
0.52	0.4	0.023	0.023
0.52	0.45	0.0212	0.0212
0.52	0.5	0.0193	0.0193
0.52	0.55	0.0175	0.0175
0.52	0.6	0.0155	0.0155
0.52	0.65	0.0137	0.0137
0.52	0.7	0.0118	0.0118
0.52	0.75	0.01	0.01
0.52	0.8	0.0083	0.0083
0.52	0.85	0.00672	0.00672
0.52	0.9	0.00516	0.00516
0.52	0.95	0.00383	0.00383
0.52	1	0.0024	0.0024
0.54	0	0.0236	0.0236
0.54	0.05	0.0235	0.0235
0.54	0.1	0.0234	0.0234
0.54	0.15	0.0231	0.0231
0.54	0.2	0.0227	0.0227
0.54	0.25	0.0221	0.0221
0.54	0.3	0.0214	0.0214
0.54	0.35	0.0204	0.0204
0.54	0.4	0.0192	0.0192
0.54	0.45	0.0179	0.0179
0.54	0.5	0.0165	0.0165
0.54	0.55	0.0151	0.0151
0.54	0.6	0.0136	0.0136
0.54	0.65	0.0122	0.0122
0.54	0.7	0.0107	0.0107
0.54	0.75	0.00936	0.00936
0.54	0.8	0.00797	0.00797
0.54	0.85	0.00672	0.00672
0.54	0.9	0.00545	0.00545
0.54	0.95	0.00435	0.00435
0.54	1	0.00318	0.00318
0.56	0	0.0192	0.0192
0.56	0.05	0.0192	0.0192
0.56	0.1	0.0191	0.0191
0.56	0.15	0.0189	0.0189
0.56	0.2	0.0186	0.0186
0.56	0.25	0.0181	0.0181
0.56	0.3	0.0176	0.0176
0.56	0.35	0.0169	0.0169
0.56	0.4	0.016	0.016
0.56	0.45	0.015	0.015
0.56	0.5	0.014	0.014
0.56	0.55	0.0129	0.0129
0.56	0.6	0.0117	0.0117
0.56	0.65	0.0107	0.0107
0.56	0.7	0.00952	0.00952
0.56	0.75	0.00847	0.00847
0.56	0.8	0.00737	0.00737
0.56	0.85	0.00637	0.00637
0.56	0.9	0.00534	0.00534
0.56	0.95	0.00444	0.00444
0.56	1	0.0035	0.0035
0.58	0	0.0158	0.0158
0.58	0.05	0.0157	0.0157
0.58	0.1	0.0157	0.0157
0.58	0.15	0.0155	0.0155
0.58	0.2	0.0153	0.0153
0.58	0.25	0.015	0.015
0.58	0.3	0.0146	0.0146
0.58	0.35	0.0141	0.0141
0.58	0.4	0.0134	0.0134
0.58	0.45	0.0127	0.0127
0.58	0.5	0.0118	0.0118
0.58	0.55	0.011	0.011
0.58	0.6	0.0101	0.0101
0.58	0.65	0.00925	0.00925
0.58	0.7	0.00836	0.00836
0.58	0.75	0.00752	0.00752
0.58	0.8	0.00663	0.00663
0.58	0.85	0.00581	0.00581
0.58	0.9	0.00495	0.00495
0.58	0.95	0.00418	0.00418
0.58	1	0.00343	0.00343
0.6	0	0.013	0.013
0.6	0.05	0.0129	0.0129
0.6	0.1	0.0129	0.0129
0.6	0.15	0.0127	0.0127
0.6	0.2	0.0126	0.0126
0.6	0.25	0.0124	0.0124
0.6	0.3	0.0121	0.0121
0.6	0.35	0.0117	0.0117
0.6	0.4	0.0112	0.0112
0.6	0.45	0.0106	0.0106
0.6	0.5	0.00993	0.00993
0.6	0.55	0.00928	0.00928
0.6	0.6	0.00858	0.00858
0.6	0.65	0.00791	0.00791
0.6	0.7	0.00719	0.00719
0.6	0.75	0.00652	0.00652
0.6	0.8	0.0058	0.0058
0.6	0.85	0.00512	0.00512
0.6	0.9	0.00442	0.00442
0.6	0.95	0.00376	0.00376
0.6	1	0.00317	0.00317
