0	3
2.73e-08	3
5.45e-08	3
8.18e-08	3
2.15e-07	3
3.48e-07	3
4.82e-07	3
6.15e-07	3
8.47e-07	3
1.08e-06	3
1.31e-06	3
1.54e-06	3
1.77e-06	3
2.41e-06	3
3.04e-06	3
3.67e-06	3
4.31e-06	3
4.94e-06	3
5.57e-06	3
6.45e-06	3
7.32e-06	3
8.19e-06	3
9.06e-06	3
9.93e-06	3
1.08e-05	3
1.19e-05	3
1.3e-05	3
1.4e-05	3
1.51e-05	3
1.62e-05	3
1.73e-05	3
1.87e-05	3
2.02e-05	3
2.16e-05	3
2.31e-05	3
2.45e-05	3
2.59e-05	3
2.79e-05	3
2.99e-05	3
3.19e-05	3
3.39e-05	3
3.59e-05	3
3.79e-05	3
4.04e-05	3
4.29e-05	3
4.55e-05	3
4.8e-05	3
5.05e-05	3
5.3e-05	3
5.64e-05	3
5.97e-05	3
6.31e-05	3
6.65e-05	3
6.98e-05	3
7.32e-05	3
7.78e-05	3
8.24e-05	3
8.7e-05	3
9.16e-05	3
9.62e-05	3
0.000101	3
0.000107	3
0.000113	2.99
0.00012	2.99
0.000126	2.99
0.000132	2.99
0.000139	2.99
0.000147	2.99
0.000156	2.99
0.000165	2.99
0.000173	2.99
0.000182	2.99
0.00019	2.99
0.000202	2.99
0.000214	2.99
0.000225	2.99
0.000237	2.99
0.000248	2.99
0.00026	2.99
0.000275	2.99
0.000291	2.99
0.000306	2.99
0.000322	2.99
0.000337	2.98
0.000353	2.98
0.000373	2.98
0.000394	2.98
0.000414	2.98
0.000435	2.98
0.000455	2.98
0.000476	2.98
0.000503	2.98
0.00053	2.98
0.000557	2.98
0.000584	2.97
0.000611	2.97
0.000638	2.97
0.000674	2.97
0.00071	2.97
0.000746	2.97
0.000783	2.96
0.000819	2.96
0.000855	2.96
0.000903	2.96
0.00095	2.96
0.000998	2.96
0.00105	2.95
0.00109	2.95
0.00114	2.95
0.0012	2.95
0.00127	2.94
0.00133	2.94
0.00139	2.94
0.00146	2.94
0.00152	2.93
0.0016	2.93
0.00168	2.93
0.00176	2.92
0.00184	2.92
0.00193	2.91
0.00201	2.91
0.00211	2.91
0.00222	2.9
0.00232	2.9
0.00242	2.89
0.00253	2.89
0.00263	2.88
0.00276	2.88
0.00289	2.87
0.00303	2.87
0.00316	2.86
0.00329	2.86
0.00342	2.85
0.00358	2.84
0.00374	2.84
0.0039	2.83
0.00406	2.82
0.00422	2.82
0.00438	2.81
0.00458	2.8
0.00479	2.79
0.00499	2.78
0.00519	2.78
0.0054	2.77
0.0056	2.76
0.00587	2.75
0.00614	2.74
0.0064	2.73
0.00667	2.71
0.00694	2.7
0.00721	2.69
0.00754	2.68
0.00788	2.67
0.00822	2.65
0.00855	2.64
0.00889	2.63
0.00922	2.61
0.00963	2.6
0.01	2.58
0.0104	2.57
0.0108	2.55
0.0113	2.53
0.0117	2.52
0.0122	2.5
0.0127	2.48
0.0132	2.46
0.0137	2.44
0.0142	2.43
0.0147	2.41
0.0153	2.38
0.016	2.36
0.0166	2.34
0.0172	2.32
0.0179	2.29
0.0185	2.27
0.0193	2.25
0.0201	2.22
0.0209	2.19
0.0217	2.17
0.0225	2.14
0.0233	2.12
0.0243	2.08
0.0253	2.05
0.0263	2.02
0.0272	1.99
0.0282	1.96
0.0292	1.94
0.0304	1.9
0.0316	1.87
0.0328	1.84
0.0331	1.82
0.0335	1.81
0.0338	1.81
0.0342	1.8
0.0345	1.79
0.0348	1.78
0.0351	1.77
0.0354	1.76
0.0359	1.75
0.0364	1.74
0.0368	1.73
0.0373	1.71
0.0378	1.7
0.0388	1.68
0.0398	1.65
0.0408	1.63
0.0418	1.6
0.0428	1.58
0.0442	1.55
0.0456	1.51
0.0469	1.48
0.0483	1.45
0.0496	1.42
0.051	1.4
0.0529	1.36
0.0548	1.32
0.0566	1.28
0.0585	1.25
0.0604	1.21
0.0623	1.18
0.0643	1.14
0.0663	1.11
0.0667	1.1
0.0669	1.1
0.067	1.1
0.0672	1.1
0.0673	1.09
0.0674	1.09
0.0676	1.09
0.0678	1.08
0.0681	1.08
0.0684	1.08
0.0686	1.07
0.0689	1.07
0.0695	1.06
0.0701	1.05
0.0707	1.04
0.0713	1.03
0.0719	1.02
0.073	1
0.0742	0.986
0.0753	0.97
0.0764	0.954
0.0775	0.938
0.0792	0.915
0.0808	0.892
0.0825	0.871
0.0841	0.85
0.0858	0.829
0.0878	0.804
0.0898	0.78
0.0918	0.756
0.0939	0.734
0.0959	0.712
0.0983	0.687
0.0992	0.677
0.0998	0.671
0.1	0.67
0.1	0.668
0.1	0.667
0.1	0.666
0.1	0.665
0.101	0.663
0.101	0.661
0.101	0.66
0.101	0.658
0.101	0.656
0.102	0.654
0.102	0.65
0.102	0.645
0.103	0.64
0.103	0.635
0.104	0.631
0.105	0.624
0.105	0.617
0.106	0.611
0.107	0.604
0.108	0.598
0.109	0.588
0.11	0.578
0.111	0.568
0.112	0.558
0.113	0.549
0.115	0.534
0.117	0.52
0.119	0.507
0.12	0.494
0.122	0.481
0.124	0.464
0.127	0.447
0.129	0.431
0.132	0.416
0.133	0.411
0.133	0.406
0.133	0.406
0.133	0.405
0.134	0.405
0.134	0.404
0.134	0.404
0.134	0.403
0.134	0.403
0.134	0.402
0.134	0.401
0.134	0.4
0.135	0.399
0.135	0.397
0.135	0.396
0.135	0.395
0.136	0.392
0.136	0.39
0.136	0.387
0.137	0.385
0.137	0.382
0.138	0.379
0.139	0.375
0.139	0.371
0.14	0.368
0.141	0.364
0.142	0.359
0.143	0.354
0.144	0.348
0.145	0.343
0.146	0.338
0.147	0.331
0.148	0.324
0.15	0.317
0.151	0.31
0.153	0.303
0.155	0.294
0.157	0.285
0.159	0.277
0.161	0.269
0.163	0.261
0.165	0.251
0.166	0.248
0.167	0.247
0.167	0.246
0.167	0.246
0.167	0.246
0.167	0.245
0.167	0.245
0.167	0.245
0.167	0.245
0.167	0.244
0.167	0.244
0.167	0.244
0.167	0.243
0.168	0.243
0.168	0.242
0.168	0.241
0.168	0.24
0.169	0.239
0.169	0.238
0.169	0.237
0.17	0.235
0.17	0.233
0.171	0.231
0.171	0.23
0.172	0.227
0.173	0.224
0.174	0.222
0.174	0.219
0.175	0.217
0.176	0.213
0.178	0.209
0.179	0.205
0.18	0.201
0.181	0.197
0.183	0.192
0.185	0.188
0.186	0.183
0.188	0.178
0.19	0.174
0.192	0.168
0.195	0.162
0.197	0.156
0.199	0.151
0.2	0.15
0.2	0.149
0.201	0.148
0.201	0.147
0.201	0.146
0.202	0.145
0.202	0.144
0.203	0.143
0.203	0.142
0.204	0.141
0.204	0.14
0.206	0.137
0.207	0.134
0.209	0.131
0.21	0.128
0.212	0.125
0.214	0.121
0.217	0.117
0.219	0.112
0.221	0.109
0.224	0.105
0.227	0.0993
0.231	0.0941
0.232	0.0925
0.233	0.0909
0.233	0.0907
0.233	0.0906
0.233	0.0905
0.234	0.0904
0.234	0.0903
0.234	0.0902
0.234	0.09
0.234	0.0899
0.234	0.0897
0.234	0.0896
0.234	0.0894
0.235	0.089
0.235	0.0886
0.235	0.0881
0.235	0.0877
0.236	0.0873
0.236	0.0866
0.237	0.0859
0.237	0.0852
0.238	0.0846
0.238	0.0839
0.239	0.0828
0.24	0.0817
0.241	0.0806
0.242	0.0795
0.243	0.0785
0.244	0.0769
0.246	0.0754
0.247	0.0738
0.248	0.0724
0.25	0.0709
0.251	0.0691
0.253	0.0673
0.255	0.0656
0.257	0.0639
0.258	0.0622
0.261	0.0601
0.263	0.058
0.265	0.056
0.266	0.0554
0.267	0.0551
0.267	0.0549
0.267	0.0548
0.267	0.0548
0.267	0.0547
0.267	0.0547
0.267	0.0546
0.267	0.0545
0.267	0.0544
0.267	0.0543
0.268	0.0542
0.268	0.0541
0.268	0.0539
0.268	0.0537
0.268	0.0535
0.269	0.0533
0.269	0.053
0.27	0.0526
0.27	0.0522
0.27	0.0519
0.271	0.0516
0.272	0.051
0.272	0.0505
0.273	0.0499
0.274	0.0494
0.274	0.0489
0.276	0.0481
0.277	0.0473
0.278	0.0465
0.279	0.0458
0.28	0.045
0.282	0.044
0.283	0.0429
0.285	0.0419
0.286	0.0409
0.288	0.0399
0.29	0.0387
0.292	0.0375
0.294	0.0364
0.296	0.0352
0.298	0.0342
0.299	0.0338
0.3	0.0334
0.3	0.0333
0.3	0.0333
0.3	0.0332
0.3	0.0332
0.3	0.0332
0.3	0.0331
0.301	0.0331
0.301	0.033
0.301	0.033
0.301	0.0329
0.301	0.0328
0.301	0.0326
0.302	0.0325
0.302	0.0324
0.302	0.0322
0.303	0.032
0.303	0.0318
0.304	0.0316
0.304	0.0313
0.305	0.0311
0.305	0.0308
0.306	0.0304
0.307	0.0301
0.308	0.0297
0.308	0.0294
0.309	0.0289
0.311	0.0284
0.312	0.0279
0.313	0.0274
0.314	0.027
0.316	0.0263
0.318	0.0256
0.319	0.0249
0.321	0.0243
0.323	0.0236
0.325	0.0228
0.328	0.022
0.33	0.0213
0.332	0.0205
0.333	0.0203
0.333	0.0202
0.333	0.0202
0.334	0.0202
0.334	0.0201
0.334	0.0201
0.334	0.0201
0.334	0.02
0.334	0.02
0.334	0.02
0.334	0.0199
0.335	0.0198
0.335	0.0198
0.335	0.0197
0.335	0.0196
0.336	0.0195
0.336	0.0194
0.337	0.0192
0.337	0.0191
0.338	0.0189
0.338	0.0188
0.339	0.0185
0.34	0.0183
0.341	0.018
0.342	0.0178
0.343	0.0176
0.344	0.0172
0.345	0.0169
0.347	0.0165
0.348	0.0162
0.349	0.0159
0.351	0.0154
0.353	0.0149
0.355	0.0145
0.357	0.0141
0.359	0.0137
0.362	0.0131
0.365	0.0126
0.366	0.0124
0.367	0.0123
0.367	0.0123
0.367	0.0122
0.367	0.0122
0.367	0.0122
0.367	0.0121
0.367	0.0121
0.368	0.0121
0.368	0.012
0.368	0.012
0.368	0.012
0.369	0.0119
0.369	0.0118
0.37	0.0117
0.37	0.0116
0.371	0.0115
0.372	0.0114
0.372	0.0112
0.373	0.0111
0.374	0.011
0.375	0.0108
0.376	0.0106
0.378	0.0104
0.379	0.0101
0.381	0.00991
0.382	0.0097
0.384	0.00938
0.387	0.00908
0.389	0.00878
0.391	0.0085
0.393	0.00822
0.396	0.00784
0.4	0.00747
0.4	0.00744
0.4	0.00741
0.4	0.00738
0.401	0.00736
0.401	0.00733
0.401	0.00729
0.402	0.00726
0.402	0.00722
0.402	0.00719
0.403	0.00715
0.403	0.00706
0.404	0.00697
0.405	0.00688
0.406	0.0068
0.407	0.00671
0.408	0.00657
0.41	0.00643
0.411	0.00629
0.413	0.00615
0.414	0.00602
0.416	0.00581
0.419	0.00561
0.421	0.00541
0.424	0.00522
0.426	0.00504
0.43	0.00477
0.433	0.00451
0.434	0.00448
0.434	0.00446
0.435	0.00443
0.435	0.00441
0.435	0.00438
0.436	0.00434
0.436	0.00431
0.437	0.00427
0.438	0.00423
0.438	0.0042
0.44	0.0041
0.441	0.004
0.443	0.00391
0.445	0.00381
0.446	0.00372
0.449	0.00356
0.452	0.00341
0.455	0.00327
0.458	0.00313
0.461	0.00299
0.465	0.0028
0.466	0.00275
0.468	0.0027
0.469	0.00265
0.47	0.0026
0.471	0.00255
0.473	0.0025
0.474	0.00244
0.476	0.00239
0.477	0.00233
0.479	0.00228
0.482	0.00218
0.485	0.00208
0.488	0.00199
0.491	0.00191
0.494	0.00182
0.499	0.00168
0.501	0.00164
0.502	0.00161
0.504	0.00157
0.505	0.00154
0.507	0.0015
0.509	0.00145
0.511	0.00141
0.513	0.00136
0.515	0.00132
0.517	0.00128
0.522	0.00119
0.527	0.00111
0.531	0.00104
0.535	0.000978
0.539	0.000923
0.542	0.000881
0.545	0.000841
0.548	0.000803
0.551	0.000767
0.555	0.000732
0.56	0.000673
0.566	0.000619
0.567	0.000605
0.569	0.000591
0.57	0.000578
0.572	0.000564
0.573	0.000552
0.576	0.000534
0.578	0.000517
0.58	0.0005
0.582	0.000484
0.584	0.000469
0.589	0.000439
0.593	0.000412
0.597	0.000386
0.6	0.00037
0.601	0.000365
0.602	0.00036
0.603	0.000355
0.604	0.00035
0.605	0.000346
0.606	0.000339
0.607	0.000332
0.609	0.000325
0.61	0.000318
0.612	0.000311
0.615	0.000296
0.618	0.000281
0.622	0.000267
0.625	0.000254
0.629	0.000241
0.633	0.000226
0.634	0.000222
0.635	0.000218
0.636	0.000214
0.638	0.000211
0.639	0.000207
0.64	0.000202
0.642	0.000197
0.644	0.000192
0.645	0.000188
0.647	0.000183
0.651	0.000172
0.655	0.000162
0.659	0.000153
0.663	0.000144
0.667	0.000135
0.669	0.000132
0.67	0.000129
0.672	0.000127
0.673	0.000124
0.675	0.000121
0.677	0.000117
0.679	0.000113
0.681	0.000109
0.684	0.000106
0.688	9.86e-05
0.693	9.21e-05
0.697	8.6e-05
0.702	8.03e-05
0.707	7.42e-05
0.711	7.03e-05
0.714	6.67e-05
0.718	6.32e-05
0.721	5.99e-05
0.727	5.5e-05
0.733	5.04e-05
0.735	4.91e-05
0.736	4.78e-05
0.738	4.66e-05
0.74	4.54e-05
0.742	4.42e-05
0.744	4.26e-05
0.747	4.11e-05
0.749	3.96e-05
0.752	3.81e-05
0.754	3.68e-05
0.76	3.36e-05
0.766	3.07e-05
0.768	2.98e-05
0.77	2.9e-05
0.772	2.81e-05
0.774	2.73e-05
0.776	2.65e-05
0.779	2.54e-05
0.782	2.43e-05
0.785	2.32e-05
0.787	2.22e-05
0.79	2.13e-05
0.798	1.89e-05
0.807	1.67e-05
0.815	1.48e-05
0.823	1.31e-05
0.831	1.16e-05
0.841	1e-05
0.85	8.68e-06
0.86	7.52e-06
0.869	6.5e-06
0.879	5.63e-06
0.893	4.56e-06
0.907	3.69e-06
0.921	2.99e-06
0.935	2.42e-06
0.949	1.96e-06
0.965	1.54e-06
0.981	1.22e-06
0.997	9.59e-07
1	9.18e-07
