0	1
3.48e-07	1
1.31e-06	1
3.67e-06	1
7.32e-06	1
1.19e-05	1
1.73e-05	1
2.45e-05	1
3.39e-05	0.999
4.55e-05	0.999
5.97e-05	0.999
7.78e-05	0.998
0.000101	0.998
0.000132	0.997
0.000173	0.997
0.000225	0.996
0.000291	0.995
0.000373	0.993
0.000476	0.991
0.000611	0.989
0.000783	0.986
0.000998	0.982
0.00127	0.978
0.0016	0.972
0.00201	0.966
0.00253	0.958
0.00316	0.948
0.0039	0.938
0.00479	0.925
0.00587	0.91
0.00721	0.893
0.00889	0.872
0.0108	0.849
0.0132	0.822
0.016	0.793
0.0193	0.759
0.0233	0.723
0.0282	0.681
0.0331	0.644
0.0348	0.632
0.0368	0.617
0.0408	0.591
0.0469	0.553
0.0548	0.51
0.0643	0.465
0.0672	0.452
0.0681	0.448
0.0701	0.44
0.0742	0.424
0.0808	0.399
0.0898	0.369
0.0992	0.341
0.1	0.338
0.101	0.335
0.103	0.33
0.106	0.322
0.111	0.309
0.119	0.291
0.129	0.268
0.133	0.26
0.134	0.259
0.135	0.257
0.136	0.254
0.139	0.248
0.144	0.24
0.15	0.229
0.159	0.215
0.167	0.204
0.167	0.203
0.167	0.202
0.169	0.2
0.171	0.196
0.176	0.188
0.183	0.179
0.195	0.166
0.201	0.159
0.203	0.156
0.209	0.149
0.221	0.136
0.233	0.126
0.234	0.125
0.234	0.125
0.236	0.123
0.239	0.12
0.246	0.114
0.253	0.108
0.265	0.0991
0.267	0.0981
0.267	0.0977
0.268	0.097
0.271	0.0953
0.274	0.0929
0.282	0.0882
0.29	0.0828
0.3	0.0767
0.3	0.0765
0.301	0.0761
0.303	0.0753
0.306	0.0736
0.311	0.0713
0.319	0.0668
0.33	0.0614
0.334	0.0596
0.334	0.0594
0.336	0.0588
0.338	0.0578
0.344	0.0556
0.351	0.0526
0.365	0.0472
0.367	0.0464
0.368	0.0461
0.37	0.0454
0.375	0.044
0.382	0.0417
0.396	0.0372
0.401	0.0359
0.403	0.0355
0.407	0.0345
0.416	0.0322
0.43	0.0289
0.435	0.0277
0.438	0.0272
0.449	0.0251
0.465	0.022
0.473	0.0208
0.482	0.0195
0.501	0.0168
0.509	0.0158
0.527	0.0137
0.545	0.0119
0.567	0.01
0.576	0.00939
0.593	0.0082
0.603	0.00757
0.61	0.00715
0.625	0.00635
0.638	0.00574
0.645	0.00539
0.667	0.00453
0.675	0.00425
0.693	0.00366
0.714	0.00305
0.736	0.00253
0.747	0.00232
0.768	0.00193
0.779	0.00175
0.807	0.00137
0.85	0.00093
0.921	0.000487
1	0.000235
