x	y	z	c
0	0	-1.68e-16	-1.68e-16
0	0.05	0.00383	0.00383
0	0.1	0.0295	0.0295
0	0.15	0.0936	0.0936
0	0.2	0.203	0.203
0	0.25	0.354	0.354
0	0.3	0.53	0.53
0	0.35	0.707	0.707
0	0.4	0.86	0.86
0	0.45	0.964	0.964
0	0.5	1	1
0	0.55	0.964	0.964
0	0.6	0.86	0.86
0	0.65	0.707	0.707
0	0.7	0.53	0.53
0	0.75	0.354	0.354
0	0.8	0.203	0.203
0	0.85	0.0936	0.0936
0	0.9	0.0295	0.0295
0	0.95	0.00383	0.00383
0	1	1.68e-16	1.68e-16
0.0333	0	0.455	0.455
0.0333	0.05	0.461	0.461
0.0333	0.1	0.477	0.477
0.0333	0.15	0.5	0.5
0.0333	0.2	0.53	0.53
0.0333	0.25	0.562	0.562
0.0333	0.3	0.593	0.593
0.0333	0.35	0.621	0.621
0.0333	0.4	0.642	0.642
0.0333	0.45	0.656	0.656
0.0333	0.5	0.66	0.66
0.0333	0.55	0.655	0.655
0.0333	0.6	0.642	0.642
0.0333	0.65	0.623	0.623
0.0333	0.7	0.602	0.602
0.0333	0.75	0.58	0.58
0.0333	0.8	0.561	0.561
0.0333	0.85	0.545	0.545
0.0333	0.9	0.534	0.534
0.0333	0.95	0.526	0.526
0.0333	1	0.521	0.521
0.0667	0	0.673	0.673
0.0667	0.05	0.674	0.674
0.0667	0.1	0.679	0.679
0.0667	0.15	0.686	0.686
0.0667	0.2	0.694	0.694
0.0667	0.25	0.701	0.701
0.0667	0.3	0.707	0.707
0.0667	0.35	0.711	0.711
0.0667	0.4	0.712	0.712
0.0667	0.45	0.711	0.711
0.0667	0.5	0.708	0.708
0.0667	0.55	0.703	0.703
0.0667	0.6	0.697	0.697
0.0667	0.65	0.692	0.692
0.0667	0.7	0.688	0.688
0.0667	0.75	0.684	0.684
0.0667	0.8	0.682	0.682
0.0667	0.85	0.68	0.68
0.0667	0.9	0.677	0.677
0.0667	0.95	0.673	0.673
0.0667	1	0.666	0.666
0.1	0	0.841	0.841
0.1	0.05	0.842	0.842
0.1	0.1	0.845	0.845
0.1	0.15	0.848	0.848
0.1	0.2	0.85	0.85
0.1	0.25	0.851	0.851
0.1	0.3	0.85	0.85
0.1	0.35	0.846	0.846
0.1	0.4	0.84	0.84
0.1	0.45	0.832	0.832
0.1	0.5	0.824	0.824
0.1	0.55	0.814	0.814
0.1	0.6	0.806	0.806
0.1	0.65	0.799	0.799
0.1	0.7	0.793	0.793
0.1	0.75	0.789	0.789
0.1	0.8	0.786	0.786
0.1	0.85	0.783	0.783
0.1	0.9	0.778	0.778
0.1	0.95	0.77	0.77
0.1	1	0.758	0.758
0.133	0	1.01	1.01
0.133	0.05	1.01	1.01
0.133	0.1	1.01	1.01
0.133	0.15	1.02	1.02
0.133	0.2	1.02	1.02
0.133	0.25	1.01	1.01
0.133	0.3	1.01	1.01
0.133	0.35	1	1
0.133	0.4	0.993	0.993
0.133	0.45	0.981	0.981
0.133	0.5	0.967	0.967
0.133	0.55	0.954	0.954
0.133	0.6	0.941	0.941
0.133	0.65	0.929	0.929
0.133	0.7	0.92	0.92
0.133	0.75	0.912	0.912
0.133	0.8	0.904	0.904
0.133	0.85	0.896	0.896
0.133	0.9	0.886	0.886
0.133	0.95	0.873	0.873
0.133	1	0.855	0.855
0.167	0	1.19	1.19
0.167	0.05	1.19	1.19
0.167	0.1	1.2	1.2
0.167	0.15	1.2	1.2
0.167	0.2	1.2	1.2
0.167	0.25	1.2	1.2
0.167	0.3	1.19	1.19
0.167	0.35	1.18	1.18
0.167	0.4	1.17	1.17
0.167	0.45	1.15	1.15
0.167	0.5	1.14	1.14
0.167	0.55	1.12	1.12
0.167	0.6	1.1	1.1
0.167	0.65	1.08	1.08
0.167	0.7	1.07	1.07
0.167	0.75	1.06	1.06
0.167	0.8	1.04	1.04
0.167	0.85	1.03	1.03
0.167	0.9	1.01	1.01
0.167	0.95	0.992	0.992
0.167	1	0.968	0.968
0.2	0	1.39	1.39
0.2	0.05	1.39	1.39
0.2	0.1	1.39	1.39
0.2	0.15	1.4	1.4
0.2	0.2	1.4	1.4
0.2	0.25	1.4	1.4
0.2	0.3	1.39	1.39
0.2	0.35	1.38	1.38
0.2	0.4	1.37	1.37
0.2	0.45	1.35	1.35
0.2	0.5	1.33	1.33
0.2	0.55	1.31	1.31
0.2	0.6	1.29	1.29
0.2	0.65	1.27	1.27
0.2	0.7	1.25	1.25
0.2	0.75	1.23	1.23
0.2	0.8	1.21	1.21
0.2	0.85	1.18	1.18
0.2	0.9	1.16	1.16
0.2	0.95	1.13	1.13
0.2	1	1.1	1.1
0.233	0	1.6	1.6
0.233	0.05	1.61	1.61
0.233	0.1	1.61	1.61
0.233	0.15	1.61	1.61
0.233	0.2	1.61	1.61
0.233	0.25	1.61	1.61
0.233	0.3	1.61	1.61
0.233	0.35	1.6	1.6
0.233	0.4	1.59	1.59
0.233	0.45	1.57	1.57
0.233	0.5	1.55	1.55
0.233	0.55	1.53	1.53
0.233	0.6	1.5	1.5
0.233	0.65	1.48	1.48
0.233	0.7	1.45	1.45
0.233	0.75	1.42	1.42
0.233	0.8	1.39	1.39
0.233	0.85	1.36	1.36
0.233	0.9	1.33	1.33
0.233	0.95	1.29	1.29
0.233	1	1.25	1.25
0.267	0	1.82	1.82
0.267	0.05	1.83	1.83
0.267	0.1	1.83	1.83
0.267	0.15	1.84	1.84
0.267	0.2	1.84	1.84
0.267	0.25	1.84	1.84
0.267	0.3	1.84	1.84
0.267	0.35	1.84	1.84
0.267	0.4	1.83	1.83
0.267	0.45	1.81	1.81
0.267	0.5	1.79	1.79
0.267	0.55	1.76	1.76
0.267	0.6	1.74	1.74
0.267	0.65	1.71	1.71
0.267	0.7	1.67	1.67
0.267	0.75	1.64	1.64
0.267	0.8	1.6	1.6
0.267	0.85	1.56	1.56
0.267	0.9	1.52	1.52
0.267	0.95	1.47	1.47
0.267	1	1.42	1.42
0.3	0	2.03	2.03
0.3	0.05	2.04	2.04
0.3	0.1	2.05	2.05
0.3	0.15	2.06	2.06
0.3	0.2	2.06	2.06
0.3	0.25	2.07	2.07
0.3	0.3	2.07	2.07
0.3	0.35	2.07	2.07
0.3	0.4	2.06	2.06
0.3	0.45	2.05	2.05
0.3	0.5	2.03	2.03
0.3	0.55	2.01	2.01
0.3	0.6	1.98	1.98
0.3	0.65	1.95	1.95
0.3	0.7	1.91	1.91
0.3	0.75	1.87	1.87
0.3	0.8	1.82	1.82
0.3	0.85	1.77	1.77
0.3	0.9	1.71	1.71
0.3	0.95	1.65	1.65
0.3	1	1.59	1.59
0.333	0	2.21	2.21
0.333	0.05	2.22	2.22
0.333	0.1	2.23	2.23
0.333	0.15	2.25	2.25
0.333	0.2	2.26	2.26
0.333	0.25	2.27	2.27
0.333	0.3	2.28	2.28
0.333	0.35	2.29	2.29
0.333	0.4	2.29	2.29
0.333	0.45	2.28	2.28
0.333	0.5	2.26	2.26
0.333	0.55	2.24	2.24
0.333	0.6	2.22	2.22
0.333	0.65	2.18	2.18
0.333	0.7	2.14	2.14
0.333	0.75	2.09	2.09
0.333	0.8	2.03	2.03
0.333	0.85	1.97	1.97
0.333	0.9	1.9	1.9
0.333	0.95	1.83	1.83
0.333	1	1.75	1.75
0.367	0	2.33	2.33
0.367	0.05	2.35	2.35
0.367	0.1	2.36	2.36
0.367	0.15	2.39	2.39
0.367	0.2	2.41	2.41
0.367	0.25	2.43	2.43
0.367	0.3	2.44	2.44
0.367	0.35	2.46	2.46
0.367	0.4	2.46	2.46
0.367	0.45	2.46	2.46
0.367	0.5	2.46	2.46
0.367	0.55	2.44	2.44
0.367	0.6	2.42	2.42
0.367	0.65	2.38	2.38
0.367	0.7	2.33	2.33
0.367	0.75	2.28	2.28
0.367	0.8	2.21	2.21
0.367	0.85	2.14	2.14
0.367	0.9	2.06	2.06
0.367	0.95	1.98	1.98
0.367	1	1.89	1.89
0.4	0	2.38	2.38
0.4	0.05	2.4	2.4
0.4	0.1	2.43	2.43
0.4	0.15	2.46	2.46
0.4	0.2	2.49	2.49
0.4	0.25	2.51	2.51
0.4	0.3	2.54	2.54
0.4	0.35	2.56	2.56
0.4	0.4	2.58	2.58
0.4	0.45	2.59	2.59
0.4	0.5	2.59	2.59
0.4	0.55	2.58	2.58
0.4	0.6	2.56	2.56
0.4	0.65	2.53	2.53
0.4	0.7	2.48	2.48
0.4	0.75	2.42	2.42
0.4	0.8	2.35	2.35
0.4	0.85	2.27	2.27
0.4	0.9	2.18	2.18
0.4	0.95	2.09	2.09
0.4	1	2	2
0.433	0	2.36	2.36
0.433	0.05	2.39	2.39
0.433	0.1	2.43	2.43
0.433	0.15	2.46	2.46
0.433	0.2	2.5	2.5
0.433	0.25	2.54	2.54
0.433	0.3	2.57	2.57
0.433	0.35	2.6	2.6
0.433	0.4	2.63	2.63
0.433	0.45	2.65	2.65
0.433	0.5	2.66	2.66
0.433	0.55	2.66	2.66
0.433	0.6	2.65	2.65
0.433	0.65	2.62	2.62
0.433	0.7	2.57	2.57
0.433	0.75	2.51	2.51
0.433	0.8	2.43	2.43
0.433	0.85	2.35	2.35
0.433	0.9	2.26	2.26
0.433	0.95	2.16	2.16
0.433	1	2.06	2.06
0.467	0	2.28	2.28
0.467	0.05	2.32	2.32
0.467	0.1	2.37	2.37
0.467	0.15	2.41	2.41
0.467	0.2	2.46	2.46
0.467	0.25	2.5	2.5
0.467	0.3	2.55	2.55
0.467	0.35	2.59	2.59
0.467	0.4	2.62	2.62
0.467	0.45	2.65	2.65
0.467	0.5	2.67	2.67
0.467	0.55	2.68	2.68
0.467	0.6	2.67	2.67
0.467	0.65	2.65	2.65
0.467	0.7	2.6	2.6
0.467	0.75	2.54	2.54
0.467	0.8	2.47	2.47
0.467	0.85	2.38	2.38
0.467	0.9	2.29	2.29
0.467	0.95	2.19	2.19
0.467	1	2.09	2.09
0.5	0	2.17	2.17
0.5	0.05	2.22	2.22
0.5	0.1	2.28	2.28
0.5	0.15	2.33	2.33
0.5	0.2	2.38	2.38
0.5	0.25	2.43	2.43
0.5	0.3	2.48	2.48
0.5	0.35	2.53	2.53
0.5	0.4	2.57	2.57
0.5	0.45	2.61	2.61
0.5	0.5	2.64	2.64
0.5	0.55	2.65	2.65
0.5	0.6	2.65	2.65
0.5	0.65	2.63	2.63
0.5	0.7	2.59	2.59
0.5	0.75	2.53	2.53
0.5	0.8	2.46	2.46
0.5	0.85	2.38	2.38
0.5	0.9	2.28	2.28
0.5	0.95	2.18	2.18
0.5	1	2.08	2.08
0.533	0	2.06	2.06
0.533	0.05	2.12	2.12
0.533	0.1	2.18	2.18
0.533	0.15	2.24	2.24
0.533	0.2	2.29	2.29
0.533	0.25	2.35	2.35
0.533	0.3	2.41	2.41
0.533	0.35	2.46	2.46
0.533	0.4	2.51	2.51
0.533	0.45	2.55	2.55
0.533	0.5	2.59	2.59
0.533	0.55	2.6	2.6
0.533	0.6	2.61	2.61
0.533	0.65	2.59	2.59
0.533	0.7	2.56	2.56
0.533	0.75	2.5	2.5
0.533	0.8	2.43	2.43
0.533	0.85	2.35	2.35
0.533	0.9	2.26	2.26
0.533	0.95	2.16	2.16
0.533	1	2.06	2.06
0.567	0	1.96	1.96
0.567	0.05	2.03	2.03
0.567	0.1	2.09	2.09
0.567	0.15	2.15	2.15
0.567	0.2	2.22	2.22
0.567	0.25	2.28	2.28
0.567	0.3	2.34	2.34
0.567	0.35	2.4	2.4
0.567	0.4	2.45	2.45
0.567	0.45	2.5	2.5
0.567	0.5	2.53	2.53
0.567	0.55	2.56	2.56
0.567	0.6	2.56	2.56
0.567	0.65	2.55	2.55
0.567	0.7	2.52	2.52
0.567	0.75	2.47	2.47
0.567	0.8	2.4	2.4
0.567	0.85	2.32	2.32
0.567	0.9	2.23	2.23
0.567	0.95	2.14	2.14
0.567	1	2.04	2.04
0.6	0	1.89	1.89
0.6	0.05	1.97	1.97
0.6	0.1	2.04	2.04
0.6	0.15	2.1	2.1
0.6	0.2	2.17	2.17
0.6	0.25	2.24	2.24
0.6	0.3	2.3	2.3
0.6	0.35	2.36	2.36
0.6	0.4	2.42	2.42
0.6	0.45	2.47	2.47
0.6	0.5	2.51	2.51
0.6	0.55	2.53	2.53
0.6	0.6	2.54	2.54
0.6	0.65	2.53	2.53
0.6	0.7	2.5	2.5
0.6	0.75	2.45	2.45
0.6	0.8	2.39	2.39
0.6	0.85	2.31	2.31
0.6	0.9	2.23	2.23
0.6	0.95	2.14	2.14
0.6	1	2.04	2.04
0.633	0	1.87	1.87
0.633	0.05	1.95	1.95
0.633	0.1	2.02	2.02
0.633	0.15	2.1	2.1
0.633	0.2	2.17	2.17
0.633	0.25	2.23	2.23
0.633	0.3	2.3	2.3
0.633	0.35	2.36	2.36
0.633	0.4	2.42	2.42
0.633	0.45	2.47	2.47
0.633	0.5	2.51	2.51
0.633	0.55	2.54	2.54
0.633	0.6	2.55	2.55
0.633	0.65	2.54	2.54
0.633	0.7	2.51	2.51
0.633	0.75	2.47	2.47
0.633	0.8	2.41	2.41
0.633	0.85	2.33	2.33
0.633	0.9	2.25	2.25
0.633	0.95	2.16	2.16
0.633	1	2.07	2.07
0.667	0	1.89	1.89
0.667	0.05	1.98	1.98
0.667	0.1	2.06	2.06
0.667	0.15	2.14	2.14
0.667	0.2	2.21	2.21
0.667	0.25	2.28	2.28
0.667	0.3	2.35	2.35
0.667	0.35	2.42	2.42
0.667	0.4	2.48	2.48
0.667	0.45	2.53	2.53
0.667	0.5	2.57	2.57
0.667	0.55	2.6	2.6
0.667	0.6	2.6	2.6
0.667	0.65	2.6	2.6
0.667	0.7	2.57	2.57
0.667	0.75	2.53	2.53
0.667	0.8	2.47	2.47
0.667	0.85	2.4	2.4
0.667	0.9	2.32	2.32
0.667	0.95	2.23	2.23
0.667	1	2.14	2.14
0.7	0	1.97	1.97
0.7	0.05	2.06	2.06
0.7	0.1	2.15	2.15
0.7	0.15	2.23	2.23
0.7	0.2	2.31	2.31
0.7	0.25	2.38	2.38
0.7	0.3	2.45	2.45
0.7	0.35	2.52	2.52
0.7	0.4	2.58	2.58
0.7	0.45	2.63	2.63
0.7	0.5	2.67	2.67
0.7	0.55	2.7	2.7
0.7	0.6	2.71	2.71
0.7	0.65	2.7	2.7
0.7	0.7	2.67	2.67
0.7	0.75	2.63	2.63
0.7	0.8	2.57	2.57
0.7	0.85	2.5	2.5
0.7	0.9	2.42	2.42
0.7	0.95	2.34	2.34
0.7	1	2.25	2.25
0.733	0	2.09	2.09
0.733	0.05	2.19	2.19
0.733	0.1	2.28	2.28
0.733	0.15	2.37	2.37
0.733	0.2	2.45	2.45
0.733	0.25	2.53	2.53
0.733	0.3	2.61	2.61
0.733	0.35	2.67	2.67
0.733	0.4	2.73	2.73
0.733	0.45	2.78	2.78
0.733	0.5	2.82	2.82
0.733	0.55	2.85	2.85
0.733	0.6	2.85	2.85
0.733	0.65	2.84	2.84
0.733	0.7	2.82	2.82
0.733	0.75	2.78	2.78
0.733	0.8	2.72	2.72
0.733	0.85	2.65	2.65
0.733	0.9	2.58	2.58
0.733	0.95	2.49	2.49
0.733	1	2.4	2.4
0.767	0	2.25	2.25
0.767	0.05	2.36	2.36
0.767	0.1	2.46	2.46
0.767	0.15	2.56	2.56
0.767	0.2	2.65	2.65
0.767	0.25	2.73	2.73
0.767	0.3	2.8	2.8
0.767	0.35	2.87	2.87
0.767	0.4	2.93	2.93
0.767	0.45	2.98	2.98
0.767	0.5	3.01	3.01
0.767	0.55	3.03	3.03
0.767	0.6	3.04	3.04
0.767	0.65	3.03	3.03
0.767	0.7	3	3
0.767	0.75	2.96	2.96
0.767	0.8	2.91	2.91
0.767	0.85	2.85	2.85
0.767	0.9	2.77	2.77
0.767	0.95	2.69	2.69
0.767	1	2.6	2.6
0.8	0	2.45	2.45
0.8	0.05	2.57	2.57
0.8	0.1	2.68	2.68
0.8	0.15	2.78	2.78
0.8	0.2	2.87	2.87
0.8	0.25	2.96	2.96
0.8	0.3	3.03	3.03
0.8	0.35	3.1	3.1
0.8	0.4	3.16	3.16
0.8	0.45	3.2	3.2
0.8	0.5	3.23	3.23
0.8	0.55	3.25	3.25
0.8	0.6	3.26	3.26
0.8	0.65	3.25	3.25
0.8	0.7	3.22	3.22
0.8	0.75	3.18	3.18
0.8	0.8	3.13	3.13
0.8	0.85	3.07	3.07
0.8	0.9	3	3
0.8	0.95	2.92	2.92
0.8	1	2.83	2.83
0.833	0	2.67	2.67
0.833	0.05	2.8	2.8
0.833	0.1	2.91	2.91
0.833	0.15	3.02	3.02
0.833	0.2	3.12	3.12
0.833	0.25	3.21	3.21
0.833	0.3	3.29	3.29
0.833	0.35	3.35	3.35
0.833	0.4	3.41	3.41
0.833	0.45	3.45	3.45
0.833	0.5	3.48	3.48
0.833	0.55	3.49	3.49
0.833	0.6	3.5	3.5
0.833	0.65	3.49	3.49
0.833	0.7	3.46	3.46
0.833	0.75	3.43	3.43
0.833	0.8	3.38	3.38
0.833	0.85	3.32	3.32
0.833	0.9	3.25	3.25
0.833	0.95	3.18	3.18
0.833	1	3.1	3.1
0.867	0	2.9	2.9
0.867	0.05	3.04	3.04
0.867	0.1	3.17	3.17
0.867	0.15	3.28	3.28
0.867	0.2	3.39	3.39
0.867	0.25	3.48	3.48
0.867	0.3	3.56	3.56
0.867	0.35	3.62	3.62
0.867	0.4	3.68	3.68
0.867	0.45	3.72	3.72
0.867	0.5	3.74	3.74
0.867	0.55	3.75	3.75
0.867	0.6	3.75	3.75
0.867	0.65	3.74	3.74
0.867	0.7	3.72	3.72
0.867	0.75	3.69	3.69
0.867	0.8	3.65	3.65
0.867	0.85	3.6	3.6
0.867	0.9	3.54	3.54
0.867	0.95	3.47	3.47
0.867	1	3.4	3.4
0.9	0	3.14	3.14
0.9	0.05	3.29	3.29
0.9	0.1	3.43	3.43
0.9	0.15	3.56	3.56
0.9	0.2	3.67	3.67
0.9	0.25	3.76	3.76
0.9	0.3	3.85	3.85
0.9	0.35	3.91	3.91
0.9	0.4	3.96	3.96
0.9	0.45	4	4
0.9	0.5	4.02	4.02
0.9	0.55	4.03	4.03
0.9	0.6	4.04	4.04
0.9	0.65	4.03	4.03
0.9	0.7	4.01	4.01
0.9	0.75	3.98	3.98
0.9	0.8	3.95	3.95
0.9	0.85	3.91	3.91
0.9	0.9	3.86	3.86
0.9	0.95	3.8	3.8
0.9	1	3.74	3.74
0.933	0	3.39	3.39
0.933	0.05	3.55	3.55
0.933	0.1	3.7	3.7
0.933	0.15	3.84	3.84
0.933	0.2	3.96	3.96
0.933	0.25	4.06	4.06
0.933	0.3	4.15	4.15
0.933	0.35	4.22	4.22
0.933	0.4	4.27	4.27
0.933	0.45	4.31	4.31
0.933	0.5	4.33	4.33
0.933	0.55	4.34	4.34
0.933	0.6	4.35	4.35
0.933	0.65	4.34	4.34
0.933	0.7	4.33	4.33
0.933	0.75	4.31	4.31
0.933	0.8	4.29	4.29
0.933	0.85	4.26	4.26
0.933	0.9	4.22	4.22
0.933	0.95	4.18	4.18
0.933	1	4.13	4.13
0.967	0	3.64	3.64
0.967	0.05	3.82	3.82
0.967	0.1	3.98	3.98
0.967	0.15	4.13	4.13
0.967	0.2	4.26	4.26
0.967	0.25	4.37	4.37
0.967	0.3	4.46	4.46
0.967	0.35	4.54	4.54
0.967	0.4	4.6	4.6
0.967	0.45	4.64	4.64
0.967	0.5	4.67	4.67
0.967	0.55	4.69	4.69
0.967	0.6	4.7	4.7
0.967	0.65	4.7	4.7
0.967	0.7	4.69	4.69
0.967	0.75	4.69	4.69
0.967	0.8	4.68	4.68
0.967	0.85	4.66	4.66
0.967	0.9	4.65	4.65
0.967	0.95	4.62	4.62
0.967	1	4.6	4.6
1	0	3.9	3.9
1	0.05	4.09	4.09
1	0.1	4.27	4.27
1	0.15	4.43	4.43
1	0.2	4.57	4.57
1	0.25	4.7	4.7
1	0.3	4.8	4.8
1	0.35	4.89	4.89
1	0.4	4.96	4.96
1	0.45	5.01	5.01
1	0.5	5.05	5.05
1	0.55	5.08	5.08
1	0.6	5.1	5.1
1	0.65	5.11	5.11
1	0.7	5.12	5.12
1	0.75	5.13	5.13
1	0.8	5.14	5.14
1	0.85	5.15	5.15
1	0.9	5.15	5.15
1	0.95	5.16	5.16
1	1	5.16	5.16
