x	y	z	c
0	0	0.523	0.523
0.0333	0	0.82	0.82
0.0667	0	1.11	1.11
0.1	0	1.32	1.32
0.133	0	1.51	1.51
0.167	0	1.55	1.55
0.2	0	1.44	1.44
0.233	0	1.11	1.11
0.267	0	0.645	0.645
0.3	0	0.141	0.141
0.333	0	-0.272	-0.272
0.367	0	-0.527	-0.527
0.4	0	-0.623	-0.623
0.433	0	-0.613	-0.613
0.467	0	-0.566	-0.566
0.5	0	-0.536	-0.536
0.533	0	-0.548	-0.548
0.567	0	-0.603	-0.603
0.6	0	-0.681	-0.681
0.633	0	-0.752	-0.752
0.667	0	-0.789	-0.789
0.7	0	-0.778	-0.778
0.733	0	-0.732	-0.732
0.767	0	-0.685	-0.685
0.8	0	-0.669	-0.669
0.833	0	-0.689	-0.689
0.867	0	-0.73	-0.73
0.9	0	-0.771	-0.771
0.933	0	-0.806	-0.806
0.967	0	-0.868	-0.868
1	0	-0.935	-0.935
0	0.05	0.643	0.643
0.0333	0.05	0.93	0.93
0.0667	0.05	1.2	1.2
0.1	0.05	1.39	1.39
0.133	0.05	1.56	1.56
0.167	0.05	1.57	1.57
0.2	0.05	1.42	1.42
0.233	0.05	1.03	1.03
0.267	0.05	0.499	0.499
0.3	0.05	-0.0786	-0.0786
0.333	0.05	-0.557	-0.557
0.367	0.05	-0.853	-0.853
0.4	0.05	-0.961	-0.961
0.433	0.05	-0.936	-0.936
0.467	0.05	-0.855	-0.855
0.5	0.05	-0.785	-0.785
0.533	0.05	-0.761	-0.761
0.567	0.05	-0.791	-0.791
0.6	0.05	-0.855	-0.855
0.633	0.05	-0.921	-0.921
0.667	0.05	-0.953	-0.953
0.7	0.05	-0.929	-0.929
0.733	0.05	-0.857	-0.857
0.767	0.05	-0.775	-0.775
0.8	0.05	-0.722	-0.722
0.833	0.05	-0.713	-0.713
0.867	0.05	-0.737	-0.737
0.9	0.05	-0.771	-0.771
0.933	0.05	-0.808	-0.808
0.967	0.05	-0.892	-0.892
1	0.05	-0.996	-0.996
0	0.1	0.871	0.871
0.0333	0.1	1.18	1.18
0.0667	0.1	1.46	1.46
0.1	0.1	1.64	1.64
0.133	0.1	1.8	1.8
0.167	0.1	1.77	1.77
0.2	0.1	1.57	1.57
0.233	0.1	1.11	1.11
0.267	0.1	0.463	0.463
0.3	0.1	-0.246	-0.246
0.333	0.1	-0.853	-0.853
0.367	0.1	-1.25	-1.25
0.4	0.1	-1.43	-1.43
0.433	0.1	-1.43	-1.43
0.467	0.1	-1.34	-1.34
0.5	0.1	-1.25	-1.25
0.533	0.1	-1.21	-1.21
0.567	0.1	-1.22	-1.22
0.6	0.1	-1.28	-1.28
0.633	0.1	-1.35	-1.35
0.667	0.1	-1.38	-1.38
0.7	0.1	-1.34	-1.34
0.733	0.1	-1.24	-1.24
0.767	0.1	-1.09	-1.09
0.8	0.1	-0.966	-0.966
0.833	0.1	-0.887	-0.887
0.867	0.1	-0.851	-0.851
0.9	0.1	-0.836	-0.836
0.933	0.1	-0.835	-0.835
0.967	0.1	-0.906	-0.906
1	0.1	-1.02	-1.02
0	0.15	1.25	1.25
0.0333	0.15	1.61	1.61
0.0667	0.15	1.94	1.94
0.1	0.15	2.14	2.14
0.133	0.15	2.29	2.29
0.167	0.15	2.24	2.24
0.2	0.15	1.97	1.97
0.233	0.15	1.41	1.41
0.267	0.15	0.608	0.608
0.3	0.15	-0.294	-0.294
0.333	0.15	-1.1	-1.1
0.367	0.15	-1.69	-1.69
0.4	0.15	-2.01	-2.01
0.433	0.15	-2.1	-2.1
0.467	0.15	-2.06	-2.06
0.5	0.15	-1.98	-1.98
0.533	0.15	-1.94	-1.94
0.567	0.15	-1.95	-1.95
0.6	0.15	-2.01	-2.01
0.633	0.15	-2.09	-2.09
0.667	0.15	-2.12	-2.12
0.7	0.15	-2.06	-2.06
0.733	0.15	-1.89	-1.89
0.767	0.15	-1.66	-1.66
0.8	0.15	-1.43	-1.43
0.833	0.15	-1.23	-1.23
0.867	0.15	-1.09	-1.09
0.9	0.15	-0.985	-0.985
0.933	0.15	-0.904	-0.904
0.967	0.15	-0.925	-0.925
1	0.15	-1.02	-1.02
0	0.2	1.65	1.65
0.0333	0.2	2.14	2.14
0.0667	0.2	2.57	2.57
0.1	0.2	2.83	2.83
0.133	0.2	3.03	3.03
0.167	0.2	2.98	2.98
0.2	0.2	2.68	2.68
0.233	0.2	2.02	2.02
0.267	0.2	1.05	1.05
0.3	0.2	-0.0771	-0.0771
0.333	0.2	-1.16	-1.16
0.367	0.2	-2.01	-2.01
0.4	0.2	-2.56	-2.56
0.433	0.2	-2.83	-2.83
0.467	0.2	-2.92	-2.92
0.5	0.2	-2.93	-2.93
0.533	0.2	-2.94	-2.94
0.567	0.2	-3	-3
0.6	0.2	-3.11	-3.11
0.633	0.2	-3.23	-3.23
0.667	0.2	-3.29	-3.29
0.7	0.2	-3.23	-3.23
0.733	0.2	-3.02	-3.02
0.767	0.2	-2.69	-2.69
0.8	0.2	-2.32	-2.32
0.833	0.2	-1.97	-1.97
0.867	0.2	-1.67	-1.67
0.9	0.2	-1.4	-1.4
0.933	0.2	-1.17	-1.17
0.967	0.2	-1.07	-1.07
1	0.2	-1.08	-1.08
0	0.25	1.88	1.88
0.0333	0.25	2.56	2.56
0.0667	0.25	3.17	3.17
0.1	0.25	3.57	3.57
0.133	0.25	3.88	3.88
0.167	0.25	3.92	3.92
0.2	0.25	3.67	3.67
0.233	0.25	2.99	2.99
0.267	0.25	1.93	1.93
0.3	0.25	0.603	0.603
0.333	0.25	-0.749	-0.749
0.367	0.25	-1.92	-1.92
0.4	0.25	-2.8	-2.8
0.433	0.25	-3.36	-3.36
0.467	0.25	-3.69	-3.69
0.5	0.25	-3.89	-3.89
0.533	0.25	-4.06	-4.06
0.567	0.25	-4.26	-4.26
0.6	0.25	-4.49	-4.49
0.633	0.25	-4.73	-4.73
0.667	0.25	-4.9	-4.9
0.7	0.25	-4.92	-4.92
0.733	0.25	-4.72	-4.72
0.767	0.25	-4.33	-4.33
0.8	0.25	-3.84	-3.84
0.833	0.25	-3.32	-3.32
0.867	0.25	-2.82	-2.82
0.9	0.25	-2.34	-2.34
0.933	0.25	-1.88	-1.88
0.967	0.25	-1.57	-1.57
1	0.25	-1.41	-1.41
0	0.3	1.76	1.76
0.0333	0.3	2.62	2.62
0.0667	0.3	3.42	3.42
0.1	0.3	4	4
0.133	0.3	4.47	4.47
0.167	0.3	4.65	4.65
0.2	0.3	4.53	4.53
0.233	0.3	3.95	3.95
0.267	0.3	2.92	2.92
0.3	0.3	1.55	1.55
0.333	0.3	0.0437	0.0437
0.367	0.3	-1.37	-1.37
0.4	0.3	-2.53	-2.53
0.433	0.3	-3.41	-3.41
0.467	0.3	-4.03	-4.03
0.5	0.3	-4.48	-4.48
0.533	0.3	-4.87	-4.87
0.567	0.3	-5.26	-5.26
0.6	0.3	-5.66	-5.66
0.633	0.3	-6.07	-6.07
0.667	0.3	-6.39	-6.39
0.7	0.3	-6.53	-6.53
0.733	0.3	-6.41	-6.41
0.767	0.3	-6.04	-6.04
0.8	0.3	-5.49	-5.49
0.833	0.3	-4.85	-4.85
0.867	0.3	-4.2	-4.2
0.9	0.3	-3.54	-3.54
0.933	0.3	-2.87	-2.87
0.967	0.3	-2.33	-2.33
1	0.3	-1.97	-1.97
0	0.35	1.09	1.09
0.0333	0.35	2.03	2.03
0.0667	0.35	2.96	2.96
0.1	0.35	3.68	3.68
0.133	0.35	4.3	4.3
0.167	0.35	4.67	4.67
0.2	0.35	4.75	4.75
0.233	0.35	4.41	4.41
0.267	0.35	3.62	3.62
0.3	0.35	2.45	2.45
0.333	0.35	1.05	1.05
0.367	0.35	-0.368	-0.368
0.4	0.35	-1.65	-1.65
0.433	0.35	-2.71	-2.71
0.467	0.35	-3.57	-3.57
0.5	0.35	-4.26	-4.26
0.533	0.35	-4.88	-4.88
0.567	0.35	-5.48	-5.48
0.6	0.35	-6.08	-6.08
0.633	0.35	-6.67	-6.67
0.667	0.35	-7.18	-7.18
0.7	0.35	-7.5	-7.5
0.733	0.35	-7.55	-7.55
0.767	0.35	-7.32	-7.32
0.8	0.35	-6.87	-6.87
0.833	0.35	-6.27	-6.27
0.867	0.35	-5.59	-5.59
0.9	0.35	-4.87	-4.87
0.933	0.35	-4.1	-4.1
0.967	0.35	-3.41	-3.41
1	0.35	-2.87	-2.87
0	0.4	0.188	0.188
0.0333	0.4	1.07	1.07
0.0667	0.4	1.98	1.98
0.1	0.4	2.73	2.73
0.133	0.4	3.42	3.42
0.167	0.4	3.91	3.91
0.2	0.4	4.17	4.17
0.233	0.4	4.11	4.11
0.267	0.4	3.66	3.66
0.3	0.4	2.84	2.84
0.333	0.4	1.76	1.76
0.367	0.4	0.576	0.576
0.4	0.4	-0.589	-0.589
0.433	0.4	-1.65	-1.65
0.467	0.4	-2.57	-2.57
0.5	0.4	-3.38	-3.38
0.533	0.4	-4.12	-4.12
0.567	0.4	-4.85	-4.85
0.6	0.4	-5.57	-5.57
0.633	0.4	-6.28	-6.28
0.667	0.4	-6.91	-6.91
0.7	0.4	-7.39	-7.39
0.733	0.4	-7.62	-7.62
0.767	0.4	-7.59	-7.59
0.8	0.4	-7.31	-7.31
0.833	0.4	-6.88	-6.88
0.867	0.4	-6.32	-6.32
0.9	0.4	-5.69	-5.69
0.933	0.4	-4.98	-4.98
0.967	0.4	-4.27	-4.27
1	0.4	-3.69	-3.69
0	0.45	-0.492	-0.492
0.0333	0.45	0.202	0.202
0.0667	0.45	0.953	0.953
0.1	0.45	1.61	1.61
0.133	0.45	2.23	2.23
0.167	0.45	2.73	2.73
0.2	0.45	3.07	3.07
0.233	0.45	3.18	3.18
0.267	0.45	3.02	3.02
0.3	0.45	2.56	2.56
0.333	0.45	1.87	1.87
0.367	0.45	1.04	1.04
0.4	0.45	0.157	0.157
0.433	0.45	-0.702	-0.702
0.467	0.45	-1.51	-1.51
0.5	0.45	-2.26	-2.26
0.533	0.45	-2.98	-2.98
0.567	0.45	-3.69	-3.69
0.6	0.45	-4.41	-4.41
0.633	0.45	-5.12	-5.12
0.667	0.45	-5.77	-5.77
0.7	0.45	-6.29	-6.29
0.733	0.45	-6.63	-6.63
0.767	0.45	-6.74	-6.74
0.8	0.45	-6.66	-6.66
0.833	0.45	-6.42	-6.42
0.867	0.45	-6.06	-6.06
0.9	0.45	-5.62	-5.62
0.933	0.45	-5.08	-5.08
0.967	0.45	-4.52	-4.52
1	0.45	-4.02	-4.02
0	0.5	-0.875	-0.875
0.0333	0.5	-0.401	-0.401
0.0667	0.5	0.139	0.139
0.1	0.5	0.641	0.641
0.133	0.5	1.13	1.13
0.167	0.5	1.56	1.56
0.2	0.5	1.9	1.9
0.233	0.5	2.1	2.1
0.267	0.5	2.12	2.12
0.3	0.5	1.95	1.95
0.333	0.5	1.59	1.59
0.367	0.5	1.1	1.1
0.4	0.5	0.527	0.527
0.433	0.5	-0.0739	-0.0739
0.467	0.5	-0.679	-0.679
0.5	0.5	-1.28	-1.28
0.533	0.5	-1.89	-1.89
0.567	0.5	-2.51	-2.51
0.6	0.5	-3.15	-3.15
0.633	0.5	-3.78	-3.78
0.667	0.5	-4.38	-4.38
0.7	0.5	-4.88	-4.88
0.733	0.5	-5.24	-5.24
0.767	0.5	-5.44	-5.44
0.8	0.5	-5.5	-5.5
0.833	0.5	-5.43	-5.43
0.867	0.5	-5.27	-5.27
0.9	0.5	-5.02	-5.02
0.933	0.5	-4.69	-4.69
0.967	0.5	-4.31	-4.31
1	0.5	-3.96	-3.96
0	0.55	-0.919	-0.919
0.0333	0.55	-0.633	-0.633
0.0667	0.55	-0.287	-0.287
0.1	0.55	0.0519	0.0519
0.133	0.55	0.397	0.397
0.167	0.55	0.717	0.717
0.2	0.55	0.995	0.995
0.233	0.55	1.2	1.2
0.267	0.55	1.29	1.29
0.3	0.55	1.26	1.26
0.333	0.55	1.11	1.11
0.367	0.55	0.856	0.856
0.4	0.55	0.529	0.529
0.433	0.55	0.154	0.154
0.467	0.55	-0.253	-0.253
0.5	0.55	-0.688	-0.688
0.533	0.55	-1.15	-1.15
0.567	0.55	-1.65	-1.65
0.6	0.55	-2.17	-2.17
0.633	0.55	-2.69	-2.69
0.667	0.55	-3.19	-3.19
0.7	0.55	-3.63	-3.63
0.733	0.55	-3.96	-3.96
0.767	0.55	-4.19	-4.19
0.8	0.55	-4.3	-4.3
0.833	0.55	-4.34	-4.34
0.867	0.55	-4.3	-4.3
0.9	0.55	-4.2	-4.2
0.933	0.55	-4.04	-4.04
0.967	0.55	-3.82	-3.82
1	0.55	-3.6	-3.6
0	0.6	-0.812	-0.812
0.0333	0.6	-0.672	-0.672
0.0667	0.6	-0.486	-0.486
0.1	0.6	-0.288	-0.288
0.133	0.6	-0.0747	-0.0747
0.167	0.6	0.138	0.138
0.2	0.6	0.338	0.338
0.233	0.6	0.504	0.504
0.267	0.6	0.615	0.615
0.3	0.6	0.657	0.657
0.333	0.6	0.626	0.626
0.367	0.6	0.528	0.528
0.4	0.6	0.375	0.375
0.433	0.6	0.176	0.176
0.467	0.6	-0.065	-0.065
0.5	0.6	-0.347	-0.347
0.533	0.6	-0.672	-0.672
0.567	0.6	-1.04	-1.04
0.6	0.6	-1.44	-1.44
0.633	0.6	-1.85	-1.85
0.667	0.6	-2.25	-2.25
0.7	0.6	-2.6	-2.6
0.733	0.6	-2.89	-2.89
0.767	0.6	-3.1	-3.1
0.8	0.6	-3.24	-3.24
0.833	0.6	-3.32	-3.32
0.867	0.6	-3.37	-3.37
0.9	0.6	-3.37	-3.37
0.933	0.6	-3.32	-3.32
0.967	0.6	-3.24	-3.24
1	0.6	-3.14	-3.14
0	0.65	-0.589	-0.589
0.0333	0.65	-0.544	-0.544
0.0667	0.65	-0.472	-0.472
0.1	0.65	-0.382	-0.382
0.133	0.65	-0.275	-0.275
0.167	0.65	-0.159	-0.159
0.2	0.65	-0.0402	-0.0402
0.233	0.65	0.0668	0.0668
0.267	0.65	0.149	0.149
0.3	0.65	0.196	0.196
0.333	0.65	0.206	0.206
0.367	0.65	0.178	0.178
0.4	0.65	0.118	0.118
0.433	0.65	0.0258	0.0258
0.467	0.65	-0.102	-0.102
0.5	0.65	-0.27	-0.27
0.533	0.65	-0.482	-0.482
0.567	0.65	-0.738	-0.738
0.6	0.65	-1.03	-1.03
0.633	0.65	-1.34	-1.34
0.667	0.65	-1.64	-1.64
0.7	0.65	-1.91	-1.91
0.733	0.65	-2.13	-2.13
0.767	0.65	-2.3	-2.3
0.8	0.65	-2.42	-2.42
0.833	0.65	-2.52	-2.52
0.867	0.65	-2.59	-2.59
0.9	0.65	-2.64	-2.64
0.933	0.65	-2.66	-2.66
0.967	0.65	-2.66	-2.66
1	0.65	-2.64	-2.64
0	0.7	0.146	0.146
0.0333	0.7	0.144	0.144
0.0667	0.7	0.134	0.134
0.1	0.7	0.118	0.118
0.133	0.7	0.0968	0.0968
0.167	0.7	0.0698	0.0698
0.2	0.7	0.0356	0.0356
0.233	0.7	-0.0104	-0.0104
0.267	0.7	-0.0741	-0.0741
0.3	0.7	-0.159	-0.159
0.333	0.7	-0.266	-0.266
0.367	0.7	-0.391	-0.391
0.4	0.7	-0.531	-0.531
0.433	0.7	-0.682	-0.682
0.467	0.7	-0.844	-0.844
0.5	0.7	-1.02	-1.02
0.533	0.7	-1.21	-1.21
0.567	0.7	-1.41	-1.41
0.6	0.7	-1.61	-1.61
0.633	0.7	-1.79	-1.79
0.667	0.7	-1.95	-1.95
0.7	0.7	-2.06	-2.06
0.733	0.7	-2.12	-2.12
0.767	0.7	-2.14	-2.14
0.8	0.7	-2.12	-2.12
0.833	0.7	-2.09	-2.09
0.867	0.7	-2.06	-2.06
0.9	0.7	-2.03	-2.03
0.933	0.7	-2.01	-2.01
0.967	0.7	-2	-2
1	0.7	-1.99	-1.99
0	0.75	0.153	0.153
0.0333	0.75	0.151	0.151
0.0667	0.75	0.141	0.141
0.1	0.75	0.125	0.125
0.133	0.75	0.103	0.103
0.167	0.75	0.0759	0.0759
0.2	0.75	0.0421	0.0421
0.233	0.75	-0.00122	-0.00122
0.267	0.75	-0.0578	-0.0578
0.3	0.75	-0.13	-0.13
0.333	0.75	-0.216	-0.216
0.367	0.75	-0.313	-0.313
0.4	0.75	-0.417	-0.417
0.433	0.75	-0.525	-0.525
0.467	0.75	-0.64	-0.64
0.5	0.75	-0.763	-0.763
0.533	0.75	-0.896	-0.896
0.567	0.75	-1.04	-1.04
0.6	0.75	-1.18	-1.18
0.633	0.75	-1.32	-1.32
0.667	0.75	-1.44	-1.44
0.7	0.75	-1.53	-1.53
0.733	0.75	-1.57	-1.57
0.767	0.75	-1.57	-1.57
0.8	0.75	-1.55	-1.55
0.833	0.75	-1.52	-1.52
0.867	0.75	-1.49	-1.49
0.9	0.75	-1.47	-1.47
0.933	0.75	-1.45	-1.45
0.967	0.75	-1.43	-1.43
1	0.75	-1.43	-1.43
0	0.8	0.148	0.148
0.0333	0.8	0.147	0.147
0.0667	0.8	0.139	0.139
0.1	0.8	0.125	0.125
0.133	0.8	0.105	0.105
0.167	0.8	0.0796	0.0796
0.2	0.8	0.0484	0.0484
0.233	0.8	0.00883	0.00883
0.267	0.8	-0.0422	-0.0422
0.3	0.8	-0.106	-0.106
0.333	0.8	-0.183	-0.183
0.367	0.8	-0.268	-0.268
0.4	0.8	-0.359	-0.359
0.433	0.8	-0.452	-0.452
0.467	0.8	-0.549	-0.549
0.5	0.8	-0.652	-0.652
0.533	0.8	-0.763	-0.763
0.567	0.8	-0.881	-0.881
0.6	0.8	-1	-1
0.633	0.8	-1.12	-1.12
0.667	0.8	-1.22	-1.22
0.7	0.8	-1.29	-1.29
0.733	0.8	-1.32	-1.32
0.767	0.8	-1.32	-1.32
0.8	0.8	-1.31	-1.31
0.833	0.8	-1.28	-1.28
0.867	0.8	-1.25	-1.25
0.9	0.8	-1.22	-1.22
0.933	0.8	-1.2	-1.2
0.967	0.8	-1.19	-1.19
1	0.8	-1.18	-1.18
0	0.85	0.136	0.136
0.0333	0.85	0.135	0.135
0.0667	0.85	0.128	0.128
0.1	0.85	0.116	0.116
0.133	0.85	0.0982	0.0982
0.167	0.85	0.0757	0.0757
0.2	0.85	0.048	0.048
0.233	0.85	0.0127	0.0127
0.267	0.85	-0.0331	-0.0331
0.3	0.85	-0.0918	-0.0918
0.333	0.85	-0.163	-0.163
0.367	0.85	-0.244	-0.244
0.4	0.85	-0.331	-0.331
0.433	0.85	-0.422	-0.422
0.467	0.85	-0.516	-0.516
0.5	0.85	-0.614	-0.614
0.533	0.85	-0.718	-0.718
0.567	0.85	-0.827	-0.827
0.6	0.85	-0.937	-0.937
0.633	0.85	-1.04	-1.04
0.667	0.85	-1.13	-1.13
0.7	0.85	-1.19	-1.19
0.733	0.85	-1.22	-1.22
0.767	0.85	-1.23	-1.23
0.8	0.85	-1.21	-1.21
0.833	0.85	-1.19	-1.19
0.867	0.85	-1.16	-1.16
0.9	0.85	-1.14	-1.14
0.933	0.85	-1.12	-1.12
0.967	0.85	-1.11	-1.11
1	0.85	-1.1	-1.1
0	0.9	0.125	0.125
0.0333	0.9	0.126	0.126
0.0667	0.9	0.122	0.122
0.1	0.9	0.113	0.113
0.133	0.9	0.0985	0.0985
0.167	0.9	0.0795	0.0795
0.2	0.9	0.0554	0.0554
0.233	0.9	0.0238	0.0238
0.267	0.9	-0.0189	-0.0189
0.3	0.9	-0.0764	-0.0764
0.333	0.9	-0.15	-0.15
0.367	0.9	-0.238	-0.238
0.4	0.9	-0.336	-0.336
0.433	0.9	-0.443	-0.443
0.467	0.9	-0.554	-0.554
0.5	0.9	-0.67	-0.67
0.533	0.9	-0.788	-0.788
0.567	0.9	-0.908	-0.908
0.6	0.9	-1.03	-1.03
0.633	0.9	-1.13	-1.13
0.667	0.9	-1.22	-1.22
0.7	0.9	-1.28	-1.28
0.733	0.9	-1.32	-1.32
0.767	0.9	-1.32	-1.32
0.8	0.9	-1.31	-1.31
0.833	0.9	-1.29	-1.29
0.867	0.9	-1.26	-1.26
0.9	0.9	-1.24	-1.24
0.933	0.9	-1.22	-1.22
0.967	0.9	-1.21	-1.21
1	0.9	-1.2	-1.2
0	0.95	0.0625	0.0625
0.0333	0.95	0.0678	0.0678
0.0667	0.95	0.0701	0.0701
0.1	0.95	0.0693	0.0693
0.133	0.95	0.0654	0.0654
0.167	0.95	0.0585	0.0585
0.2	0.95	0.0473	0.0473
0.233	0.95	0.028	0.028
0.267	0.95	-0.00667	-0.00667
0.3	0.95	-0.0654	-0.0654
0.333	0.95	-0.155	-0.155
0.367	0.95	-0.279	-0.279
0.4	0.95	-0.437	-0.437
0.433	0.95	-0.624	-0.624
0.467	0.95	-0.831	-0.831
0.5	0.95	-1.05	-1.05
0.533	0.95	-1.27	-1.27
0.567	0.95	-1.48	-1.48
0.6	0.95	-1.67	-1.67
0.633	0.95	-1.83	-1.83
0.667	0.95	-1.96	-1.96
0.7	0.95	-2.04	-2.04
0.733	0.95	-2.09	-2.09
0.767	0.95	-2.11	-2.11
0.8	0.95	-2.11	-2.11
0.833	0.95	-2.09	-2.09
0.867	0.95	-2.08	-2.08
0.9	0.95	-2.07	-2.07
0.933	0.95	-2.05	-2.05
0.967	0.95	-2.04	-2.04
1	0.95	-2.03	-2.03
0	1	-1.24e-14	-1.24e-14
0.0333	1	-2.87e-14	-2.87e-14
0.0667	1	-5.6e-14	-5.6e-14
0.1	1	-4.32e-09	-4.32e-09
0.133	1	-1.85e-06	-1.85e-06
0.167	1	-6.24e-05	-6.24e-05
0.2	1	-0.000619	-0.000619
0.233	1	-0.0031	-0.0031
0.267	1	-0.0102	-0.0102
0.3	1	-0.0253	-0.0253
0.333	1	-0.0516	-0.0516
0.367	1	-0.0911	-0.0911
0.4	1	-0.144	-0.144
0.433	1	-0.21	-0.21
0.467	1	-0.284	-0.284
0.5	1	-0.364	-0.364
0.533	1	-0.443	-0.443
0.567	1	-0.518	-0.518
0.6	1	-0.583	-0.583
0.633	1	-0.636	-0.636
0.667	1	-0.676	-0.676
0.7	1	-0.702	-0.702
0.733	1	-0.717	-0.717
0.767	1	-0.724	-0.724
0.8	1	-0.727	-0.727
0.833	1	-0.727	-0.727
0.867	1	-0.727	-0.727
0.9	1	-0.727	-0.727
0.933	1	-0.727	-0.727
0.967	1	-0.727	-0.727
1	1	-0.727	-0.727
