x	y	z	c
0	0	-21.2	-21.2
0.0333	0	-20.8	-20.8
0.0667	0	-20.2	-20.2
0.1	0	-19.8	-19.8
0.133	0	-19.2	-19.2
0.167	0	-18.3	-18.3
0.2	0	-16.5	-16.5
0.233	0	-14.1	-14.1
0.267	0	-11.1	-11.1
0.3	0	-8.19	-8.19
0.333	0	-5.76	-5.76
0.367	0	-4.1	-4.1
0.4	0	-3.26	-3.26
0.433	0	-3.08	-3.08
0.467	0	-3.36	-3.36
0.5	0	-3.94	-3.94
0.533	0	-4.69	-4.69
0.567	0	-5.54	-5.54
0.6	0	-6.43	-6.43
0.633	0	-7.27	-7.27
0.667	0	-7.97	-7.97
0.7	0	-8.43	-8.43
0.733	0	-8.63	-8.63
0.767	0	-8.63	-8.63
0.8	0	-8.55	-8.55
0.833	0	-8.42	-8.42
0.867	0	-8.21	-8.21
0.9	0	-7.93	-7.93
0.933	0	-7.6	-7.6
0.967	0	-7.28	-7.28
1	0	-7.01	-7.01
0	0.05	-20.6	-20.6
0.0333	0.05	-20.2	-20.2
0.0667	0.05	-19.7	-19.7
0.1	0.05	-19.3	-19.3
0.133	0.05	-18.8	-18.8
0.167	0.05	-17.9	-17.9
0.2	0.05	-16.3	-16.3
0.233	0.05	-13.9	-13.9
0.267	0.05	-11	-11
0.3	0.05	-8.21	-8.21
0.333	0.05	-5.85	-5.85
0.367	0.05	-4.25	-4.25
0.4	0.05	-3.43	-3.43
0.433	0.05	-3.27	-3.27
0.467	0.05	-3.57	-3.57
0.5	0.05	-4.17	-4.17
0.533	0.05	-4.93	-4.93
0.567	0.05	-5.81	-5.81
0.6	0.05	-6.71	-6.71
0.633	0.05	-7.57	-7.57
0.667	0.05	-8.28	-8.28
0.7	0.05	-8.73	-8.73
0.733	0.05	-8.9	-8.9
0.767	0.05	-8.88	-8.88
0.8	0.05	-8.77	-8.77
0.833	0.05	-8.62	-8.62
0.867	0.05	-8.4	-8.4
0.9	0.05	-8.1	-8.1
0.933	0.05	-7.77	-7.77
0.967	0.05	-7.45	-7.45
1	0.05	-7.19	-7.19
0	0.1	-20.4	-20.4
0.0333	0.1	-20	-20
0.0667	0.1	-19.6	-19.6
0.1	0.1	-19.2	-19.2
0.133	0.1	-18.7	-18.7
0.167	0.1	-17.8	-17.8
0.2	0.1	-16.3	-16.3
0.233	0.1	-14	-14
0.267	0.1	-11.2	-11.2
0.3	0.1	-8.37	-8.37
0.333	0.1	-6.04	-6.04
0.367	0.1	-4.46	-4.46
0.4	0.1	-3.65	-3.65
0.433	0.1	-3.5	-3.5
0.467	0.1	-3.81	-3.81
0.5	0.1	-4.42	-4.42
0.533	0.1	-5.21	-5.21
0.567	0.1	-6.1	-6.1
0.6	0.1	-7.04	-7.04
0.633	0.1	-7.92	-7.92
0.667	0.1	-8.65	-8.65
0.7	0.1	-9.1	-9.1
0.733	0.1	-9.26	-9.26
0.767	0.1	-9.22	-9.22
0.8	0.1	-9.09	-9.09
0.833	0.1	-8.93	-8.93
0.867	0.1	-8.71	-8.71
0.9	0.1	-8.42	-8.42
0.933	0.1	-8.08	-8.08
0.967	0.1	-7.78	-7.78
1	0.1	-7.53	-7.53
0	0.15	-19.9	-19.9
0.0333	0.15	-19.5	-19.5
0.0667	0.15	-19.1	-19.1
0.1	0.15	-18.8	-18.8
0.133	0.15	-18.4	-18.4
0.167	0.15	-17.6	-17.6
0.2	0.15	-16.1	-16.1
0.233	0.15	-13.9	-13.9
0.267	0.15	-11.2	-11.2
0.3	0.15	-8.48	-8.48
0.333	0.15	-6.2	-6.2
0.367	0.15	-4.64	-4.64
0.4	0.15	-3.82	-3.82
0.433	0.15	-3.65	-3.65
0.467	0.15	-3.94	-3.94
0.5	0.15	-4.53	-4.53
0.533	0.15	-5.31	-5.31
0.567	0.15	-6.21	-6.21
0.6	0.15	-7.14	-7.14
0.633	0.15	-8.03	-8.03
0.667	0.15	-8.76	-8.76
0.7	0.15	-9.21	-9.21
0.733	0.15	-9.37	-9.37
0.767	0.15	-9.31	-9.31
0.8	0.15	-9.18	-9.18
0.833	0.15	-9.01	-9.01
0.867	0.15	-8.8	-8.8
0.9	0.15	-8.52	-8.52
0.933	0.15	-8.21	-8.21
0.967	0.15	-7.93	-7.93
1	0.15	-7.71	-7.71
0	0.2	-19.9	-19.9
0.0333	0.2	-19.5	-19.5
0.0667	0.2	-19.2	-19.2
0.1	0.2	-18.9	-18.9
0.133	0.2	-18.5	-18.5
0.167	0.2	-17.7	-17.7
0.2	0.2	-16.3	-16.3
0.233	0.2	-14.1	-14.1
0.267	0.2	-11.4	-11.4
0.3	0.2	-8.74	-8.74
0.333	0.2	-6.46	-6.46
0.367	0.2	-4.86	-4.86
0.4	0.2	-4.02	-4.02
0.433	0.2	-3.83	-3.83
0.467	0.2	-4.1	-4.1
0.5	0.2	-4.69	-4.69
0.533	0.2	-5.47	-5.47
0.567	0.2	-6.38	-6.38
0.6	0.2	-7.34	-7.34
0.633	0.2	-8.26	-8.26
0.667	0.2	-9.02	-9.02
0.7	0.2	-9.49	-9.49
0.733	0.2	-9.66	-9.66
0.767	0.2	-9.61	-9.61
0.8	0.2	-9.47	-9.47
0.833	0.2	-9.32	-9.32
0.867	0.2	-9.12	-9.12
0.9	0.2	-8.86	-8.86
0.933	0.2	-8.58	-8.58
0.967	0.2	-8.33	-8.33
1	0.2	-8.14	-8.14
0	0.25	-19.6	-19.6
0.0333	0.25	-19.3	-19.3
0.0667	0.25	-19	-19
0.1	0.25	-18.8	-18.8
0.133	0.25	-18.4	-18.4
0.167	0.25	-17.7	-17.7
0.2	0.25	-16.3	-16.3
0.233	0.25	-14.2	-14.2
0.267	0.25	-11.6	-11.6
0.3	0.25	-8.97	-8.97
0.333	0.25	-6.68	-6.68
0.367	0.25	-5.07	-5.07
0.4	0.25	-4.18	-4.18
0.433	0.25	-3.94	-3.94
0.467	0.25	-4.18	-4.18
0.5	0.25	-4.74	-4.74
0.533	0.25	-5.52	-5.52
0.567	0.25	-6.43	-6.43
0.6	0.25	-7.41	-7.41
0.633	0.25	-8.35	-8.35
0.667	0.25	-9.12	-9.12
0.7	0.25	-9.62	-9.62
0.733	0.25	-9.8	-9.8
0.767	0.25	-9.76	-9.76
0.8	0.25	-9.63	-9.63
0.833	0.25	-9.49	-9.49
0.867	0.25	-9.31	-9.31
0.9	0.25	-9.09	-9.09
0.933	0.25	-8.85	-8.85
0.967	0.25	-8.63	-8.63
1	0.25	-8.48	-8.48
0	0.3	-19.9	-19.9
0.0333	0.3	-19.7	-19.7
0.0667	0.3	-19.4	-19.4
0.1	0.3	-19.2	-19.2
0.133	0.3	-18.8	-18.8
0.167	0.3	-18.1	-18.1
0.2	0.3	-16.8	-16.8
0.233	0.3	-14.7	-14.7
0.267	0.3	-12.1	-12.1
0.3	0.3	-9.36	-9.36
0.333	0.3	-7.02	-7.02
0.367	0.3	-5.33	-5.33
0.4	0.3	-4.39	-4.39
0.433	0.3	-4.11	-4.11
0.467	0.3	-4.32	-4.32
0.5	0.3	-4.88	-4.88
0.533	0.3	-5.67	-5.67
0.567	0.3	-6.63	-6.63
0.6	0.3	-7.65	-7.65
0.633	0.3	-8.65	-8.65
0.667	0.3	-9.48	-9.48
0.7	0.3	-10	-10
0.733	0.3	-10.2	-10.2
0.767	0.3	-10.2	-10.2
0.8	0.3	-10.1	-10.1
0.833	0.3	-9.96	-9.96
0.867	0.3	-9.81	-9.81
0.9	0.3	-9.62	-9.62
0.933	0.3	-9.4	-9.4
0.967	0.3	-9.23	-9.23
1	0.3	-9.11	-9.11
0	0.35	-20.2	-20.2
0.0333	0.35	-20	-20
0.0667	0.35	-19.7	-19.7
0.1	0.35	-19.5	-19.5
0.133	0.35	-19.2	-19.2
0.167	0.35	-18.5	-18.5
0.2	0.35	-17.2	-17.2
0.233	0.35	-15.1	-15.1
0.267	0.35	-12.5	-12.5
0.3	0.35	-9.79	-9.79
0.333	0.35	-7.39	-7.39
0.367	0.35	-5.63	-5.63
0.4	0.35	-4.61	-4.61
0.433	0.35	-4.26	-4.26
0.467	0.35	-4.43	-4.43
0.5	0.35	-4.98	-4.98
0.533	0.35	-5.78	-5.78
0.567	0.35	-6.76	-6.76
0.6	0.35	-7.83	-7.83
0.633	0.35	-8.88	-8.88
0.667	0.35	-9.77	-9.77
0.7	0.35	-10.4	-10.4
0.733	0.35	-10.6	-10.6
0.767	0.35	-10.6	-10.6
0.8	0.35	-10.5	-10.5
0.833	0.35	-10.4	-10.4
0.867	0.35	-10.3	-10.3
0.9	0.35	-10.1	-10.1
0.933	0.35	-9.93	-9.93
0.967	0.35	-9.79	-9.79
1	0.35	-9.71	-9.71
0	0.4	-20.9	-20.9
0.0333	0.4	-20.7	-20.7
0.0667	0.4	-20.4	-20.4
0.1	0.4	-20.2	-20.2
0.133	0.4	-19.9	-19.9
0.167	0.4	-19.2	-19.2
0.2	0.4	-17.9	-17.9
0.233	0.4	-15.8	-15.8
0.267	0.4	-13.2	-13.2
0.3	0.4	-10.4	-10.4
0.333	0.4	-7.88	-7.88
0.367	0.4	-6.02	-6.02
0.4	0.4	-4.9	-4.9
0.433	0.4	-4.49	-4.49
0.467	0.4	-4.62	-4.62
0.5	0.4	-5.17	-5.17
0.533	0.4	-6.01	-6.01
0.567	0.4	-7.05	-7.05
0.6	0.4	-8.19	-8.19
0.633	0.4	-9.32	-9.32
0.667	0.4	-10.3	-10.3
0.7	0.4	-10.9	-10.9
0.733	0.4	-11.2	-11.2
0.767	0.4	-11.2	-11.2
0.8	0.4	-11.2	-11.2
0.833	0.4	-11.1	-11.1
0.867	0.4	-11	-11
0.9	0.4	-10.8	-10.8
0.933	0.4	-10.7	-10.7
0.967	0.4	-10.6	-10.6
1	0.4	-10.5	-10.5
0	0.45	-21.5	-21.5
0.0333	0.45	-21.3	-21.3
0.0667	0.45	-21.1	-21.1
0.1	0.45	-20.9	-20.9
0.133	0.45	-20.6	-20.6
0.167	0.45	-20	-20
0.2	0.45	-18.7	-18.7
0.233	0.45	-16.6	-16.6
0.267	0.45	-13.9	-13.9
0.3	0.45	-11	-11
0.333	0.45	-8.42	-8.42
0.367	0.45	-6.44	-6.44
0.4	0.45	-5.22	-5.22
0.433	0.45	-4.72	-4.72
0.467	0.45	-4.81	-4.81
0.5	0.45	-5.35	-5.35
0.533	0.45	-6.22	-6.22
0.567	0.45	-7.32	-7.32
0.6	0.45	-8.54	-8.54
0.633	0.45	-9.76	-9.76
0.667	0.45	-10.8	-10.8
0.7	0.45	-11.5	-11.5
0.733	0.45	-11.9	-11.9
0.767	0.45	-11.9	-11.9
0.8	0.45	-11.8	-11.8
0.833	0.45	-11.8	-11.8
0.867	0.45	-11.7	-11.7
0.9	0.45	-11.6	-11.6
0.933	0.45	-11.5	-11.5
0.967	0.45	-11.4	-11.4
1	0.45	-11.4	-11.4
0	0.5	-22.1	-22.1
0.0333	0.5	-21.9	-21.9
0.0667	0.5	-21.7	-21.7
0.1	0.5	-21.5	-21.5
0.133	0.5	-21.2	-21.2
0.167	0.5	-20.6	-20.6
0.2	0.5	-19.3	-19.3
0.233	0.5	-17.2	-17.2
0.267	0.5	-14.5	-14.5
0.3	0.5	-11.6	-11.6
0.333	0.5	-8.94	-8.94
0.367	0.5	-6.84	-6.84
0.4	0.5	-5.51	-5.51
0.433	0.5	-4.92	-4.92
0.467	0.5	-4.96	-4.96
0.5	0.5	-5.5	-5.5
0.533	0.5	-6.39	-6.39
0.567	0.5	-7.54	-7.54
0.6	0.5	-8.84	-8.84
0.633	0.5	-10.1	-10.1
0.667	0.5	-11.3	-11.3
0.7	0.5	-12.1	-12.1
0.733	0.5	-12.5	-12.5
0.767	0.5	-12.6	-12.6
0.8	0.5	-12.5	-12.5
0.833	0.5	-12.5	-12.5
0.867	0.5	-12.4	-12.4
0.9	0.5	-12.4	-12.4
0.933	0.5	-12.3	-12.3
0.967	0.5	-12.3	-12.3
1	0.5	-12.3	-12.3
0	0.55	-22.4	-22.4
0.0333	0.55	-22.2	-22.2
0.0667	0.55	-22	-22
0.1	0.55	-21.8	-21.8
0.133	0.55	-21.5	-21.5
0.167	0.55	-20.9	-20.9
0.2	0.55	-19.7	-19.7
0.233	0.55	-17.7	-17.7
0.267	0.55	-15	-15
0.3	0.55	-12.1	-12.1
0.333	0.55	-9.33	-9.33
0.367	0.55	-7.17	-7.17
0.4	0.55	-5.74	-5.74
0.433	0.55	-5.08	-5.08
0.467	0.55	-5.07	-5.07
0.5	0.55	-5.59	-5.59
0.533	0.55	-6.51	-6.51
0.567	0.55	-7.71	-7.71
0.6	0.55	-9.08	-9.08
0.633	0.55	-10.5	-10.5
0.667	0.55	-11.7	-11.7
0.7	0.55	-12.5	-12.5
0.733	0.55	-13	-13
0.767	0.55	-13.1	-13.1
0.8	0.55	-13.1	-13.1
0.833	0.55	-13.1	-13.1
0.867	0.55	-13	-13
0.9	0.55	-13	-13
0.933	0.55	-13	-13
0.967	0.55	-12.9	-12.9
1	0.55	-12.9	-12.9
0	0.6	-22	-22
0.0333	0.6	-21.9	-21.9
0.0667	0.6	-21.6	-21.6
0.1	0.6	-21.4	-21.4
0.133	0.6	-21.1	-21.1
0.167	0.6	-20.6	-20.6
0.2	0.6	-19.4	-19.4
0.233	0.6	-17.5	-17.5
0.267	0.6	-15	-15
0.3	0.6	-12.2	-12.2
0.333	0.6	-9.47	-9.47
0.367	0.6	-7.29	-7.29
0.4	0.6	-5.82	-5.82
0.433	0.6	-5.1	-5.1
0.467	0.6	-5.05	-5.05
0.5	0.6	-5.54	-5.54
0.533	0.6	-6.45	-6.45
0.567	0.6	-7.67	-7.67
0.6	0.6	-9.07	-9.07
0.633	0.6	-10.5	-10.5
0.667	0.6	-11.7	-11.7
0.7	0.6	-12.7	-12.7
0.733	0.6	-13.2	-13.2
0.767	0.6	-13.3	-13.3
0.8	0.6	-13.3	-13.3
0.833	0.6	-13.3	-13.3
0.867	0.6	-13.3	-13.3
0.9	0.6	-13.3	-13.3
0.933	0.6	-13.3	-13.3
0.967	0.6	-13.2	-13.2
1	0.6	-13.2	-13.2
0	0.65	-20.6	-20.6
0.0333	0.65	-20.4	-20.4
0.0667	0.65	-20.2	-20.2
0.1	0.65	-20	-20
0.133	0.65	-19.7	-19.7
0.167	0.65	-19.2	-19.2
0.2	0.65	-18.2	-18.2
0.233	0.65	-16.6	-16.6
0.267	0.65	-14.3	-14.3
0.3	0.65	-11.7	-11.7
0.333	0.65	-9.16	-9.16
0.367	0.65	-7.09	-7.09
0.4	0.65	-5.65	-5.65
0.433	0.65	-4.9	-4.9
0.467	0.65	-4.8	-4.8
0.5	0.65	-5.24	-5.24
0.533	0.65	-6.1	-6.1
0.567	0.65	-7.27	-7.27
0.6	0.65	-8.62	-8.62
0.633	0.65	-10	-10
0.667	0.65	-11.3	-11.3
0.7	0.65	-12.2	-12.2
0.733	0.65	-12.7	-12.7
0.767	0.65	-12.9	-12.9
0.8	0.65	-12.9	-12.9
0.833	0.65	-12.9	-12.9
0.867	0.65	-12.9	-12.9
0.9	0.65	-12.9	-12.9
0.933	0.65	-12.9	-12.9
0.967	0.65	-12.8	-12.8
1	0.65	-12.8	-12.8
0	0.7	-18.5	-18.5
0.0333	0.7	-18.4	-18.4
0.0667	0.7	-18.2	-18.2
0.1	0.7	-18	-18
0.133	0.7	-17.7	-17.7
0.167	0.7	-17.3	-17.3
0.2	0.7	-16.5	-16.5
0.233	0.7	-15.1	-15.1
0.267	0.7	-13.1	-13.1
0.3	0.7	-10.8	-10.8
0.333	0.7	-8.55	-8.55
0.367	0.7	-6.65	-6.65
0.4	0.7	-5.3	-5.3
0.433	0.7	-4.57	-4.57
0.467	0.7	-4.43	-4.43
0.5	0.7	-4.81	-4.81
0.533	0.7	-5.59	-5.59
0.567	0.7	-6.67	-6.67
0.6	0.7	-7.93	-7.93
0.633	0.7	-9.23	-9.23
0.667	0.7	-10.4	-10.4
0.7	0.7	-11.3	-11.3
0.733	0.7	-11.8	-11.8
0.767	0.7	-12	-12
0.8	0.7	-12	-12
0.833	0.7	-12	-12
0.867	0.7	-12	-12
0.9	0.7	-12	-12
0.933	0.7	-12	-12
0.967	0.7	-11.9	-11.9
1	0.7	-11.9	-11.9
0	0.75	-16	-16
0.0333	0.75	-15.9	-15.9
0.0667	0.75	-15.7	-15.7
0.1	0.75	-15.5	-15.5
0.133	0.75	-15.3	-15.3
0.167	0.75	-15	-15
0.2	0.75	-14.3	-14.3
0.233	0.75	-13.1	-13.1
0.267	0.75	-11.5	-11.5
0.3	0.75	-9.56	-9.56
0.333	0.75	-7.64	-7.64
0.367	0.75	-5.97	-5.97
0.4	0.75	-4.77	-4.77
0.433	0.75	-4.09	-4.09
0.467	0.75	-3.95	-3.95
0.5	0.75	-4.26	-4.26
0.533	0.75	-4.95	-4.95
0.567	0.75	-5.91	-5.91
0.6	0.75	-7.03	-7.03
0.633	0.75	-8.2	-8.2
0.667	0.75	-9.26	-9.26
0.7	0.75	-10.1	-10.1
0.733	0.75	-10.6	-10.6
0.767	0.75	-10.7	-10.7
0.8	0.75	-10.8	-10.8
0.833	0.75	-10.8	-10.8
0.867	0.75	-10.7	-10.7
0.9	0.75	-10.7	-10.7
0.933	0.75	-10.7	-10.7
0.967	0.75	-10.6	-10.6
1	0.75	-10.5	-10.5
0	0.8	-13.4	-13.4
0.0333	0.8	-13.3	-13.3
0.0667	0.8	-13.1	-13.1
0.1	0.8	-13	-13
0.133	0.8	-12.8	-12.8
0.167	0.8	-12.6	-12.6
0.2	0.8	-12	-12
0.233	0.8	-11.1	-11.1
0.267	0.8	-9.84	-9.84
0.3	0.8	-8.27	-8.27
0.333	0.8	-6.66	-6.66
0.367	0.8	-5.25	-5.25
0.4	0.8	-4.2	-4.2
0.433	0.8	-3.6	-3.6
0.467	0.8	-3.45	-3.45
0.5	0.8	-3.7	-3.7
0.533	0.8	-4.28	-4.28
0.567	0.8	-5.1	-5.1
0.6	0.8	-6.08	-6.08
0.633	0.8	-7.1	-7.1
0.667	0.8	-8.02	-8.02
0.7	0.8	-8.74	-8.74
0.733	0.8	-9.17	-9.17
0.767	0.8	-9.35	-9.35
0.8	0.8	-9.36	-9.36
0.833	0.8	-9.33	-9.33
0.867	0.8	-9.31	-9.31
0.9	0.8	-9.27	-9.27
0.933	0.8	-9.22	-9.22
0.967	0.8	-9.15	-9.15
1	0.8	-9.07	-9.07
0	0.85	-11.2	-11.2
0.0333	0.85	-11.1	-11.1
0.0667	0.85	-10.9	-10.9
0.1	0.85	-10.8	-10.8
0.133	0.85	-10.7	-10.7
0.167	0.85	-10.5	-10.5
0.2	0.85	-10.1	-10.1
0.233	0.85	-9.39	-9.39
0.267	0.85	-8.36	-8.36
0.3	0.85	-7.09	-7.09
0.333	0.85	-5.76	-5.76
0.367	0.85	-4.58	-4.58
0.4	0.85	-3.68	-3.68
0.433	0.85	-3.14	-3.14
0.467	0.85	-2.99	-2.99
0.5	0.85	-3.19	-3.19
0.533	0.85	-3.68	-3.68
0.567	0.85	-4.38	-4.38
0.6	0.85	-5.22	-5.22
0.633	0.85	-6.09	-6.09
0.667	0.85	-6.89	-6.89
0.7	0.85	-7.51	-7.51
0.733	0.85	-7.89	-7.89
0.767	0.85	-8.04	-8.04
0.8	0.85	-8.05	-8.05
0.833	0.85	-8.01	-8.01
0.867	0.85	-7.98	-7.98
0.9	0.85	-7.93	-7.93
0.933	0.85	-7.87	-7.87
0.967	0.85	-7.8	-7.8
1	0.85	-7.72	-7.72
0	0.9	-9.35	-9.35
0.0333	0.9	-9.24	-9.24
0.0667	0.9	-9.13	-9.13
0.1	0.9	-9.03	-9.03
0.133	0.9	-8.93	-8.93
0.167	0.9	-8.78	-8.78
0.2	0.9	-8.5	-8.5
0.233	0.9	-7.96	-7.96
0.267	0.9	-7.14	-7.14
0.3	0.9	-6.11	-6.11
0.333	0.9	-5.01	-5.01
0.367	0.9	-4.01	-4.01
0.4	0.9	-3.23	-3.23
0.433	0.9	-2.76	-2.76
0.467	0.9	-2.61	-2.61
0.5	0.9	-2.77	-2.77
0.533	0.9	-3.18	-3.18
0.567	0.9	-3.78	-3.78
0.6	0.9	-4.5	-4.5
0.633	0.9	-5.25	-5.25
0.667	0.9	-5.94	-5.94
0.7	0.9	-6.48	-6.48
0.733	0.9	-6.81	-6.81
0.767	0.9	-6.94	-6.94
0.8	0.9	-6.94	-6.94
0.833	0.9	-6.9	-6.9
0.867	0.9	-6.85	-6.85
0.9	0.9	-6.8	-6.8
0.933	0.9	-6.74	-6.74
0.967	0.9	-6.66	-6.66
1	0.9	-6.58	-6.58
0	0.95	-7.97	-7.97
0.0333	0.95	-7.88	-7.88
0.0667	0.95	-7.79	-7.79
0.1	0.95	-7.7	-7.7
0.133	0.95	-7.63	-7.63
0.167	0.95	-7.52	-7.52
0.2	0.95	-7.31	-7.31
0.233	0.95	-6.89	-6.89
0.267	0.95	-6.22	-6.22
0.3	0.95	-5.37	-5.37
0.333	0.95	-4.44	-4.44
0.367	0.95	-3.58	-3.58
0.4	0.95	-2.9	-2.9
0.433	0.95	-2.47	-2.47
0.467	0.95	-2.32	-2.32
0.5	0.95	-2.45	-2.45
0.533	0.95	-2.8	-2.8
0.567	0.95	-3.33	-3.33
0.6	0.95	-3.96	-3.96
0.633	0.95	-4.62	-4.62
0.667	0.95	-5.22	-5.22
0.7	0.95	-5.7	-5.7
0.733	0.95	-5.99	-5.99
0.767	0.95	-6.1	-6.1
0.8	0.95	-6.1	-6.1
0.833	0.95	-6.04	-6.04
0.867	0.95	-5.99	-5.99
0.9	0.95	-5.94	-5.94
0.933	0.95	-5.87	-5.87
0.967	0.95	-5.8	-5.8
1	0.95	-5.72	-5.72
0	1	-6.95	-6.95
0.0333	1	-6.87	-6.87
0.0667	1	-6.79	-6.79
0.1	1	-6.73	-6.73
0.133	1	-6.67	-6.67
0.167	1	-6.59	-6.59
0.2	1	-6.43	-6.43
0.233	1	-6.1	-6.1
0.267	1	-5.55	-5.55
0.3	1	-4.82	-4.82
0.333	1	-4.02	-4.02
0.367	1	-3.25	-3.25
0.4	1	-2.64	-2.64
0.433	1	-2.24	-2.24
0.467	1	-2.1	-2.1
0.5	1	-2.2	-2.2
0.533	1	-2.51	-2.51
0.567	1	-2.97	-2.97
0.6	1	-3.54	-3.54
0.633	1	-4.13	-4.13
0.667	1	-4.67	-4.67
0.7	1	-5.1	-5.1
0.733	1	-5.36	-5.36
0.767	1	-5.46	-5.46
0.8	1	-5.44	-5.44
0.833	1	-5.39	-5.39
0.867	1	-5.33	-5.33
0.9	1	-5.27	-5.27
0.933	1	-5.2	-5.2
0.967	1	-5.13	-5.13
1	1	-5.05	-5.05
