0	0.7	0.53
3.64e-09	0.7	0.53
7.27e-09	0.7	0.53
1.09e-08	0.7	0.53
1.93e-08	0.7	0.53
2.76e-08	0.7	0.53
3.6e-08	0.7	0.53
4.43e-08	0.7	0.53
6.57e-08	0.7	0.53
8.7e-08	0.7	0.53
1.08e-07	0.7	0.53
1.53e-07	0.7	0.53
1.98e-07	0.7	0.53
2.42e-07	0.7	0.53
2.87e-07	0.7	0.53
3.88e-07	0.7	0.53
4.9e-07	0.7	0.53
5.91e-07	0.7	0.53
6.92e-07	0.7	0.53
9.42e-07	0.7	0.53
1.19e-06	0.7	0.53
1.44e-06	0.7	0.53
1.69e-06	0.7	0.53
2.31e-06	0.7	0.53
2.92e-06	0.7	0.53
3.54e-06	0.7	0.53
4.15e-06	0.7	0.53
5.22e-06	0.7	0.53
6.28e-06	0.7	0.53
7.35e-06	0.7	0.53
8.41e-06	0.7	0.53
9.48e-06	0.7	0.53
1.1e-05	0.7	0.53
1.26e-05	0.7	0.53
1.41e-05	0.7	0.53
1.57e-05	0.7	0.53
1.72e-05	0.7	0.53
1.94e-05	0.7	0.53
2.16e-05	0.7	0.53
2.38e-05	0.7	0.53
2.6e-05	0.7	0.53
2.82e-05	0.7	0.53
3.13e-05	0.7	0.53
3.43e-05	0.7	0.53
3.74e-05	0.7	0.53
4.05e-05	0.7	0.53
4.35e-05	0.7	0.53
4.81e-05	0.7	0.53
5.26e-05	0.7	0.53
5.71e-05	0.7	0.53
6.17e-05	0.7	0.53
6.62e-05	0.7	0.53
7.31e-05	0.7	0.53
8e-05	0.7	0.53
8.68e-05	0.7	0.53
9.37e-05	0.7	0.53
0.000101	0.7	0.53
0.000111	0.7	0.53
0.000121	0.7	0.53
0.000131	0.7	0.53
0.000141	0.7	0.53
0.000152	0.7	0.53
0.000166	0.7	0.53
0.000181	0.7	0.53
0.000196	0.7	0.53
0.000211	0.7	0.53
0.000225	0.7	0.53
0.000247	0.7	0.53
0.000268	0.7	0.53
0.000289	0.7	0.53
0.00031	0.7	0.53
0.000331	0.7	0.53
0.000361	0.7	0.531
0.00039	0.7	0.531
0.00042	0.7	0.531
0.00045	0.7	0.531
0.00048	0.7	0.531
0.000519	0.7	0.531
0.000559	0.7	0.531
0.000599	0.7	0.531
0.000639	0.7	0.531
0.000679	0.7	0.531
0.000734	0.7	0.532
0.00079	0.7	0.532
0.000845	0.7	0.532
0.000901	0.7	0.532
0.000956	0.7	0.532
0.00103	0.7	0.532
0.0011	0.7	0.532
0.00118	0.7	0.533
0.00125	0.7	0.533
0.00132	0.7	0.533
0.00141	0.7	0.533
0.0015	0.7	0.533
0.0016	0.7	0.533
0.00169	0.7	0.534
0.00178	0.7	0.534
0.0019	0.7	0.534
0.00202	0.7	0.534
0.00214	0.7	0.534
0.00226	0.7	0.535
0.00238	0.7	0.535
0.00254	0.7	0.535
0.00269	0.7	0.535
0.00285	0.7	0.536
0.00301	0.7	0.536
0.00317	0.7	0.536
0.00338	0.7	0.536
0.00359	0.7	0.536
0.0038	0.7	0.537
0.00402	0.7	0.537
0.00423	0.7	0.537
0.00451	0.7	0.537
0.00478	0.7	0.537
0.00506	0.7	0.537
0.00534	0.7	0.537
0.00562	0.7	0.537
0.00597	0.7	0.537
0.00632	0.7	0.537
0.00667	0.7	0.537
0.00702	0.7	0.537
0.00737	0.7	0.537
0.00773	0.7	0.536
0.00831	0.7	0.536
0.00889	0.7	0.535
0.00948	0.7	0.534
0.0101	0.7	0.534
0.0106	0.7	0.533
0.0112	0.7	0.532
0.012	0.7	0.53
0.0127	0.7	0.528
0.0135	0.7	0.527
0.0143	0.7	0.525
0.015	0.7	0.523
0.0158	0.7	0.521
0.0168	0.7	0.518
0.0177	0.7	0.516
0.0187	0.7	0.513
0.0197	0.7	0.51
0.0207	0.7	0.507
0.0216	0.7	0.505
0.0229	0.7	0.501
0.0242	0.7	0.497
0.0254	0.7	0.493
0.0267	0.7	0.49
0.028	0.7	0.486
0.0292	0.7	0.482
0.0308	0.7	0.477
0.0324	0.7	0.473
0.034	0.7	0.468
0.0355	0.7	0.464
0.0371	0.7	0.459
0.0387	0.7	0.455
0.0402	0.7	0.45
0.0419	0.7	0.445
0.0436	0.7	0.441
0.0452	0.7	0.436
0.0469	0.7	0.431
0.0486	0.7	0.427
0.0503	0.7	0.422
0.0527	0.7	0.416
0.0551	0.7	0.409
0.0575	0.7	0.403
0.0599	0.7	0.397
0.0623	0.7	0.391
0.0647	0.7	0.384
0.0679	0.7	0.377
0.0711	0.7	0.369
0.0738	0.7	0.362
0.0764	0.7	0.356
0.0791	0.7	0.35
0.0818	0.7	0.343
0.0845	0.7	0.337
0.0879	0.7	0.329
0.0914	0.7	0.322
0.0949	0.7	0.314
0.0984	0.7	0.307
0.102	0.7	0.3
0.106	0.7	0.292
0.11	0.7	0.284
0.114	0.7	0.277
0.118	0.7	0.269
0.121	0.7	0.262
0.127	0.7	0.252
0.132	0.7	0.243
0.134	0.7	0.24
0.136	0.7	0.237
0.138	0.7	0.234
0.14	0.7	0.231
0.142	0.7	0.228
0.144	0.7	0.224
0.147	0.7	0.22
0.149	0.7	0.216
0.152	0.7	0.212
0.155	0.7	0.208
0.161	0.7	0.199
0.166	0.7	0.192
0.167	0.7	0.191
0.169	0.7	0.189
0.17	0.7	0.187
0.171	0.7	0.185
0.173	0.7	0.184
0.174	0.7	0.181
0.176	0.7	0.179
0.178	0.7	0.177
0.18	0.7	0.175
0.181	0.7	0.173
0.186	0.7	0.168
0.19	0.7	0.163
0.194	0.7	0.159
0.198	0.7	0.154
0.2	0.7	0.152
0.201	0.7	0.151
0.202	0.7	0.15
0.203	0.7	0.149
0.204	0.7	0.148
0.205	0.7	0.147
0.207	0.7	0.145
0.208	0.7	0.144
0.21	0.7	0.142
0.211	0.7	0.141
0.214	0.7	0.138
0.217	0.7	0.135
0.22	0.7	0.132
0.223	0.7	0.129
0.227	0.7	0.127
0.232	0.7	0.122
0.233	0.7	0.121
0.235	0.7	0.119
0.236	0.7	0.118
0.238	0.7	0.117
0.239	0.7	0.116
0.241	0.7	0.115
0.243	0.7	0.113
0.245	0.7	0.111
0.247	0.7	0.11
0.25	0.7	0.108
0.254	0.7	0.105
0.258	0.7	0.102
0.262	0.7	0.0992
0.266	0.7	0.0964
0.267	0.7	0.0955
0.269	0.7	0.0946
0.27	0.7	0.0937
0.271	0.7	0.0927
0.273	0.7	0.0918
0.275	0.7	0.0905
0.277	0.7	0.0892
0.279	0.7	0.0879
0.281	0.7	0.0866
0.283	0.7	0.0853
0.289	0.7	0.082
0.295	0.7	0.0788
0.3	0.7	0.0757
0.302	0.7	0.0746
0.305	0.7	0.0735
0.307	0.7	0.0725
0.309	0.7	0.0714
0.311	0.7	0.0704
0.314	0.7	0.0687
0.317	0.7	0.0671
0.321	0.7	0.0655
0.324	0.7	0.0639
0.327	0.7	0.0624
0.335	0.7	0.0589
0.343	0.7	0.0556
0.346	0.7	0.0546
0.348	0.7	0.0536
0.351	0.7	0.0525
0.354	0.7	0.0515
0.356	0.7	0.0506
0.362	0.7	0.0486
0.367	0.7	0.0466
0.369	0.7	0.046
0.371	0.7	0.0453
0.373	0.7	0.0447
0.375	0.7	0.044
0.376	0.7	0.0434
0.38	0.7	0.0424
0.383	0.7	0.0414
0.386	0.7	0.0404
0.389	0.7	0.0394
0.395	0.7	0.0375
0.402	0.7	0.0358
0.407	0.7	0.0344
0.41	0.7	0.0334
0.414	0.7	0.0324
0.418	0.7	0.0315
0.421	0.7	0.0306
0.425	0.7	0.0298
0.431	0.7	0.0284
0.436	0.7	0.0273
0.44	0.7	0.0263
0.444	0.7	0.0256
0.448	0.7	0.0248
0.452	0.7	0.024
0.455	0.7	0.0233
0.459	0.7	0.0226
0.466	0.7	0.0214
0.468	0.7	0.021
0.471	0.7	0.0206
0.473	0.7	0.0202
0.475	0.7	0.0198
0.478	0.7	0.0194
0.482	0.7	0.0188
0.485	0.7	0.0182
0.489	0.7	0.0176
0.493	0.7	0.0171
0.497	0.7	0.0166
0.504	0.7	0.0156
0.511	0.7	0.0147
0.518	0.7	0.0139
0.526	0.7	0.0131
0.533	0.7	0.0123
0.539	0.7	0.0117
0.545	0.7	0.0111
0.552	0.7	0.0105
0.558	0.7	0.01
0.564	0.7	0.00951
0.573	0.7	0.00886
0.582	0.7	0.00827
0.59	0.7	0.00771
0.599	0.7	0.0072
0.607	0.7	0.00673
0.616	0.7	0.00627
0.625	0.7	0.00584
0.634	0.7	0.00545
0.644	0.7	0.00509
0.653	0.7	0.00476
0.663	0.7	0.0044
0.674	0.7	0.00407
0.684	0.7	0.00377
0.695	0.7	0.0035
0.706	0.7	0.00325
0.717	0.7	0.003
0.728	0.7	0.00277
0.74	0.7	0.00257
0.751	0.7	0.00238
0.763	0.7	0.0022
0.778	0.7	0.00199
0.793	0.7	0.0018
0.808	0.7	0.00163
0.823	0.7	0.00148
0.838	0.7	0.00134
0.858	0.7	0.00117
0.878	0.7	0.00102
0.898	0.7	0.000895
0.918	0.7	0.000782
0.938	0.7	0.000683
0.958	0.7	0.000596
0.978	0.7	0.00052
1	0.7	0.000448
