0	-0.101
4.71e-08	-0.101
9.43e-08	-0.101
1.41e-07	-0.101
3.73e-07	-0.101
6.05e-07	-0.101
8.37e-07	-0.101
1.07e-06	-0.101
1.47e-06	-0.101
1.87e-06	-0.101
2.27e-06	-0.101
2.68e-06	-0.101
3.08e-06	-0.101
4.05e-06	-0.101
5.02e-06	-0.101
5.99e-06	-0.101
6.96e-06	-0.101
7.93e-06	-0.101
8.91e-06	-0.101
1.04e-05	-0.101
1.18e-05	-0.101
1.33e-05	-0.101
1.47e-05	-0.101
1.61e-05	-0.101
1.76e-05	-0.101
1.94e-05	-0.101
2.12e-05	-0.101
2.3e-05	-0.101
2.48e-05	-0.101
2.66e-05	-0.101
2.84e-05	-0.101
3.08e-05	-0.101
3.32e-05	-0.101
3.57e-05	-0.101
3.81e-05	-0.101
4.05e-05	-0.101
4.29e-05	-0.101
4.64e-05	-0.101
4.98e-05	-0.101
5.32e-05	-0.101
5.67e-05	-0.101
6.01e-05	-0.101
6.36e-05	-0.101
6.87e-05	-0.102
7.39e-05	-0.102
7.9e-05	-0.102
8.41e-05	-0.102
8.93e-05	-0.102
9.44e-05	-0.102
0.000102	-0.102
0.00011	-0.102
0.000117	-0.102
0.000125	-0.103
0.000132	-0.103
0.00014	-0.103
0.000151	-0.103
0.000162	-0.103
0.000173	-0.103
0.000184	-0.104
0.000195	-0.104
0.000205	-0.104
0.000221	-0.104
0.000237	-0.105
0.000252	-0.105
0.000268	-0.105
0.000284	-0.106
0.000299	-0.106
0.000321	-0.107
0.000343	-0.107
0.000365	-0.108
0.000387	-0.108
0.000409	-0.109
0.000431	-0.109
0.000462	-0.11
0.000493	-0.111
0.000524	-0.111
0.000554	-0.112
0.000585	-0.113
0.000616	-0.114
0.000658	-0.115
0.000701	-0.116
0.000744	-0.117
0.000786	-0.118
0.000829	-0.119
0.000871	-0.12
0.000929	-0.122
0.000988	-0.123
0.00105	-0.125
0.0011	-0.126
0.00116	-0.128
0.00122	-0.129
0.0013	-0.131
0.00138	-0.133
0.00146	-0.136
0.00154	-0.138
0.00162	-0.14
0.0017	-0.142
0.0018	-0.145
0.00191	-0.148
0.00202	-0.15
0.00212	-0.153
0.00223	-0.156
0.00234	-0.159
0.00248	-0.163
0.00262	-0.166
0.00276	-0.17
0.00291	-0.174
0.00305	-0.177
0.00319	-0.181
0.00338	-0.186
0.00357	-0.191
0.00376	-0.195
0.00395	-0.2
0.00414	-0.204
0.00433	-0.209
0.00458	-0.215
0.00482	-0.22
0.00507	-0.226
0.00532	-0.231
0.00557	-0.237
0.00582	-0.242
0.00614	-0.249
0.00647	-0.255
0.00679	-0.262
0.00711	-0.268
0.00744	-0.274
0.00776	-0.28
0.00818	-0.287
0.0086	-0.294
0.00902	-0.301
0.00944	-0.307
0.00986	-0.314
0.0103	-0.32
0.0108	-0.327
0.0114	-0.334
0.0119	-0.341
0.0124	-0.347
0.013	-0.354
0.0135	-0.359
0.0142	-0.366
0.0149	-0.373
0.0156	-0.379
0.0163	-0.385
0.017	-0.39
0.0177	-0.395
0.0185	-0.401
0.0194	-0.407
0.0203	-0.412
0.0212	-0.417
0.0221	-0.421
0.0229	-0.425
0.0241	-0.429
0.0252	-0.433
0.0263	-0.436
0.0274	-0.439
0.0286	-0.442
0.0297	-0.444
0.0311	-0.446
0.0326	-0.448
0.034	-0.449
0.0354	-0.45
0.0369	-0.45
0.0383	-0.45
0.0398	-0.45
0.0412	-0.449
0.0427	-0.448
0.0442	-0.447
0.0456	-0.446
0.0471	-0.444
0.0486	-0.442
0.0509	-0.439
0.0533	-0.435
0.0557	-0.431
0.0581	-0.427
0.0604	-0.423
0.0628	-0.418
0.066	-0.411
0.0692	-0.404
0.0724	-0.397
0.0756	-0.389
0.0787	-0.382
0.0819	-0.375
0.0853	-0.366
0.0888	-0.358
0.0922	-0.35
0.0956	-0.342
0.099	-0.334
0.1	-0.332
0.101	-0.329
0.103	-0.326
0.104	-0.324
0.105	-0.321
0.106	-0.319
0.107	-0.316
0.109	-0.311
0.111	-0.306
0.113	-0.302
0.116	-0.297
0.118	-0.292
0.122	-0.284
0.125	-0.276
0.129	-0.269
0.133	-0.261
0.134	-0.259
0.135	-0.257
0.136	-0.255
0.137	-0.254
0.138	-0.252
0.139	-0.25
0.14	-0.247
0.141	-0.245
0.142	-0.243
0.144	-0.241
0.147	-0.235
0.15	-0.229
0.154	-0.223
0.157	-0.217
0.161	-0.211
0.166	-0.203
0.167	-0.202
0.168	-0.2
0.169	-0.199
0.169	-0.198
0.17	-0.197
0.171	-0.196
0.172	-0.194
0.173	-0.192
0.174	-0.19
0.175	-0.189
0.177	-0.186
0.179	-0.183
0.182	-0.18
0.184	-0.177
0.186	-0.174
0.19	-0.168
0.194	-0.163
0.199	-0.157
0.2	-0.156
0.2	-0.155
0.201	-0.154
0.202	-0.153
0.203	-0.152
0.204	-0.151
0.205	-0.15
0.206	-0.148
0.207	-0.147
0.208	-0.146
0.209	-0.145
0.212	-0.141
0.215	-0.138
0.218	-0.134
0.221	-0.131
0.224	-0.128
0.228	-0.123
0.233	-0.119
0.234	-0.118
0.235	-0.117
0.236	-0.115
0.238	-0.114
0.239	-0.113
0.24	-0.112
0.242	-0.11
0.243	-0.109
0.245	-0.107
0.246	-0.106
0.251	-0.102
0.255	-0.0983
0.259	-0.0947
0.264	-0.0912
0.267	-0.0884
0.268	-0.0874
0.27	-0.0864
0.271	-0.0854
0.272	-0.0844
0.274	-0.0834
0.276	-0.0818
0.278	-0.0802
0.28	-0.0787
0.282	-0.0771
0.286	-0.0746
0.289	-0.0722
0.293	-0.0698
0.296	-0.0675
0.3	-0.0651
0.302	-0.0643
0.303	-0.0635
0.304	-0.0628
0.305	-0.062
0.306	-0.0613
0.308	-0.0602
0.31	-0.0591
0.312	-0.0581
0.314	-0.057
0.316	-0.056
0.321	-0.0532
0.326	-0.0505
0.331	-0.0479
0.333	-0.0472
0.334	-0.0465
0.336	-0.0458
0.337	-0.0451
0.339	-0.0445
0.34	-0.0437
0.342	-0.0429
0.344	-0.0422
0.345	-0.0415
0.347	-0.0408
0.351	-0.0391
0.355	-0.0374
0.359	-0.0359
0.363	-0.0344
0.367	-0.0329
0.368	-0.0325
0.37	-0.0321
0.371	-0.0317
0.372	-0.0313
0.373	-0.0309
0.375	-0.0303
0.377	-0.0298
0.378	-0.0292
0.38	-0.0287
0.382	-0.0281
0.386	-0.0268
0.391	-0.0256
0.395	-0.0244
0.399	-0.0232
0.401	-0.0229
0.402	-0.0226
0.403	-0.0223
0.405	-0.022
0.406	-0.0217
0.408	-0.0212
0.409	-0.0208
0.411	-0.0204
0.413	-0.02
0.415	-0.0196
0.42	-0.0186
0.425	-0.0176
0.43	-0.0166
0.434	-0.016
0.435	-0.0157
0.436	-0.0155
0.438	-0.0153
0.439	-0.0151
0.44	-0.0149
0.442	-0.0146
0.445	-0.0143
0.447	-0.014
0.449	-0.0136
0.453	-0.0131
0.457	-0.0125
0.461	-0.012
0.465	-0.0115
0.467	-0.0113
0.469	-0.0111
0.471	-0.0108
0.473	-0.0106
0.475	-0.0104
0.477	-0.0101
0.48	-0.00987
0.483	-0.00961
0.486	-0.00935
0.488	-0.00911
0.495	-0.00849
0.501	-0.00803
0.506	-0.0077
0.509	-0.00746
0.513	-0.00723
0.516	-0.007
0.52	-0.00678
0.525	-0.00647
0.53	-0.00617
0.535	-0.0059
0.541	-0.00566
0.546	-0.00543
0.551	-0.00521
0.556	-0.00501
0.561	-0.00481
0.566	-0.00462
0.574	-0.00434
0.583	-0.00408
0.591	-0.00383
0.6	-0.0036
0.608	-0.0034
0.618	-0.00318
0.628	-0.00297
0.638	-0.00278
0.648	-0.00261
0.658	-0.00245
0.668	-0.00229
0.679	-0.00214
0.687	-0.00203
0.696	-0.00192
0.704	-0.00182
0.712	-0.00172
0.723	-0.00161
0.733	-0.0015
0.744	-0.0014
0.754	-0.00131
0.766	-0.0012
0.778	-0.00111
0.79	-0.00102
0.803	-0.000933
0.82	-0.000825
0.837	-0.000729
0.855	-0.000644
0.872	-0.000568
0.889	-0.000502
0.909	-0.000434
0.929	-0.000376
0.949	-0.000325
0.969	-0.000281
0.989	-0.000243
1	-0.000225
