0	1.13
3.64e-09	1.13
7.27e-09	1.13
1.09e-08	1.13
1.93e-08	1.13
2.76e-08	1.13
3.6e-08	1.13
4.43e-08	1.13
6.57e-08	1.13
8.7e-08	1.13
1.08e-07	1.13
1.53e-07	1.13
1.98e-07	1.13
2.42e-07	1.13
2.87e-07	1.13
3.88e-07	1.13
4.9e-07	1.13
5.91e-07	1.13
6.92e-07	1.13
9.42e-07	1.13
1.19e-06	1.13
1.44e-06	1.13
1.69e-06	1.13
2.31e-06	1.13
2.92e-06	1.13
3.54e-06	1.13
4.15e-06	1.13
5.22e-06	1.13
6.28e-06	1.13
7.35e-06	1.13
8.41e-06	1.13
9.48e-06	1.13
1.1e-05	1.13
1.26e-05	1.13
1.41e-05	1.13
1.57e-05	1.13
1.72e-05	1.13
1.94e-05	1.13
2.16e-05	1.13
2.38e-05	1.13
2.6e-05	1.13
2.82e-05	1.13
3.13e-05	1.13
3.43e-05	1.13
3.74e-05	1.13
4.05e-05	1.13
4.35e-05	1.13
4.81e-05	1.13
5.26e-05	1.13
5.71e-05	1.13
6.17e-05	1.13
6.62e-05	1.13
7.31e-05	1.13
8e-05	1.13
8.68e-05	1.13
9.37e-05	1.13
0.000101	1.12
0.000111	1.12
0.000121	1.12
0.000131	1.12
0.000141	1.12
0.000152	1.12
0.000166	1.12
0.000181	1.12
0.000196	1.12
0.000211	1.12
0.000225	1.12
0.000247	1.12
0.000268	1.12
0.000289	1.11
0.00031	1.11
0.000331	1.11
0.000361	1.11
0.00039	1.11
0.00042	1.11
0.00045	1.11
0.00048	1.11
0.000519	1.11
0.000559	1.11
0.000599	1.11
0.000639	1.11
0.000679	1.11
0.000734	1.11
0.00079	1.11
0.000845	1.11
0.000901	1.11
0.000956	1.12
0.00103	1.12
0.0011	1.12
0.00118	1.12
0.00125	1.12
0.00132	1.12
0.00141	1.13
0.0015	1.13
0.0016	1.13
0.00169	1.14
0.00178	1.14
0.0019	1.14
0.00202	1.15
0.00214	1.15
0.00226	1.15
0.00238	1.16
0.00254	1.16
0.00269	1.17
0.00285	1.17
0.00301	1.18
0.00317	1.18
0.00338	1.19
0.00359	1.2
0.0038	1.2
0.00402	1.21
0.00423	1.22
0.00451	1.22
0.00478	1.23
0.00506	1.24
0.00534	1.24
0.00562	1.25
0.00597	1.26
0.00632	1.27
0.00667	1.27
0.00702	1.28
0.00737	1.29
0.00773	1.29
0.00831	1.3
0.00889	1.31
0.00948	1.31
0.0101	1.32
0.0106	1.32
0.0112	1.33
0.012	1.33
0.0127	1.33
0.0135	1.34
0.0143	1.34
0.015	1.34
0.0158	1.34
0.0168	1.33
0.0177	1.33
0.0187	1.33
0.0197	1.32
0.0207	1.32
0.0216	1.31
0.0229	1.3
0.0242	1.29
0.0254	1.28
0.0267	1.27
0.028	1.26
0.0292	1.25
0.0308	1.24
0.0324	1.22
0.034	1.21
0.0355	1.19
0.0371	1.18
0.0387	1.16
0.0402	1.15
0.0419	1.13
0.0436	1.11
0.0452	1.1
0.0469	1.08
0.0486	1.07
0.0503	1.05
0.0527	1.03
0.0551	1.01
0.0575	0.986
0.0599	0.966
0.0623	0.946
0.0647	0.926
0.0679	0.901
0.0711	0.877
0.0738	0.857
0.0764	0.838
0.0791	0.82
0.0818	0.801
0.0845	0.783
0.0879	0.761
0.0914	0.739
0.0949	0.718
0.0984	0.698
0.102	0.678
0.106	0.657
0.11	0.637
0.114	0.617
0.118	0.598
0.121	0.579
0.127	0.555
0.132	0.531
0.134	0.523
0.136	0.516
0.138	0.508
0.14	0.501
0.142	0.494
0.144	0.484
0.147	0.474
0.149	0.464
0.152	0.455
0.155	0.445
0.161	0.424
0.166	0.408
0.167	0.404
0.169	0.399
0.17	0.395
0.171	0.391
0.173	0.387
0.174	0.382
0.176	0.377
0.178	0.372
0.18	0.367
0.181	0.362
0.186	0.351
0.19	0.34
0.194	0.329
0.198	0.319
0.2	0.313
0.201	0.31
0.202	0.308
0.203	0.306
0.204	0.303
0.205	0.301
0.207	0.298
0.208	0.294
0.21	0.291
0.211	0.287
0.214	0.28
0.217	0.274
0.22	0.267
0.223	0.261
0.227	0.254
0.232	0.244
0.233	0.241
0.235	0.238
0.236	0.235
0.238	0.233
0.239	0.23
0.241	0.227
0.243	0.223
0.245	0.219
0.247	0.215
0.25	0.211
0.254	0.204
0.258	0.198
0.262	0.191
0.266	0.185
0.267	0.183
0.269	0.181
0.27	0.179
0.271	0.176
0.273	0.174
0.275	0.171
0.277	0.168
0.279	0.165
0.281	0.162
0.283	0.159
0.289	0.152
0.295	0.145
0.3	0.138
0.302	0.135
0.305	0.133
0.307	0.131
0.309	0.128
0.311	0.126
0.314	0.122
0.317	0.119
0.321	0.115
0.324	0.112
0.327	0.108
0.335	0.101
0.343	0.094
0.346	0.0918
0.348	0.0897
0.351	0.0876
0.354	0.0855
0.356	0.0835
0.362	0.0794
0.367	0.0755
0.369	0.0742
0.371	0.073
0.373	0.0717
0.375	0.0705
0.376	0.0692
0.38	0.0672
0.383	0.0653
0.386	0.0634
0.389	0.0615
0.395	0.058
0.402	0.0548
0.407	0.0523
0.41	0.0506
0.414	0.0489
0.418	0.0473
0.421	0.0458
0.425	0.0443
0.431	0.0419
0.436	0.0402
0.44	0.0387
0.444	0.0374
0.448	0.0362
0.452	0.035
0.455	0.0339
0.459	0.0328
0.466	0.031
0.468	0.0304
0.471	0.0298
0.473	0.0292
0.475	0.0287
0.478	0.0281
0.482	0.0272
0.485	0.0264
0.489	0.0256
0.493	0.0248
0.497	0.024
0.504	0.0228
0.511	0.0216
0.518	0.0205
0.526	0.0194
0.533	0.0184
0.539	0.0176
0.545	0.0169
0.552	0.0162
0.558	0.0155
0.564	0.0148
0.573	0.014
0.582	0.0133
0.59	0.0126
0.599	0.0119
0.607	0.0113
0.616	0.0106
0.625	0.0101
0.634	0.00952
0.644	0.009
0.653	0.00851
0.663	0.00798
0.674	0.00746
0.684	0.00698
0.695	0.00654
0.706	0.00611
0.717	0.00568
0.728	0.00528
0.74	0.00489
0.751	0.00453
0.763	0.0042
0.778	0.00378
0.793	0.00341
0.808	0.00306
0.823	0.00275
0.838	0.00246
0.858	0.00213
0.878	0.00184
0.898	0.00158
0.918	0.00136
0.938	0.00117
0.958	0.001
0.978	0.000861
1	0.000728
