0	0.818
1.14e-07	0.818
2.29e-07	0.818
3.43e-07	0.818
1.04e-06	0.818
1.74e-06	0.818
2.44e-06	0.818
3.14e-06	0.818
4.34e-06	0.818
5.53e-06	0.818
6.73e-06	0.818
7.93e-06	0.818
9.12e-06	0.818
1.06e-05	0.818
1.2e-05	0.818
1.35e-05	0.818
1.49e-05	0.818
1.64e-05	0.818
1.85e-05	0.818
2.06e-05	0.818
2.27e-05	0.817
2.48e-05	0.817
2.7e-05	0.817
3e-05	0.817
3.3e-05	0.817
3.61e-05	0.817
3.91e-05	0.817
4.21e-05	0.817
4.66e-05	0.817
5.11e-05	0.817
5.56e-05	0.817
6.01e-05	0.817
6.46e-05	0.817
7.13e-05	0.817
7.8e-05	0.817
8.47e-05	0.817
9.15e-05	0.817
9.82e-05	0.817
0.000108	0.817
0.000118	0.816
0.000128	0.816
0.000138	0.816
0.000148	0.816
0.000163	0.816
0.000178	0.816
0.000192	0.816
0.000207	0.816
0.000222	0.815
0.000243	0.815
0.000264	0.815
0.000285	0.815
0.000306	0.815
0.000327	0.814
0.000357	0.814
0.000387	0.814
0.000417	0.813
0.000446	0.813
0.000476	0.813
0.000518	0.812
0.000559	0.812
0.000601	0.812
0.000642	0.811
0.000684	0.811
0.000741	0.81
0.000798	0.81
0.000854	0.809
0.000911	0.809
0.000968	0.808
0.00105	0.808
0.00112	0.807
0.0012	0.806
0.00128	0.805
0.00136	0.805
0.00146	0.804
0.00157	0.803
0.00167	0.802
0.00178	0.801
0.00188	0.8
0.00203	0.799
0.00217	0.798
0.00231	0.797
0.00245	0.796
0.0026	0.795
0.00277	0.793
0.00295	0.792
0.00313	0.791
0.00331	0.79
0.00349	0.788
0.00367	0.787
0.00395	0.785
0.00423	0.783
0.00451	0.781
0.0048	0.78
0.00508	0.778
0.00536	0.776
0.00568	0.774
0.00599	0.772
0.00631	0.77
0.00662	0.768
0.00694	0.767
0.00732	0.764
0.0077	0.762
0.00808	0.76
0.00847	0.758
0.00885	0.756
0.00934	0.753
0.00983	0.751
0.0103	0.748
0.0108	0.746
0.0112	0.744
0.0115	0.742
0.0118	0.741
0.0121	0.74
0.0123	0.738
0.0126	0.737
0.0129	0.736
0.0131	0.734
0.0134	0.733
0.0137	0.732
0.0139	0.73
0.0142	0.729
0.0145	0.728
0.0148	0.726
0.015	0.725
0.0153	0.724
0.0156	0.722
0.0159	0.721
0.0162	0.72
0.0164	0.718
0.0168	0.717
0.0171	0.715
0.0174	0.714
0.0177	0.712
0.018	0.711
0.0185	0.709
0.019	0.707
0.0194	0.705
0.0199	0.702
0.0204	0.7
0.0208	0.698
0.0214	0.695
0.022	0.693
0.0225	0.691
0.0229	0.689
0.0234	0.686
0.0239	0.684
0.0244	0.682
0.0248	0.68
0.0253	0.678
0.0258	0.676
0.0263	0.674
0.0268	0.671
0.0273	0.669
0.0279	0.667
0.0285	0.664
0.0292	0.661
0.0298	0.659
0.0304	0.656
0.031	0.653
0.0317	0.65
0.0323	0.648
0.033	0.645
0.0336	0.642
0.0343	0.639
0.035	0.636
0.0357	0.634
0.0364	0.631
0.037	0.628
0.0378	0.625
0.0386	0.621
0.0394	0.618
0.0402	0.615
0.041	0.612
0.0425	0.606
0.044	0.6
0.0455	0.594
0.047	0.588
0.0485	0.582
0.0502	0.576
0.0519	0.569
0.0536	0.563
0.0554	0.556
0.0571	0.55
0.0593	0.542
0.0616	0.534
0.0638	0.526
0.0661	0.518
0.0683	0.51
0.0706	0.503
0.073	0.495
0.0753	0.487
0.0776	0.48
0.0799	0.472
0.0823	0.465
0.0841	0.46
0.0856	0.455
0.0872	0.45
0.0887	0.446
0.0902	0.441
0.0918	0.437
0.0938	0.431
0.0959	0.425
0.0976	0.42
0.0989	0.416
0.1	0.413
0.102	0.409
0.103	0.405
0.105	0.401
0.106	0.397
0.108	0.393
0.109	0.389
0.111	0.385
0.112	0.381
0.114	0.378
0.115	0.374
0.117	0.371
0.118	0.367
0.119	0.364
0.121	0.36
0.123	0.356
0.124	0.352
0.126	0.348
0.128	0.344
0.129	0.34
0.131	0.337
0.132	0.334
0.134	0.33
0.136	0.327
0.137	0.324
0.139	0.32
0.141	0.316
0.143	0.312
0.144	0.308
0.146	0.305
0.148	0.301
0.15	0.298
0.152	0.294
0.154	0.29
0.155	0.287
0.157	0.284
0.16	0.279
0.162	0.275
0.164	0.27
0.167	0.266
0.169	0.262
0.172	0.258
0.174	0.253
0.177	0.249
0.179	0.245
0.182	0.241
0.185	0.237
0.187	0.233
0.19	0.228
0.193	0.224
0.196	0.22
0.199	0.215
0.202	0.211
0.205	0.208
0.207	0.204
0.21	0.201
0.213	0.196
0.216	0.192
0.22	0.188
0.223	0.184
0.227	0.179
0.231	0.175
0.235	0.17
0.238	0.167
0.241	0.163
0.244	0.16
0.247	0.157
0.251	0.152
0.256	0.148
0.26	0.144
0.264	0.139
0.27	0.134
0.275	0.129
0.281	0.125
0.286	0.12
0.292	0.115
0.298	0.11
0.305	0.105
0.312	0.0997
0.319	0.0949
0.326	0.0903
0.334	0.0852
0.342	0.0802
0.35	0.0756
0.358	0.0711
0.366	0.0669
0.376	0.0623
0.385	0.058
0.395	0.0539
0.404	0.0501
0.414	0.0466
0.423	0.0433
0.432	0.0402
0.443	0.0369
0.453	0.034
0.464	0.0312
0.475	0.0287
0.485	0.0264
0.5	0.0235
0.512	0.0214
0.523	0.0195
0.535	0.0178
0.547	0.0163
0.559	0.0149
0.579	0.0128
0.599	0.0111
0.614	0.00991
0.63	0.00887
0.646	0.00797
0.662	0.00717
0.677	0.00647
0.697	0.00573
0.716	0.00508
0.735	0.00452
0.754	0.00402
0.773	0.00358
0.793	0.00317
0.813	0.00281
0.833	0.00249
0.853	0.0022
0.873	0.00195
0.893	0.00172
0.913	0.00152
0.933	0.00134
0.953	0.00118
0.973	0.00104
0.993	0.000919
1	0.000877
