0	0.0906
7.27e-09	0.0906
1.93e-08	0.0906
3.6e-08	0.0906
6.57e-08	0.0906
1.08e-07	0.0906
1.98e-07	0.0906
2.87e-07	0.0906
4.9e-07	0.0906
6.92e-07	0.0906
1.19e-06	0.0907
1.69e-06	0.0907
2.92e-06	0.0908
4.15e-06	0.0908
6.28e-06	0.0909
8.41e-06	0.091
1.1e-05	0.091
1.41e-05	0.0911
1.72e-05	0.0911
2.16e-05	0.0912
2.6e-05	0.0912
3.13e-05	0.0913
3.74e-05	0.0913
4.35e-05	0.0913
5.26e-05	0.0913
6.17e-05	0.0913
7.31e-05	0.0913
8.68e-05	0.0913
0.000101	0.0912
0.000121	0.0911
0.000141	0.091
0.000166	0.0909
0.000196	0.0907
0.000225	0.0906
0.000268	0.0903
0.00031	0.09
0.000361	0.0897
0.00042	0.0893
0.00048	0.0889
0.000559	0.0884
0.000639	0.0879
0.000734	0.0874
0.000845	0.0867
0.000956	0.0861
0.0011	0.0853
0.00125	0.0845
0.0015	0.0832
0.00169	0.0823
0.00202	0.0807
0.00226	0.0796
0.00269	0.0777
0.00301	0.0764
0.00359	0.0741
0.00402	0.0725
0.00478	0.0698
0.00534	0.068
0.00632	0.065
0.00702	0.063
0.00831	0.0597
0.00948	0.057
0.0112	0.0535
0.0127	0.0507
0.015	0.0471
0.0168	0.0448
0.0197	0.0413
0.0216	0.0393
0.0254	0.0359
0.028	0.034
0.0324	0.031
0.0355	0.0292
0.0402	0.0268
0.0436	0.0253
0.0486	0.0232
0.0527	0.0217
0.0599	0.0194
0.0647	0.0181
0.0738	0.0159
0.0791	0.0147
0.0879	0.0131
0.0949	0.012
0.106	0.0105
0.114	0.00956
0.127	0.00823
0.134	0.00761
0.14	0.00718
0.144	0.00686
0.152	0.00633
0.161	0.0058
0.169	0.0054
0.171	0.00526
0.176	0.00504
0.18	0.00488
0.19	0.00447
0.198	0.00416
0.202	0.004
0.204	0.00394
0.208	0.00381
0.211	0.00372
0.22	0.00344
0.227	0.00327
0.235	0.00305
0.238	0.00298
0.243	0.00287
0.247	0.00277
0.258	0.00255
0.266	0.00239
0.27	0.00231
0.273	0.00226
0.279	0.00215
0.283	0.00208
0.3	0.00182
0.305	0.00176
0.311	0.00168
0.317	0.00159
0.327	0.00147
0.343	0.0013
0.351	0.00122
0.356	0.00117
0.369	0.00106
0.373	0.00102
0.38	0.000968
0.386	0.000919
0.402	0.000808
0.41	0.000751
0.421	0.000686
0.431	0.000633
0.444	0.000568
0.452	0.000533
0.466	0.000474
0.471	0.000455
0.478	0.000428
0.485	0.000401
0.497	0.000364
0.511	0.000323
0.533	0.00027
0.545	0.000243
0.564	0.000208
0.582	0.00018
0.607	0.000147
0.625	0.000127
0.653	0.000104
0.674	8.96e-05
0.706	7.24e-05
0.728	6.25e-05
0.763	5.05e-05
0.793	4.19e-05
0.838	3.15e-05
0.878	2.42e-05
0.938	1.61e-05
1	1.05e-05
