x	y	z	c
0	0	2.22e-16	2.22e-16
0	0.05	0.0269	0.0269
0	0.1	0.0798	0.0798
0	0.15	0.156	0.156
0	0.2	0.254	0.254
0	0.25	0.363	0.363
0	0.3	0.473	0.473
0	0.35	0.58	0.58
0	0.4	0.671	0.671
0	0.45	0.742	0.742
0	0.5	0.789	0.789
0	0.55	0.797	0.797
0	0.6	0.753	0.753
0	0.65	0.665	0.665
0	0.7	0.53	0.53
0	0.75	0.366	0.366
0	0.8	0.233	0.233
0	0.85	0.129	0.129
0	0.9	0.0581	0.0581
0	0.95	0.0153	0.0153
0	1	0	0
0.00313	0	-0.0324	-0.0324
0.00313	0.05	0.0533	0.0533
0.00313	0.1	0.137	0.137
0.00313	0.15	0.222	0.222
0.00313	0.2	0.312	0.312
0.00313	0.25	0.409	0.409
0.00313	0.3	0.507	0.507
0.00313	0.35	0.602	0.602
0.00313	0.4	0.681	0.681
0.00313	0.45	0.74	0.74
0.00313	0.5	0.774	0.774
0.00313	0.55	0.77	0.77
0.00313	0.6	0.721	0.721
0.00313	0.65	0.642	0.642
0.00313	0.7	0.536	0.536
0.00313	0.75	0.395	0.395
0.00313	0.8	0.268	0.268
0.00313	0.85	0.162	0.162
0.00313	0.9	0.0804	0.0804
0.00313	0.95	0.01	0.01
0.00313	1	-0.061	-0.061
0.00625	0	-0.011	-0.011
0.00625	0.05	0.0825	0.0825
0.00625	0.1	0.174	0.174
0.00625	0.15	0.265	0.265
0.00625	0.2	0.357	0.357
0.00625	0.25	0.448	0.448
0.00625	0.3	0.537	0.537
0.00625	0.35	0.622	0.622
0.00625	0.4	0.689	0.689
0.00625	0.45	0.735	0.735
0.00625	0.5	0.76	0.76
0.00625	0.55	0.75	0.75
0.00625	0.6	0.703	0.703
0.00625	0.65	0.632	0.632
0.00625	0.7	0.537	0.537
0.00625	0.75	0.411	0.411
0.00625	0.8	0.292	0.292
0.00625	0.85	0.185	0.185
0.00625	0.9	0.093	0.093
0.00625	0.95	0.0111	0.0111
0.00625	1	-0.0656	-0.0656
0.0125	0	0.0207	0.0207
0.0125	0.05	0.121	0.121
0.0125	0.1	0.219	0.219
0.0125	0.15	0.314	0.314
0.0125	0.2	0.405	0.405
0.0125	0.25	0.49	0.49
0.0125	0.3	0.568	0.568
0.0125	0.35	0.637	0.637
0.0125	0.4	0.687	0.687
0.0125	0.45	0.719	0.719
0.0125	0.5	0.732	0.732
0.0125	0.55	0.717	0.717
0.0125	0.6	0.673	0.673
0.0125	0.65	0.61	0.61
0.0125	0.7	0.529	0.529
0.0125	0.75	0.424	0.424
0.0125	0.8	0.317	0.317
0.0125	0.85	0.213	0.213
0.0125	0.9	0.116	0.116
0.0125	0.95	0.0265	0.0265
0.0125	1	-0.0564	-0.0564
0.025	0	0.0429	0.0429
0.025	0.05	0.142	0.142
0.025	0.1	0.239	0.239
0.025	0.15	0.331	0.331
0.025	0.2	0.417	0.417
0.025	0.25	0.492	0.492
0.025	0.3	0.558	0.558
0.025	0.35	0.613	0.613
0.025	0.4	0.648	0.648
0.025	0.45	0.667	0.667
0.025	0.5	0.671	0.671
0.025	0.55	0.654	0.654
0.025	0.6	0.615	0.615
0.025	0.65	0.562	0.562
0.025	0.7	0.495	0.495
0.025	0.75	0.416	0.416
0.025	0.8	0.329	0.329
0.025	0.85	0.238	0.238
0.025	0.9	0.147	0.147
0.025	0.95	0.0566	0.0566
0.025	1	-0.0304	-0.0304
0.0375	0	0.0431	0.0431
0.0375	0.05	0.135	0.135
0.0375	0.1	0.224	0.224
0.0375	0.15	0.31	0.31
0.0375	0.2	0.388	0.388
0.0375	0.25	0.456	0.456
0.0375	0.3	0.515	0.515
0.0375	0.35	0.562	0.562
0.0375	0.4	0.592	0.592
0.0375	0.45	0.608	0.608
0.0375	0.5	0.61	0.61
0.0375	0.55	0.594	0.594
0.0375	0.6	0.561	0.561
0.0375	0.65	0.515	0.515
0.0375	0.7	0.458	0.458
0.0375	0.75	0.394	0.394
0.0375	0.8	0.32	0.32
0.0375	0.85	0.241	0.241
0.0375	0.9	0.157	0.157
0.0375	0.95	0.0718	0.0718
0.0375	1	-0.0136	-0.0136
0.05	0	0.0377	0.0377
0.05	0.05	0.121	0.121
0.05	0.1	0.202	0.202
0.05	0.15	0.28	0.28
0.05	0.2	0.351	0.351
0.05	0.25	0.413	0.413
0.05	0.3	0.466	0.466
0.05	0.35	0.509	0.509
0.05	0.4	0.536	0.536
0.05	0.45	0.55	0.55
0.05	0.5	0.553	0.553
0.05	0.55	0.54	0.54
0.05	0.6	0.512	0.512
0.05	0.65	0.473	0.473
0.05	0.7	0.423	0.423
0.05	0.75	0.368	0.368
0.05	0.8	0.304	0.304
0.05	0.85	0.234	0.234
0.05	0.9	0.157	0.157
0.05	0.95	0.077	0.077
0.05	1	-0.00456	-0.00456
0.075	0	0.027	0.027
0.075	0.05	0.095	0.095
0.075	0.1	0.161	0.161
0.075	0.15	0.225	0.225
0.075	0.2	0.283	0.283
0.075	0.25	0.334	0.334
0.075	0.3	0.378	0.378
0.075	0.35	0.415	0.415
0.075	0.4	0.438	0.438
0.075	0.45	0.452	0.452
0.075	0.5	0.456	0.456
0.075	0.55	0.448	0.448
0.075	0.6	0.427	0.427
0.075	0.65	0.397	0.397
0.075	0.7	0.359	0.359
0.075	0.75	0.316	0.316
0.075	0.8	0.265	0.265
0.075	0.85	0.207	0.207
0.075	0.9	0.143	0.143
0.075	0.95	0.0741	0.0741
0.075	1	0.00281	0.00281
0.1	0	0.0201	0.0201
0.1	0.05	0.076	0.076
0.1	0.1	0.13	0.13
0.1	0.15	0.183	0.183
0.1	0.2	0.231	0.231
0.1	0.25	0.273	0.273
0.1	0.3	0.31	0.31
0.1	0.35	0.341	0.341
0.1	0.4	0.361	0.361
0.1	0.45	0.373	0.373
0.1	0.5	0.378	0.378
0.1	0.55	0.373	0.373
0.1	0.6	0.357	0.357
0.1	0.65	0.334	0.334
0.1	0.7	0.304	0.304
0.1	0.75	0.269	0.269
0.1	0.8	0.227	0.227
0.1	0.85	0.178	0.178
0.1	0.9	0.124	0.124
0.1	0.95	0.0655	0.0655
0.1	1	0.00454	0.00454
0.125	0	0.0159	0.0159
0.125	0.05	0.0623	0.0623
0.125	0.1	0.107	0.107
0.125	0.15	0.151	0.151
0.125	0.2	0.191	0.191
0.125	0.25	0.226	0.226
0.125	0.3	0.257	0.257
0.125	0.35	0.282	0.282
0.125	0.4	0.3	0.3
0.125	0.45	0.31	0.31
0.125	0.5	0.315	0.315
0.125	0.55	0.311	0.311
0.125	0.6	0.299	0.299
0.125	0.65	0.28	0.28
0.125	0.7	0.256	0.256
0.125	0.75	0.227	0.227
0.125	0.8	0.192	0.192
0.125	0.85	0.151	0.151
0.125	0.9	0.106	0.106
0.125	0.95	0.0562	0.0562
0.125	1	0.00449	0.00449
0.15	0	0.0132	0.0132
0.15	0.05	0.0518	0.0518
0.15	0.1	0.0894	0.0894
0.15	0.15	0.126	0.126
0.15	0.2	0.159	0.159
0.15	0.25	0.188	0.188
0.15	0.3	0.214	0.214
0.15	0.35	0.235	0.235
0.15	0.4	0.25	0.25
0.15	0.45	0.259	0.259
0.15	0.5	0.263	0.263
0.15	0.55	0.26	0.26
0.15	0.6	0.25	0.25
0.15	0.65	0.235	0.235
0.15	0.7	0.215	0.215
0.15	0.75	0.191	0.191
0.15	0.8	0.162	0.162
0.15	0.85	0.128	0.128
0.15	0.9	0.0892	0.0892
0.15	0.95	0.0477	0.0477
0.15	1	0.00403	0.00403
0.2	0	0.00996	0.00996
0.2	0.05	0.0369	0.0369
0.2	0.1	0.063	0.063
0.2	0.15	0.0881	0.0881
0.2	0.2	0.111	0.111
0.2	0.25	0.132	0.132
0.2	0.3	0.15	0.15
0.2	0.35	0.165	0.165
0.2	0.4	0.175	0.175
0.2	0.45	0.182	0.182
0.2	0.5	0.185	0.185
0.2	0.55	0.183	0.183
0.2	0.6	0.176	0.176
0.2	0.65	0.166	0.166
0.2	0.7	0.152	0.152
0.2	0.75	0.135	0.135
0.2	0.8	0.115	0.115
0.2	0.85	0.0909	0.0909
0.2	0.9	0.0638	0.0638
0.2	0.95	0.0345	0.0345
0.2	1	0.0038	0.0038
0.25	0	0.00887	0.00887
0.25	0.05	0.0273	0.0273
0.25	0.1	0.0452	0.0452
0.25	0.15	0.0625	0.0625
0.25	0.2	0.0784	0.0784
0.25	0.25	0.0924	0.0924
0.25	0.3	0.105	0.105
0.25	0.35	0.115	0.115
0.25	0.4	0.122	0.122
0.25	0.45	0.127	0.127
0.25	0.5	0.13	0.13
0.25	0.55	0.129	0.129
0.25	0.6	0.124	0.124
0.25	0.65	0.117	0.117
0.25	0.7	0.108	0.108
0.25	0.75	0.0961	0.0961
0.25	0.8	0.082	0.082
0.25	0.85	0.0655	0.0655
0.25	0.9	0.0467	0.0467
0.25	0.95	0.0265	0.0265
0.25	1	0.00527	0.00527
0.3	0	0.00877	0.00877
0.3	0.05	0.0211	0.0211
0.3	0.1	0.0331	0.0331
0.3	0.15	0.0446	0.0446
0.3	0.2	0.0553	0.0553
0.3	0.25	0.0647	0.0647
0.3	0.3	0.0731	0.0731
0.3	0.35	0.0801	0.0801
0.3	0.4	0.0851	0.0851
0.3	0.45	0.0884	0.0884
0.3	0.5	0.0902	0.0902
0.3	0.55	0.0897	0.0897
0.3	0.6	0.0868	0.0868
0.3	0.65	0.0823	0.0823
0.3	0.7	0.0759	0.0759
0.3	0.75	0.0683	0.0683
0.3	0.8	0.0588	0.0588
0.3	0.85	0.0476	0.0476
0.3	0.9	0.035	0.035
0.3	0.95	0.0213	0.0213
0.3	1	0.00695	0.00695
0.35	0	0.00857	0.00857
0.35	0.05	0.0166	0.0166
0.35	0.1	0.0244	0.0244
0.35	0.15	0.0319	0.0319
0.35	0.2	0.0388	0.0388
0.35	0.25	0.045	0.045
0.35	0.3	0.0504	0.0504
0.35	0.35	0.0551	0.0551
0.35	0.4	0.0584	0.0584
0.35	0.45	0.0606	0.0606
0.35	0.5	0.0619	0.0619
0.35	0.55	0.0616	0.0616
0.35	0.6	0.0599	0.0599
0.35	0.65	0.057	0.057
0.35	0.7	0.0529	0.0529
0.35	0.75	0.048	0.048
0.35	0.8	0.0418	0.0418
0.35	0.85	0.0345	0.0345
0.35	0.9	0.0261	0.0261
0.35	0.95	0.0171	0.0171
0.35	1	0.00756	0.00756
0.4	0	0.00762	0.00762
0.4	0.05	0.0128	0.0128
0.4	0.1	0.0177	0.0177
0.4	0.15	0.0225	0.0225
0.4	0.2	0.0269	0.0269
0.4	0.25	0.0308	0.0308
0.4	0.3	0.0343	0.0343
0.4	0.35	0.0373	0.0373
0.4	0.4	0.0395	0.0395
0.4	0.45	0.041	0.041
0.4	0.5	0.0418	0.0418
0.4	0.55	0.0417	0.0417
0.4	0.6	0.0406	0.0406
0.4	0.65	0.0388	0.0388
0.4	0.7	0.0362	0.0362
0.4	0.75	0.0331	0.0331
0.4	0.8	0.0291	0.0291
0.4	0.85	0.0244	0.0244
0.4	0.9	0.019	0.019
0.4	0.95	0.0131	0.0131
0.4	1	0.00679	0.00679
0.45	0	0.006	0.006
0.45	0.05	0.00931	0.00931
0.45	0.1	0.0125	0.0125
0.45	0.15	0.0156	0.0156
0.45	0.2	0.0184	0.0184
0.45	0.25	0.0209	0.0209
0.45	0.3	0.0231	0.0231
0.45	0.35	0.025	0.025
0.45	0.4	0.0264	0.0264
0.45	0.45	0.0273	0.0273
0.45	0.5	0.0279	0.0279
0.45	0.55	0.0278	0.0278
0.45	0.6	0.0272	0.0272
0.45	0.65	0.026	0.026
0.45	0.7	0.0244	0.0244
0.45	0.75	0.0223	0.0223
0.45	0.8	0.0197	0.0197
0.45	0.85	0.0167	0.0167
0.45	0.9	0.0131	0.0131
0.45	0.95	0.00926	0.00926
0.45	1	0.00511	0.00511
0.5	0	0.00422	0.00422
0.5	0.05	0.0064	0.0064
0.5	0.1	0.00851	0.00851
0.5	0.15	0.0105	0.0105
0.5	0.2	0.0124	0.0124
0.5	0.25	0.014	0.014
0.5	0.3	0.0154	0.0154
0.5	0.35	0.0167	0.0167
0.5	0.4	0.0176	0.0176
0.5	0.45	0.0182	0.0182
0.5	0.5	0.0185	0.0185
0.5	0.55	0.0185	0.0185
0.5	0.6	0.018	0.018
0.5	0.65	0.0173	0.0173
0.5	0.7	0.0162	0.0162
0.5	0.75	0.0148	0.0148
0.5	0.8	0.0131	0.0131
0.5	0.85	0.011	0.011
0.5	0.9	0.00868	0.00868
0.5	0.95	0.00608	0.00608
0.5	1	0.0033	0.0033
0.55	0	0.00264	0.00264
0.55	0.05	0.00415	0.00415
0.55	0.1	0.00559	0.00559
0.55	0.15	0.00697	0.00697
0.55	0.2	0.00822	0.00822
0.55	0.25	0.00933	0.00933
0.55	0.3	0.0103	0.0103
0.55	0.35	0.0112	0.0112
0.55	0.4	0.0118	0.0118
0.55	0.45	0.0122	0.0122
0.55	0.5	0.0124	0.0124
0.55	0.55	0.0123	0.0123
0.55	0.6	0.012	0.012
0.55	0.65	0.0115	0.0115
0.55	0.7	0.0107	0.0107
0.55	0.75	0.00974	0.00974
0.55	0.8	0.00855	0.00855
0.55	0.85	0.00714	0.00714
0.55	0.9	0.00552	0.00552
0.55	0.95	0.00373	0.00373
0.55	1	0.00182	0.00182
0.6	0	0.0015	0.0015
0.6	0.05	0.00257	0.00257
0.6	0.1	0.0036	0.0036
0.6	0.15	0.00458	0.00458
0.6	0.2	0.00547	0.00547
0.6	0.25	0.00626	0.00626
0.6	0.3	0.00696	0.00696
0.6	0.35	0.00755	0.00755
0.6	0.4	0.00797	0.00797
0.6	0.45	0.00825	0.00825
0.6	0.5	0.0084	0.0084
0.6	0.55	0.00835	0.00835
0.6	0.6	0.0081	0.0081
0.6	0.65	0.0077	0.0077
0.6	0.7	0.00714	0.00714
0.6	0.75	0.00645	0.00645
0.6	0.8	0.00559	0.00559
0.6	0.85	0.00459	0.00459
0.6	0.9	0.00345	0.00345
0.6	0.95	0.00219	0.00219
0.6	1	0.000856	0.000856
0.65	0	0.000776	0.000776
0.65	0.05	0.00156	0.00156
0.65	0.1	0.00231	0.00231
0.65	0.15	0.00302	0.00302
0.65	0.2	0.00368	0.00368
0.65	0.25	0.00426	0.00426
0.65	0.3	0.00478	0.00478
0.65	0.35	0.00521	0.00521
0.65	0.4	0.00551	0.00551
0.65	0.45	0.00571	0.00571
0.65	0.5	0.00581	0.00581
0.65	0.55	0.00577	0.00577
0.65	0.6	0.00558	0.00558
0.65	0.65	0.00527	0.00527
0.65	0.7	0.00485	0.00485
0.65	0.75	0.00434	0.00434
0.65	0.8	0.00372	0.00372
0.65	0.85	0.00299	0.00299
0.65	0.9	0.00217	0.00217
0.65	0.95	0.00128	0.00128
0.65	1	0.000332	0.000332
0.7	0	0.000378	0.000378
0.7	0.05	0.000951	0.000951
0.7	0.1	0.00151	0.00151
0.7	0.15	0.00204	0.00204
0.7	0.2	0.00252	0.00252
0.7	0.25	0.00296	0.00296
0.7	0.3	0.00334	0.00334
0.7	0.35	0.00366	0.00366
0.7	0.4	0.00389	0.00389
0.7	0.45	0.00404	0.00404
0.7	0.5	0.00411	0.00411
0.7	0.55	0.00407	0.00407
0.7	0.6	0.00392	0.00392
0.7	0.65	0.00369	0.00369
0.7	0.7	0.00338	0.00338
0.7	0.75	0.003	0.003
0.7	0.8	0.00254	0.00254
0.7	0.85	0.00201	0.00201
0.7	0.9	0.00141	0.00141
0.7	0.95	0.000775	0.000775
0.7	1	0.000106	0.000106
0.75	0	0.00019	0.00019
0.75	0.05	0.000608	0.000608
0.75	0.1	0.00101	0.00101
0.75	0.15	0.0014	0.0014
0.75	0.2	0.00177	0.00177
0.75	0.25	0.00209	0.00209
0.75	0.3	0.00237	0.00237
0.75	0.35	0.00261	0.00261
0.75	0.4	0.00278	0.00278
0.75	0.45	0.00289	0.00289
0.75	0.5	0.00294	0.00294
0.75	0.55	0.00291	0.00291
0.75	0.6	0.0028	0.0028
0.75	0.65	0.00263	0.00263
0.75	0.7	0.0024	0.0024
0.75	0.75	0.00212	0.00212
0.75	0.8	0.00178	0.00178
0.75	0.85	0.0014	0.0014
0.75	0.9	0.000971	0.000971
0.75	0.95	0.000514	0.000514
0.75	1	3.91e-05	3.91e-05
0.8	0	0.000111	0.000111
0.8	0.05	0.000415	0.000415
0.8	0.1	0.00071	0.00071
0.8	0.15	0.000995	0.000995
0.8	0.2	0.00126	0.00126
0.8	0.25	0.0015	0.0015
0.8	0.3	0.0017	0.0017
0.8	0.35	0.00188	0.00188
0.8	0.4	0.002	0.002
0.8	0.45	0.00208	0.00208
0.8	0.5	0.00212	0.00212
0.8	0.55	0.0021	0.0021
0.8	0.6	0.00201	0.00201
0.8	0.65	0.00189	0.00189
0.8	0.7	0.00172	0.00172
0.8	0.75	0.00152	0.00152
0.8	0.8	0.00128	0.00128
0.8	0.85	0.001	0.001
0.8	0.9	0.000697	0.000697
0.8	0.95	0.00037	0.00037
0.8	1	3.1e-05	3.1e-05
0.85	0	7.61e-05	7.61e-05
0.85	0.05	0.000295	0.000295
0.85	0.1	0.000508	0.000508
0.85	0.15	0.000714	0.000714
0.85	0.2	0.000905	0.000905
0.85	0.25	0.00108	0.00108
0.85	0.3	0.00123	0.00123
0.85	0.35	0.00135	0.00135
0.85	0.4	0.00144	0.00144
0.85	0.45	0.0015	0.0015
0.85	0.5	0.00152	0.00152
0.85	0.55	0.00151	0.00151
0.85	0.6	0.00145	0.00145
0.85	0.65	0.00136	0.00136
0.85	0.7	0.00124	0.00124
0.85	0.75	0.00109	0.00109
0.85	0.8	0.000923	0.000923
0.85	0.85	0.000726	0.000726
0.85	0.9	0.000506	0.000506
0.85	0.95	0.000273	0.000273
0.85	1	3.06e-05	3.06e-05
0.9	0	5.49e-05	5.49e-05
0.9	0.05	0.000212	0.000212
0.9	0.1	0.000364	0.000364
0.9	0.15	0.000512	0.000512
0.9	0.2	0.000649	0.000649
0.9	0.25	0.00077	0.00077
0.9	0.3	0.000877	0.000877
0.9	0.35	0.000968	0.000968
0.9	0.4	0.00103	0.00103
0.9	0.45	0.00107	0.00107
0.9	0.5	0.00109	0.00109
0.9	0.55	0.00108	0.00108
0.9	0.6	0.00103	0.00103
0.9	0.65	0.00097	0.00097
0.9	0.7	0.000885	0.000885
0.9	0.75	0.000783	0.000783
0.9	0.8	0.000662	0.000662
0.9	0.85	0.000522	0.000522
0.9	0.9	0.000366	0.000366
0.9	0.95	0.0002	0.0002
0.9	1	2.71e-05	2.71e-05
0.95	0	4.01e-05	4.01e-05
0.95	0.05	0.000152	0.000152
0.95	0.1	0.000261	0.000261
0.95	0.15	0.000367	0.000367
0.95	0.2	0.000464	0.000464
0.95	0.25	0.000551	0.000551
0.95	0.3	0.000627	0.000627
0.95	0.35	0.000691	0.000691
0.95	0.4	0.000735	0.000735
0.95	0.45	0.000763	0.000763
0.95	0.5	0.000776	0.000776
0.95	0.55	0.000767	0.000767
0.95	0.6	0.000737	0.000737
0.95	0.65	0.000692	0.000692
0.95	0.7	0.000632	0.000632
0.95	0.75	0.00056	0.00056
0.95	0.8	0.000474	0.000474
0.95	0.85	0.000374	0.000374
0.95	0.9	0.000264	0.000264
0.95	0.95	0.000145	0.000145
0.95	1	2.2e-05	2.2e-05
1	0	2.9e-05	2.9e-05
1	0.05	0.000109	0.000109
1	0.1	0.000186	0.000186
1	0.15	0.000261	0.000261
1	0.2	0.00033	0.00033
1	0.25	0.000391	0.000391
1	0.3	0.000444	0.000444
1	0.35	0.000489	0.000489
1	0.4	0.00052	0.00052
1	0.45	0.00054	0.00054
1	0.5	0.000549	0.000549
1	0.55	0.000543	0.000543
1	0.6	0.000522	0.000522
1	0.65	0.00049	0.00049
1	0.7	0.000448	0.000448
1	0.75	0.000397	0.000397
1	0.8	0.000336	0.000336
1	0.85	0.000267	0.000267
1	0.9	0.000188	0.000188
1	0.95	0.000104	0.000104
1	1	1.68e-05	1.68e-05
