x	y	z	c
0	0	-3.9e-16	-3.9e-16
0	0.05	-0.023	-0.023
0	0.1	-0.0503	-0.0503
0	0.15	-0.0621	-0.0621
0	0.2	-0.051	-0.051
0	0.25	-0.0091	-0.0091
0	0.3	0.0568	0.0568
0	0.35	0.127	0.127
0	0.4	0.189	0.189
0	0.45	0.222	0.222
0	0.5	0.211	0.211
0	0.55	0.167	0.167
0	0.6	0.107	0.107
0	0.65	0.042	0.042
0	0.7	0	0
0	0.75	-0.0125	-0.0125
0	0.8	-0.0297	-0.0297
0	0.85	-0.0356	-0.0356
0	0.9	-0.0286	-0.0286
0	0.95	-0.0114	-0.0114
0	1	1.68e-16	1.68e-16
0.00313	0	-0.0689	-0.0689
0.00313	0.05	-0.0693	-0.0693
0.00313	0.1	-0.0729	-0.0729
0.00313	0.15	-0.0683	-0.0683
0.00313	0.2	-0.0497	-0.0497
0.00313	0.25	-0.015	-0.015
0.00313	0.3	0.0336	0.0336
0.00313	0.35	0.083	0.083
0.00313	0.4	0.127	0.127
0.00313	0.45	0.153	0.153
0.00313	0.5	0.148	0.148
0.00313	0.55	0.124	0.124
0.00313	0.6	0.0898	0.0898
0.00313	0.65	0.0429	0.0429
0.00313	0.7	-1.7e-05	-1.7e-05
0.00313	0.75	-0.0107	-0.0107
0.00313	0.8	-0.0194	-0.0194
0.00313	0.85	-0.0218	-0.0218
0.00313	0.9	-0.0199	-0.0199
0.00313	0.95	-0.0139	-0.0139
0.00313	1	-0.0113	-0.0113
0.00625	0	-0.104	-0.104
0.00625	0.05	-0.101	-0.101
0.00625	0.1	-0.0958	-0.0958
0.00625	0.15	-0.0836	-0.0836
0.00625	0.2	-0.0622	-0.0622
0.00625	0.25	-0.031	-0.031
0.00625	0.3	0.00744	0.00744
0.00625	0.35	0.0448	0.0448
0.00625	0.4	0.0793	0.0793
0.00625	0.45	0.101	0.101
0.00625	0.5	0.101	0.101
0.00625	0.55	0.088	0.088
0.00625	0.6	0.0663	0.0663
0.00625	0.65	0.0329	0.0329
0.00625	0.7	-1.51e-05	-1.51e-05
0.00625	0.75	-0.00717	-0.00717
0.00625	0.8	-0.0131	-0.0131
0.00625	0.85	-0.0155	-0.0155
0.00625	0.9	-0.0159	-0.0159
0.00625	0.95	-0.0142	-0.0142
0.00625	1	-0.0133	-0.0133
0.0125	0	-0.133	-0.133
0.0125	0.05	-0.129	-0.129
0.0125	0.1	-0.12	-0.12
0.0125	0.15	-0.106	-0.106
0.0125	0.2	-0.0853	-0.0853
0.0125	0.25	-0.0594	-0.0594
0.0125	0.3	-0.0318	-0.0318
0.0125	0.35	-0.00666	-0.00666
0.0125	0.4	0.0184	0.0184
0.0125	0.45	0.0357	0.0357
0.0125	0.5	0.0399	0.0399
0.0125	0.55	0.0378	0.0378
0.0125	0.6	0.0313	0.0313
0.0125	0.65	0.0164	0.0164
0.0125	0.7	-1.32e-05	-1.32e-05
0.0125	0.75	-0.00383	-0.00383
0.0125	0.8	-0.00765	-0.00765
0.0125	0.85	-0.0101	-0.0101
0.0125	0.9	-0.012	-0.012
0.0125	0.95	-0.0127	-0.0127
0.0125	1	-0.0126	-0.0126
0.025	0	-0.133	-0.133
0.025	0.05	-0.131	-0.131
0.025	0.1	-0.124	-0.124
0.025	0.15	-0.114	-0.114
0.025	0.2	-0.101	-0.101
0.025	0.25	-0.0833	-0.0833
0.025	0.3	-0.0662	-0.0662
0.025	0.35	-0.051	-0.051
0.025	0.4	-0.0334	-0.0334
0.025	0.45	-0.0195	-0.0195
0.025	0.5	-0.0119	-0.0119
0.025	0.55	-0.00543	-0.00543
0.025	0.6	0.000446	0.000446
0.025	0.65	0.00134	0.00134
0.025	0.7	-1.09e-05	-1.09e-05
0.025	0.75	-0.00212	-0.00212
0.025	0.8	-0.00462	-0.00462
0.025	0.85	-0.00678	-0.00678
0.025	0.9	-0.00838	-0.00838
0.025	0.95	-0.00942	-0.00942
0.025	1	-0.00961	-0.00961
0.0375	0	-0.116	-0.116
0.0375	0.05	-0.114	-0.114
0.0375	0.1	-0.11	-0.11
0.0375	0.15	-0.103	-0.103
0.0375	0.2	-0.0946	-0.0946
0.0375	0.25	-0.0825	-0.0825
0.0375	0.3	-0.0709	-0.0709
0.0375	0.35	-0.0604	-0.0604
0.0375	0.4	-0.0464	-0.0464
0.0375	0.45	-0.0345	-0.0345
0.0375	0.5	-0.0264	-0.0264
0.0375	0.55	-0.0177	-0.0177
0.0375	0.6	-0.00859	-0.00859
0.0375	0.65	-0.00317	-0.00317
0.0375	0.7	-9.27e-06	-9.27e-06
0.0375	0.75	-0.00153	-0.00153
0.0375	0.8	-0.00343	-0.00343
0.0375	0.85	-0.00523	-0.00523
0.0375	0.9	-0.00634	-0.00634
0.0375	0.95	-0.00718	-0.00718
0.0375	1	-0.00743	-0.00743
0.05	0	-0.0976	-0.0976
0.05	0.05	-0.0964	-0.0964
0.05	0.1	-0.0931	-0.0931
0.05	0.15	-0.0889	-0.0889
0.05	0.2	-0.0828	-0.0828
0.05	0.25	-0.0738	-0.0738
0.05	0.3	-0.0653	-0.0653
0.05	0.35	-0.0575	-0.0575
0.05	0.4	-0.0461	-0.0461
0.05	0.45	-0.0359	-0.0359
0.05	0.5	-0.0285	-0.0285
0.05	0.55	-0.02	-0.02
0.05	0.6	-0.0106	-0.0106
0.05	0.65	-0.00425	-0.00425
0.05	0.7	-8.02e-06	-8.02e-06
0.05	0.75	-0.00119	-0.00119
0.05	0.8	-0.00271	-0.00271
0.05	0.85	-0.00423	-0.00423
0.05	0.9	-0.00503	-0.00503
0.05	0.95	-0.00571	-0.00571
0.05	1	-0.00598	-0.00598
0.075	0	-0.069	-0.069
0.075	0.05	-0.0683	-0.0683
0.075	0.1	-0.0663	-0.0663
0.075	0.15	-0.0639	-0.0639
0.075	0.2	-0.0603	-0.0603
0.075	0.25	-0.0546	-0.0546
0.075	0.3	-0.0493	-0.0493
0.075	0.35	-0.0444	-0.0444
0.075	0.4	-0.0366	-0.0366
0.075	0.45	-0.0293	-0.0293
0.075	0.5	-0.0238	-0.0238
0.075	0.55	-0.0171	-0.0171
0.075	0.6	-0.00934	-0.00934
0.075	0.65	-0.00379	-0.00379
0.075	0.7	-6.26e-06	-6.26e-06
0.075	0.75	-0.000808	-0.000808
0.075	0.8	-0.0019	-0.0019
0.075	0.85	-0.00307	-0.00307
0.075	0.9	-0.00356	-0.00356
0.075	0.95	-0.00405	-0.00405
0.075	1	-0.0043	-0.0043
0.1	0	-0.0502	-0.0502
0.1	0.05	-0.0497	-0.0497
0.1	0.1	-0.0483	-0.0483
0.1	0.15	-0.0468	-0.0468
0.1	0.2	-0.0443	-0.0443
0.1	0.25	-0.0403	-0.0403
0.1	0.3	-0.0366	-0.0366
0.1	0.35	-0.0334	-0.0334
0.1	0.4	-0.0276	-0.0276
0.1	0.45	-0.0223	-0.0223
0.1	0.5	-0.0183	-0.0183
0.1	0.55	-0.0133	-0.0133
0.1	0.6	-0.00725	-0.00725
0.1	0.65	-0.0029	-0.0029
0.1	0.7	-5.04e-06	-5.04e-06
0.1	0.75	-0.000619	-0.000619
0.1	0.8	-0.00148	-0.00148
0.1	0.85	-0.00243	-0.00243
0.1	0.9	-0.00278	-0.00278
0.1	0.95	-0.00317	-0.00317
0.1	1	-0.00339	-0.00339
0.125	0	-0.0378	-0.0378
0.125	0.05	-0.0375	-0.0375
0.125	0.1	-0.0364	-0.0364
0.125	0.15	-0.0353	-0.0353
0.125	0.2	-0.0336	-0.0336
0.125	0.25	-0.0306	-0.0306
0.125	0.3	-0.0279	-0.0279
0.125	0.35	-0.0256	-0.0256
0.125	0.4	-0.0212	-0.0212
0.125	0.45	-0.0172	-0.0172
0.125	0.5	-0.0143	-0.0143
0.125	0.55	-0.0104	-0.0104
0.125	0.6	-0.00562	-0.00562
0.125	0.65	-0.00221	-0.00221
0.125	0.7	-4.13e-06	-4.13e-06
0.125	0.75	-0.000503	-0.000503
0.125	0.8	-0.00121	-0.00121
0.125	0.85	-0.00201	-0.00201
0.125	0.9	-0.00228	-0.00228
0.125	0.95	-0.00261	-0.00261
0.125	1	-0.00279	-0.00279
0.15	0	-0.0293	-0.0293
0.15	0.05	-0.029	-0.029
0.15	0.1	-0.0282	-0.0282
0.15	0.15	-0.0274	-0.0274
0.15	0.2	-0.0261	-0.0261
0.15	0.25	-0.0238	-0.0238
0.15	0.3	-0.0218	-0.0218
0.15	0.35	-0.02	-0.02
0.15	0.4	-0.0167	-0.0167
0.15	0.45	-0.0135	-0.0135
0.15	0.5	-0.0113	-0.0113
0.15	0.55	-0.00825	-0.00825
0.15	0.6	-0.00444	-0.00444
0.15	0.65	-0.00173	-0.00173
0.15	0.7	-3.42e-06	-3.42e-06
0.15	0.75	-0.000418	-0.000418
0.15	0.8	-0.00101	-0.00101
0.15	0.85	-0.00168	-0.00168
0.15	0.9	-0.00191	-0.00191
0.15	0.95	-0.00218	-0.00218
0.15	1	-0.00234	-0.00234
0.2	0	-0.0188	-0.0188
0.2	0.05	-0.0186	-0.0186
0.2	0.1	-0.0181	-0.0181
0.2	0.15	-0.0176	-0.0176
0.2	0.2	-0.0168	-0.0168
0.2	0.25	-0.0153	-0.0153
0.2	0.3	-0.0141	-0.0141
0.2	0.35	-0.013	-0.013
0.2	0.4	-0.0109	-0.0109
0.2	0.45	-0.00884	-0.00884
0.2	0.5	-0.00743	-0.00743
0.2	0.55	-0.00545	-0.00545
0.2	0.6	-0.00291	-0.00291
0.2	0.65	-0.00111	-0.00111
0.2	0.7	-2.37e-06	-2.37e-06
0.2	0.75	-0.000296	-0.000296
0.2	0.8	-0.000719	-0.000719
0.2	0.85	-0.0012	-0.0012
0.2	0.9	-0.00135	-0.00135
0.2	0.95	-0.00155	-0.00155
0.2	1	-0.00166	-0.00166
0.25	0	-0.0125	-0.0125
0.25	0.05	-0.0124	-0.0124
0.25	0.1	-0.012	-0.012
0.25	0.15	-0.0117	-0.0117
0.25	0.2	-0.0112	-0.0112
0.25	0.25	-0.0103	-0.0103
0.25	0.3	-0.00943	-0.00943
0.25	0.35	-0.00875	-0.00875
0.25	0.4	-0.00731	-0.00731
0.25	0.45	-0.00596	-0.00596
0.25	0.5	-0.00503	-0.00503
0.25	0.55	-0.0037	-0.0037
0.25	0.6	-0.00197	-0.00197
0.25	0.65	-0.000745	-0.000745
0.25	0.7	-1.63e-06	-1.63e-06
0.25	0.75	-0.000208	-0.000208
0.25	0.8	-0.000505	-0.000505
0.25	0.85	-0.00084	-0.00084
0.25	0.9	-0.000954	-0.000954
0.25	0.95	-0.00109	-0.00109
0.25	1	-0.00117	-0.00117
0.3	0	-0.00828	-0.00828
0.3	0.05	-0.0082	-0.0082
0.3	0.1	-0.008	-0.008
0.3	0.15	-0.00781	-0.00781
0.3	0.2	-0.00747	-0.00747
0.3	0.25	-0.00685	-0.00685
0.3	0.3	-0.00631	-0.00631
0.3	0.35	-0.00586	-0.00586
0.3	0.4	-0.00491	-0.00491
0.3	0.45	-0.00401	-0.00401
0.3	0.5	-0.00339	-0.00339
0.3	0.55	-0.0025	-0.0025
0.3	0.6	-0.00133	-0.00133
0.3	0.65	-0.0005	-0.0005
0.3	0.7	-1.08e-06	-1.08e-06
0.3	0.75	-0.000141	-0.000141
0.3	0.8	-0.000343	-0.000343
0.3	0.85	-0.000572	-0.000572
0.3	0.9	-0.000649	-0.000649
0.3	0.95	-0.000743	-0.000743
0.3	1	-0.000795	-0.000795
0.35	0	-0.00537	-0.00537
0.35	0.05	-0.00532	-0.00532
0.35	0.1	-0.00519	-0.00519
0.35	0.15	-0.00508	-0.00508
0.35	0.2	-0.00486	-0.00486
0.35	0.25	-0.00447	-0.00447
0.35	0.3	-0.00412	-0.00412
0.35	0.35	-0.00383	-0.00383
0.35	0.4	-0.00322	-0.00322
0.35	0.45	-0.00263	-0.00263
0.35	0.5	-0.00222	-0.00222
0.35	0.55	-0.00164	-0.00164
0.35	0.6	-0.000874	-0.000874
0.35	0.65	-0.000327	-0.000327
0.35	0.7	-7.01e-07	-7.01e-07
0.35	0.75	-9.03e-05	-9.03e-05
0.35	0.8	-0.000222	-0.000222
0.35	0.85	-0.000372	-0.000372
0.35	0.9	-0.00042	-0.00042
0.35	0.95	-0.000481	-0.000481
0.35	1	-0.000518	-0.000518
0.4	0	-0.00342	-0.00342
0.4	0.05	-0.00338	-0.00338
0.4	0.1	-0.0033	-0.0033
0.4	0.15	-0.00323	-0.00323
0.4	0.2	-0.00309	-0.00309
0.4	0.25	-0.00285	-0.00285
0.4	0.3	-0.00263	-0.00263
0.4	0.35	-0.00244	-0.00244
0.4	0.4	-0.00206	-0.00206
0.4	0.45	-0.00169	-0.00169
0.4	0.5	-0.00142	-0.00142
0.4	0.55	-0.00105	-0.00105
0.4	0.6	-0.00056	-0.00056
0.4	0.65	-0.000208	-0.000208
0.4	0.7	-4.46e-07	-4.46e-07
0.4	0.75	-5.51e-05	-5.51e-05
0.4	0.8	-0.000137	-0.000137
0.4	0.85	-0.000233	-0.000233
0.4	0.9	-0.000261	-0.000261
0.4	0.95	-0.000299	-0.000299
0.4	1	-0.000324	-0.000324
0.45	0	-0.00217	-0.00217
0.45	0.05	-0.00214	-0.00214
0.45	0.1	-0.00209	-0.00209
0.45	0.15	-0.00204	-0.00204
0.45	0.2	-0.00195	-0.00195
0.45	0.25	-0.0018	-0.0018
0.45	0.3	-0.00166	-0.00166
0.45	0.35	-0.00155	-0.00155
0.45	0.4	-0.0013	-0.0013
0.45	0.45	-0.00107	-0.00107
0.45	0.5	-0.000902	-0.000902
0.45	0.55	-0.000668	-0.000668
0.45	0.6	-0.000354	-0.000354
0.45	0.65	-0.000131	-0.000131
0.45	0.7	-2.87e-07	-2.87e-07
0.45	0.75	-3.3e-05	-3.3e-05
0.45	0.8	-8.37e-05	-8.37e-05
0.45	0.85	-0.000144	-0.000144
0.45	0.9	-0.000159	-0.000159
0.45	0.95	-0.000182	-0.000182
0.45	1	-0.0002	-0.0002
0.5	0	-0.0014	-0.0014
0.5	0.05	-0.00137	-0.00137
0.5	0.1	-0.00134	-0.00134
0.5	0.15	-0.00131	-0.00131
0.5	0.2	-0.00125	-0.00125
0.5	0.25	-0.00115	-0.00115
0.5	0.3	-0.00106	-0.00106
0.5	0.35	-0.000991	-0.000991
0.5	0.4	-0.000834	-0.000834
0.5	0.45	-0.000684	-0.000684
0.5	0.5	-0.000579	-0.000579
0.5	0.55	-0.000429	-0.000429
0.5	0.6	-0.000226	-0.000226
0.5	0.65	-8.26e-05	-8.26e-05
0.5	0.7	-1.91e-07	-1.91e-07
0.5	0.75	-2.02e-05	-2.02e-05
0.5	0.8	-5.2e-05	-5.2e-05
0.5	0.85	-9.06e-05	-9.06e-05
0.5	0.9	-9.94e-05	-9.94e-05
0.5	0.95	-0.000114	-0.000114
0.5	1	-0.000125	-0.000125
0.55	0	-0.000925	-0.000925
0.55	0.05	-0.000907	-0.000907
0.55	0.1	-0.000884	-0.000884
0.55	0.15	-0.000866	-0.000866
0.55	0.2	-0.000828	-0.000828
0.55	0.25	-0.00076	-0.00076
0.55	0.3	-0.000703	-0.000703
0.55	0.35	-0.000655	-0.000655
0.55	0.4	-0.00055	-0.00055
0.55	0.45	-0.000451	-0.000451
0.55	0.5	-0.000383	-0.000383
0.55	0.55	-0.000284	-0.000284
0.55	0.6	-0.000149	-0.000149
0.55	0.65	-5.38e-05	-5.38e-05
0.55	0.7	-1.33e-07	-1.33e-07
0.55	0.75	-1.32e-05	-1.32e-05
0.55	0.8	-3.42e-05	-3.42e-05
0.55	0.85	-5.98e-05	-5.98e-05
0.55	0.9	-6.52e-05	-6.52e-05
0.55	0.95	-7.46e-05	-7.46e-05
0.55	1	-8.24e-05	-8.24e-05
0.6	0	-0.000635	-0.000635
0.6	0.05	-0.000623	-0.000623
0.6	0.1	-0.000607	-0.000607
0.6	0.15	-0.000595	-0.000595
0.6	0.2	-0.000569	-0.000569
0.6	0.25	-0.000522	-0.000522
0.6	0.3	-0.000483	-0.000483
0.6	0.35	-0.000451	-0.000451
0.6	0.4	-0.000378	-0.000378
0.6	0.45	-0.000309	-0.000309
0.6	0.5	-0.000264	-0.000264
0.6	0.55	-0.000195	-0.000195
0.6	0.6	-0.000102	-0.000102
0.6	0.65	-3.67e-05	-3.67e-05
0.6	0.7	-9.61e-08	-9.61e-08
0.6	0.75	-9.35e-06	-9.35e-06
0.6	0.8	-2.41e-05	-2.41e-05
0.6	0.85	-4.18e-05	-4.18e-05
0.6	0.9	-4.58e-05	-4.58e-05
0.6	0.95	-5.23e-05	-5.23e-05
0.6	1	-5.75e-05	-5.75e-05
0.65	0	-0.000455	-0.000455
0.65	0.05	-0.000446	-0.000446
0.65	0.1	-0.000435	-0.000435
0.65	0.15	-0.000426	-0.000426
0.65	0.2	-0.000408	-0.000408
0.65	0.25	-0.000374	-0.000374
0.65	0.3	-0.000345	-0.000345
0.65	0.35	-0.000323	-0.000323
0.65	0.4	-0.00027	-0.00027
0.65	0.45	-0.000221	-0.000221
0.65	0.5	-0.000188	-0.000188
0.65	0.55	-0.000139	-0.000139
0.65	0.6	-7.22e-05	-7.22e-05
0.65	0.65	-2.62e-05	-2.62e-05
0.65	0.7	-7.12e-08	-7.12e-08
0.65	0.75	-7.08e-06	-7.08e-06
0.65	0.8	-1.8e-05	-1.8e-05
0.65	0.85	-3.07e-05	-3.07e-05
0.65	0.9	-3.4e-05	-3.4e-05
0.65	0.95	-3.88e-05	-3.88e-05
0.65	1	-4.22e-05	-4.22e-05
0.7	0	-0.000336	-0.000336
0.7	0.05	-0.000331	-0.000331
0.7	0.1	-0.000322	-0.000322
0.7	0.15	-0.000315	-0.000315
0.7	0.2	-0.000302	-0.000302
0.7	0.25	-0.000276	-0.000276
0.7	0.3	-0.000255	-0.000255
0.7	0.35	-0.000238	-0.000238
0.7	0.4	-0.000199	-0.000199
0.7	0.45	-0.000162	-0.000162
0.7	0.5	-0.000138	-0.000138
0.7	0.55	-0.000102	-0.000102
0.7	0.6	-5.27e-05	-5.27e-05
0.7	0.65	-1.93e-05	-1.93e-05
0.7	0.7	-5.3e-08	-5.3e-08
0.7	0.75	-5.52e-06	-5.52e-06
0.7	0.8	-1.38e-05	-1.38e-05
0.7	0.85	-2.31e-05	-2.31e-05
0.7	0.9	-2.59e-05	-2.59e-05
0.7	0.95	-2.96e-05	-2.96e-05
0.7	1	-3.18e-05	-3.18e-05
0.75	0	-0.000252	-0.000252
0.75	0.05	-0.000249	-0.000249
0.75	0.1	-0.000242	-0.000242
0.75	0.15	-0.000236	-0.000236
0.75	0.2	-0.000225	-0.000225
0.75	0.25	-0.000206	-0.000206
0.75	0.3	-0.00019	-0.00019
0.75	0.35	-0.000177	-0.000177
0.75	0.4	-0.000147	-0.000147
0.75	0.45	-0.00012	-0.00012
0.75	0.5	-0.000102	-0.000102
0.75	0.55	-7.53e-05	-7.53e-05
0.75	0.6	-3.89e-05	-3.89e-05
0.75	0.65	-1.44e-05	-1.44e-05
0.75	0.7	-3.9e-08	-3.9e-08
0.75	0.75	-4.25e-06	-4.25e-06
0.75	0.8	-1.05e-05	-1.05e-05
0.75	0.85	-1.73e-05	-1.73e-05
0.75	0.9	-1.96e-05	-1.96e-05
0.75	0.95	-2.24e-05	-2.24e-05
0.75	1	-2.38e-05	-2.38e-05
0.8	0	-0.000188	-0.000188
0.8	0.05	-0.000185	-0.000185
0.8	0.1	-0.00018	-0.00018
0.8	0.15	-0.000175	-0.000175
0.8	0.2	-0.000167	-0.000167
0.8	0.25	-0.000153	-0.000153
0.8	0.3	-0.00014	-0.00014
0.8	0.35	-0.000131	-0.000131
0.8	0.4	-0.000109	-0.000109
0.8	0.45	-8.81e-05	-8.81e-05
0.8	0.5	-7.5e-05	-7.5e-05
0.8	0.55	-5.52e-05	-5.52e-05
0.8	0.6	-2.85e-05	-2.85e-05
0.8	0.65	-1.06e-05	-1.06e-05
0.8	0.7	-2.83e-08	-2.83e-08
0.8	0.75	-3.17e-06	-3.17e-06
0.8	0.8	-7.74e-06	-7.74e-06
0.8	0.85	-1.27e-05	-1.27e-05
0.8	0.9	-1.45e-05	-1.45e-05
0.8	0.95	-1.66e-05	-1.66e-05
0.8	1	-1.76e-05	-1.76e-05
0.85	0	-0.000137	-0.000137
0.85	0.05	-0.000135	-0.000135
0.85	0.1	-0.000131	-0.000131
0.85	0.15	-0.000128	-0.000128
0.85	0.2	-0.000122	-0.000122
0.85	0.25	-0.000111	-0.000111
0.85	0.3	-0.000102	-0.000102
0.85	0.35	-9.51e-05	-9.51e-05
0.85	0.4	-7.88e-05	-7.88e-05
0.85	0.45	-6.39e-05	-6.39e-05
0.85	0.5	-5.44e-05	-5.44e-05
0.85	0.55	-3.99e-05	-3.99e-05
0.85	0.6	-2.07e-05	-2.07e-05
0.85	0.65	-7.76e-06	-7.76e-06
0.85	0.7	-2.02e-08	-2.02e-08
0.85	0.75	-2.3e-06	-2.3e-06
0.85	0.8	-5.59e-06	-5.59e-06
0.85	0.85	-9.17e-06	-9.17e-06
0.85	0.9	-1.05e-05	-1.05e-05
0.85	0.95	-1.19e-05	-1.19e-05
0.85	1	-1.27e-05	-1.27e-05
0.9	0	-9.83e-05	-9.83e-05
0.9	0.05	-9.71e-05	-9.71e-05
0.9	0.1	-9.44e-05	-9.44e-05
0.9	0.15	-9.18e-05	-9.18e-05
0.9	0.2	-8.75e-05	-8.75e-05
0.9	0.25	-7.98e-05	-7.98e-05
0.9	0.3	-7.32e-05	-7.32e-05
0.9	0.35	-6.81e-05	-6.81e-05
0.9	0.4	-5.64e-05	-5.64e-05
0.9	0.45	-4.57e-05	-4.57e-05
0.9	0.5	-3.89e-05	-3.89e-05
0.9	0.55	-2.85e-05	-2.85e-05
0.9	0.6	-1.48e-05	-1.48e-05
0.9	0.65	-5.58e-06	-5.58e-06
0.9	0.7	-1.43e-08	-1.43e-08
0.9	0.75	-1.63e-06	-1.63e-06
0.9	0.8	-3.97e-06	-3.97e-06
0.9	0.85	-6.52e-06	-6.52e-06
0.9	0.9	-7.43e-06	-7.43e-06
0.9	0.95	-8.48e-06	-8.48e-06
0.9	1	-9.02e-06	-9.02e-06
0.95	0	-7.02e-05	-7.02e-05
0.95	0.05	-6.93e-05	-6.93e-05
0.95	0.1	-6.73e-05	-6.73e-05
0.95	0.15	-6.55e-05	-6.55e-05
0.95	0.2	-6.24e-05	-6.24e-05
0.95	0.25	-5.69e-05	-5.69e-05
0.95	0.3	-5.22e-05	-5.22e-05
0.95	0.35	-4.86e-05	-4.86e-05
0.95	0.4	-4.02e-05	-4.02e-05
0.95	0.45	-3.26e-05	-3.26e-05
0.95	0.5	-2.77e-05	-2.77e-05
0.95	0.55	-2.03e-05	-2.03e-05
0.95	0.6	-1.06e-05	-1.06e-05
0.95	0.65	-4e-06	-4e-06
0.95	0.7	-1.01e-08	-1.01e-08
0.95	0.75	-1.16e-06	-1.16e-06
0.95	0.8	-2.81e-06	-2.81e-06
0.95	0.85	-4.63e-06	-4.63e-06
0.95	0.9	-5.27e-06	-5.27e-06
0.95	0.95	-6.01e-06	-6.01e-06
0.95	1	-6.41e-06	-6.41e-06
1	0	-4.96e-05	-4.96e-05
1	0.05	-4.9e-05	-4.9e-05
1	0.1	-4.76e-05	-4.76e-05
1	0.15	-4.63e-05	-4.63e-05
1	0.2	-4.42e-05	-4.42e-05
1	0.25	-4.02e-05	-4.02e-05
1	0.3	-3.69e-05	-3.69e-05
1	0.35	-3.44e-05	-3.44e-05
1	0.4	-2.85e-05	-2.85e-05
1	0.45	-2.31e-05	-2.31e-05
1	0.5	-1.96e-05	-1.96e-05
1	0.55	-1.44e-05	-1.44e-05
1	0.6	-7.53e-06	-7.53e-06
1	0.65	-2.84e-06	-2.84e-06
1	0.7	-7.13e-09	-7.13e-09
1	0.75	-8.17e-07	-8.17e-07
1	0.8	-1.98e-06	-1.98e-06
1	0.85	-3.28e-06	-3.28e-06
1	0.9	-3.72e-06	-3.72e-06
1	0.95	-4.25e-06	-4.25e-06
1	1	-4.54e-06	-4.54e-06
