x	y	z	c
0	0	-1.68e-16	-1.68e-16
0	0.05	-0.0114	-0.0114
0	0.1	-0.0286	-0.0286
0	0.15	-0.0366	-0.0366
0	0.2	-0.0297	-0.0297
0	0.25	-0.0125	-0.0125
0	0.3	0	0
0	0.35	0.042	0.042
0	0.4	0.107	0.107
0	0.45	0.167	0.167
0	0.5	0.211	0.211
0	0.55	0.222	0.222
0	0.6	0.189	0.189
0	0.65	0.126	0.126
0	0.7	0.0568	0.0568
0	0.75	-0.0091	-0.0091
0	0.8	-0.051	-0.051
0	0.85	-0.0621	-0.0621
0	0.9	-0.0503	-0.0503
0	0.95	-0.023	-0.023
0	1	3.9e-16	3.9e-16
0.000391	0	-0.00361	-0.00361
0.000391	0.05	-0.00994	-0.00994
0.000391	0.1	-0.0243	-0.0243
0.000391	0.15	-0.031	-0.031
0.000391	0.2	-0.0257	-0.0257
0.000391	0.25	-0.012	-0.012
0.000391	0.3	1.01e-05	1.01e-05
0.000391	0.35	0.0461	0.0461
0.000391	0.4	0.108	0.108
0.000391	0.45	0.162	0.162
0.000391	0.5	0.205	0.205
0.000391	0.55	0.215	0.215
0.000391	0.6	0.184	0.184
0.000391	0.65	0.124	0.124
0.000391	0.7	0.0575	0.0575
0.000391	0.75	-0.00619	-0.00619
0.000391	0.8	-0.0471	-0.0471
0.000391	0.85	-0.0583	-0.0583
0.000391	0.9	-0.0512	-0.0512
0.000391	0.95	-0.0222	-0.0222
0.000391	1	-0.0166	-0.0166
0.000781	0	-0.00351	-0.00351
0.000781	0.05	-0.0081	-0.0081
0.000781	0.1	-0.0202	-0.0202
0.000781	0.15	-0.0259	-0.0259
0.000781	0.2	-0.0219	-0.0219
0.000781	0.25	-0.0108	-0.0108
0.000781	0.3	9.88e-06	9.88e-06
0.000781	0.35	0.0486	0.0486
0.000781	0.4	0.109	0.109
0.000781	0.45	0.159	0.159
0.000781	0.5	0.199	0.199
0.000781	0.55	0.209	0.209
0.000781	0.6	0.179	0.179
0.000781	0.65	0.122	0.122
0.000781	0.7	0.058	0.058
0.000781	0.75	-0.00346	-0.00346
0.000781	0.8	-0.0434	-0.0434
0.000781	0.85	-0.0558	-0.0558
0.000781	0.9	-0.0505	-0.0505
0.000781	0.95	-0.0237	-0.0237
0.000781	1	-0.0184	-0.0184
0.00156	0	-0.00266	-0.00266
0.00156	0.05	-0.00532	-0.00532
0.00156	0.1	-0.0133	-0.0133
0.00156	0.15	-0.0178	-0.0178
0.00156	0.2	-0.0157	-0.0157
0.00156	0.25	-0.00813	-0.00813
0.00156	0.3	9.47e-06	9.47e-06
0.00156	0.35	0.051	0.051
0.00156	0.4	0.108	0.108
0.00156	0.45	0.153	0.153
0.00156	0.5	0.188	0.188
0.00156	0.55	0.197	0.197
0.00156	0.6	0.17	0.17
0.00156	0.65	0.117	0.117
0.00156	0.7	0.0585	0.0585
0.00156	0.75	0.00121	0.00121
0.00156	0.8	-0.0371	-0.0371
0.00156	0.85	-0.0519	-0.0519
0.00156	0.9	-0.0482	-0.0482
0.00156	0.95	-0.028	-0.028
0.00156	1	-0.0225	-0.0225
0.00313	0	-0.00108	-0.00108
0.00313	0.05	-0.00205	-0.00205
0.00313	0.1	-0.00562	-0.00562
0.00313	0.15	-0.00816	-0.00816
0.00313	0.2	-0.00783	-0.00783
0.00313	0.25	-0.00428	-0.00428
0.00313	0.3	8.74e-06	8.74e-06
0.00313	0.35	0.0511	0.0511
0.00313	0.4	0.103	0.103
0.00313	0.45	0.141	0.141
0.00313	0.5	0.169	0.169
0.00313	0.55	0.176	0.176
0.00313	0.6	0.153	0.153
0.00313	0.65	0.108	0.108
0.00313	0.7	0.0584	0.0584
0.00313	0.75	0.00794	0.00794
0.00313	0.8	-0.0277	-0.0277
0.00313	0.85	-0.0447	-0.0447
0.00313	0.9	-0.0453	-0.0453
0.00313	0.95	-0.035	-0.035
0.00313	1	-0.0313	-0.0313
0.00469	0	-0.000645	-0.000645
0.00469	0.05	-0.000949	-0.000949
0.00469	0.1	-0.00254	-0.00254
0.00469	0.15	-0.00385	-0.00385
0.00469	0.2	-0.00397	-0.00397
0.00469	0.25	-0.00225	-0.00225
0.00469	0.3	8.08e-06	8.08e-06
0.00469	0.35	0.0488	0.0488
0.00469	0.4	0.0965	0.0965
0.00469	0.45	0.13	0.13
0.00469	0.5	0.153	0.153
0.00469	0.55	0.159	0.159
0.00469	0.6	0.138	0.138
0.00469	0.65	0.0994	0.0994
0.00469	0.7	0.0571	0.0571
0.00469	0.75	0.0124	0.0124
0.00469	0.8	-0.0208	-0.0208
0.00469	0.85	-0.039	-0.039
0.00469	0.9	-0.0439	-0.0439
0.00469	0.95	-0.0399	-0.0399
0.00469	1	-0.0379	-0.0379
0.00625	0	-0.00107	-0.00107
0.00625	0.05	-0.00107	-0.00107
0.00625	0.1	-0.00166	-0.00166
0.00625	0.15	-0.00223	-0.00223
0.00625	0.2	-0.00232	-0.00232
0.00625	0.25	-0.00132	-0.00132
0.00625	0.3	7.52e-06	7.52e-06
0.00625	0.35	0.0456	0.0456
0.00625	0.4	0.089	0.089
0.00625	0.45	0.119	0.119
0.00625	0.5	0.138	0.138
0.00625	0.55	0.144	0.144
0.00625	0.6	0.126	0.126
0.00625	0.65	0.0916	0.0916
0.00625	0.7	0.055	0.055
0.00625	0.75	0.0152	0.0152
0.00625	0.8	-0.0158	-0.0158
0.00625	0.85	-0.0347	-0.0347
0.00625	0.9	-0.0429	-0.0429
0.00625	0.95	-0.0431	-0.0431
0.00625	1	-0.0425	-0.0425
0.00938	0	-0.00294	-0.00294
0.00938	0.05	-0.00266	-0.00266
0.00938	0.1	-0.00237	-0.00237
0.00938	0.15	-0.00211	-0.00211
0.00938	0.2	-0.00177	-0.00177
0.00938	0.25	-0.000905	-0.000905
0.00938	0.3	6.61e-06	6.61e-06
0.00938	0.35	0.0389	0.0389
0.00938	0.4	0.0746	0.0746
0.00938	0.45	0.0989	0.0989
0.00938	0.5	0.114	0.114
0.00938	0.55	0.119	0.119
0.00938	0.6	0.105	0.105
0.00938	0.65	0.0779	0.0779
0.00938	0.7	0.0499	0.0499
0.00938	0.75	0.0177	0.0177
0.00938	0.8	-0.00978	-0.00978
0.00938	0.85	-0.0292	-0.0292
0.00938	0.9	-0.0411	-0.0411
0.00938	0.95	-0.046	-0.046
0.00938	1	-0.0471	-0.0471
0.0125	0	-0.0048	-0.0048
0.0125	0.05	-0.00438	-0.00438
0.0125	0.1	-0.00372	-0.00372
0.0125	0.15	-0.003	-0.003
0.0125	0.2	-0.00222	-0.00222
0.0125	0.25	-0.00105	-0.00105
0.0125	0.3	5.91e-06	5.91e-06
0.0125	0.35	0.0327	0.0327
0.0125	0.4	0.0621	0.0621
0.0125	0.45	0.0819	0.0819
0.0125	0.5	0.0947	0.0947
0.0125	0.55	0.0991	0.0991
0.0125	0.6	0.0883	0.0883
0.0125	0.65	0.0664	0.0664
0.0125	0.7	0.0443	0.0443
0.0125	0.75	0.0175	0.0175
0.0125	0.8	-0.00709	-0.00709
0.0125	0.85	-0.026	-0.026
0.0125	0.9	-0.0392	-0.0392
0.0125	0.95	-0.0462	-0.0462
0.0125	1	-0.0482	-0.0482
0.0188	0	-0.00713	-0.00713
0.0188	0.05	-0.00652	-0.00652
0.0188	0.1	-0.00553	-0.00553
0.0188	0.15	-0.00436	-0.00436
0.0188	0.2	-0.00301	-0.00301
0.0188	0.25	-0.00136	-0.00136
0.0188	0.3	4.91e-06	4.91e-06
0.0188	0.35	0.0231	0.0231
0.0188	0.4	0.0433	0.0433
0.0188	0.45	0.0563	0.0563
0.0188	0.5	0.0654	0.0654
0.0188	0.55	0.0695	0.0695
0.0188	0.6	0.0627	0.0627
0.0188	0.65	0.0475	0.0475
0.0188	0.7	0.0331	0.0331
0.0188	0.75	0.0137	0.0137
0.0188	0.8	-0.00609	-0.00609
0.0188	0.85	-0.0224	-0.0224
0.0188	0.9	-0.035	-0.035
0.0188	0.95	-0.0429	-0.0429
0.0188	1	-0.0454	-0.0454
0.025	0	-0.00797	-0.00797
0.025	0.05	-0.00726	-0.00726
0.025	0.1	-0.00616	-0.00616
0.025	0.15	-0.00484	-0.00484
0.025	0.2	-0.00327	-0.00327
0.025	0.25	-0.00147	-0.00147
0.025	0.3	4.23e-06	4.23e-06
0.025	0.35	0.0165	0.0165
0.025	0.4	0.0305	0.0305
0.025	0.45	0.039	0.039
0.025	0.5	0.0455	0.0455
0.025	0.55	0.0489	0.0489
0.025	0.6	0.0442	0.0442
0.025	0.65	0.0328	0.0328
0.025	0.7	0.023	0.023
0.025	0.75	0.00858	0.00858
0.025	0.8	-0.00719	-0.00719
0.025	0.85	-0.0205	-0.0205
0.025	0.9	-0.031	-0.031
0.025	0.95	-0.0381	-0.0381
0.025	1	-0.0405	-0.0405
0.0375	0	-0.00793	-0.00793
0.0375	0.05	-0.00715	-0.00715
0.0375	0.1	-0.00606	-0.00606
0.0375	0.15	-0.00476	-0.00476
0.0375	0.2	-0.00317	-0.00317
0.0375	0.25	-0.00141	-0.00141
0.0375	0.3	3.38e-06	3.38e-06
0.0375	0.35	0.0087	0.0087
0.0375	0.4	0.0154	0.0154
0.0375	0.45	0.0185	0.0185
0.0375	0.5	0.0214	0.0214
0.0375	0.55	0.0234	0.0234
0.0375	0.6	0.0203	0.0203
0.0375	0.65	0.0129	0.0129
0.0375	0.7	0.00814	0.00814
0.0375	0.75	-0.000187	-0.000187
0.0375	0.8	-0.0102	-0.0102
0.0375	0.85	-0.0184	-0.0184
0.0375	0.9	-0.0248	-0.0248
0.0375	0.95	-0.0297	-0.0297
0.0375	1	-0.0316	-0.0316
0.05	0	-0.00738	-0.00738
0.05	0.05	-0.0066	-0.0066
0.05	0.1	-0.00559	-0.00559
0.05	0.15	-0.00439	-0.00439
0.05	0.2	-0.00291	-0.00291
0.05	0.25	-0.00129	-0.00129
0.05	0.3	2.89e-06	2.89e-06
0.05	0.35	0.00464	0.00464
0.05	0.4	0.00762	0.00762
0.05	0.45	0.0079	0.0079
0.05	0.5	0.00864	0.00864
0.05	0.55	0.00961	0.00961
0.05	0.6	0.00706	0.00706
0.05	0.65	0.00146	0.00146
0.05	0.7	-0.000837	-0.000837
0.05	0.75	-0.00587	-0.00587
0.05	0.8	-0.0124	-0.0124
0.05	0.85	-0.0174	-0.0174
0.05	0.9	-0.0211	-0.0211
0.05	0.95	-0.0243	-0.0243
0.05	1	-0.0258	-0.0258
0.0625	0	-0.00681	-0.00681
0.0625	0.05	-0.00607	-0.00607
0.0625	0.1	-0.00513	-0.00513
0.0625	0.15	-0.00404	-0.00404
0.0625	0.2	-0.00267	-0.00267
0.0625	0.25	-0.00118	-0.00118
0.0625	0.3	2.56e-06	2.56e-06
0.0625	0.35	0.00241	0.00241
0.0625	0.4	0.00335	0.00335
0.0625	0.45	0.00211	0.00211
0.0625	0.5	0.00168	0.00168
0.0625	0.55	0.00197	0.00197
0.0625	0.6	-0.000372	-0.000372
0.0625	0.65	-0.005	-0.005
0.0625	0.7	-0.00604	-0.00604
0.0625	0.75	-0.00925	-0.00925
0.0625	0.8	-0.0138	-0.0138
0.0625	0.85	-0.0169	-0.0169
0.0625	0.9	-0.0191	-0.0191
0.0625	0.95	-0.0213	-0.0213
0.0625	1	-0.0224	-0.0224
0.075	0	-0.00628	-0.00628
0.075	0.05	-0.00559	-0.00559
0.075	0.1	-0.00472	-0.00472
0.075	0.15	-0.00371	-0.00371
0.075	0.2	-0.00245	-0.00245
0.075	0.25	-0.00109	-0.00109
0.075	0.3	2.31e-06	2.31e-06
0.075	0.35	0.00112	0.00112
0.075	0.4	0.000946	0.000946
0.075	0.45	-0.0011	-0.0011
0.075	0.5	-0.00219	-0.00219
0.075	0.55	-0.00233	-0.00233
0.075	0.6	-0.00456	-0.00456
0.075	0.65	-0.00861	-0.00861
0.075	0.7	-0.00901	-0.00901
0.075	0.75	-0.0112	-0.0112
0.075	0.8	-0.0146	-0.0146
0.075	0.85	-0.0167	-0.0167
0.075	0.9	-0.0179	-0.0179
0.075	0.95	-0.0196	-0.0196
0.075	1	-0.0205	-0.0205
0.0875	0	-0.00579	-0.00579
0.0875	0.05	-0.00514	-0.00514
0.0875	0.1	-0.00435	-0.00435
0.0875	0.15	-0.00342	-0.00342
0.0875	0.2	-0.00225	-0.00225
0.0875	0.25	-0.001	-0.001
0.0875	0.3	2.12e-06	2.12e-06
0.0875	0.35	0.000378	0.000378
0.0875	0.4	-0.000423	-0.000423
0.0875	0.45	-0.00287	-0.00287
0.0875	0.5	-0.00432	-0.00432
0.0875	0.55	-0.00472	-0.00472
0.0875	0.6	-0.00687	-0.00687
0.0875	0.65	-0.0106	-0.0106
0.0875	0.7	-0.0107	-0.0107
0.0875	0.75	-0.0123	-0.0123
0.0875	0.8	-0.0151	-0.0151
0.0875	0.85	-0.0166	-0.0166
0.0875	0.9	-0.0174	-0.0174
0.0875	0.95	-0.0186	-0.0186
0.0875	1	-0.0194	-0.0194
0.1	0	-0.00533	-0.00533
0.1	0.05	-0.00473	-0.00473
0.1	0.1	-0.004	-0.004
0.1	0.15	-0.00315	-0.00315
0.1	0.2	-0.00207	-0.00207
0.1	0.25	-0.000921	-0.000921
0.1	0.3	1.94e-06	1.94e-06
0.1	0.35	-7.13e-05	-7.13e-05
0.1	0.4	-0.00122	-0.00122
0.1	0.45	-0.00383	-0.00383
0.1	0.5	-0.00548	-0.00548
0.1	0.55	-0.00605	-0.00605
0.1	0.6	-0.00814	-0.00814
0.1	0.65	-0.0116	-0.0116
0.1	0.7	-0.0116	-0.0116
0.1	0.75	-0.0129	-0.0129
0.1	0.8	-0.0153	-0.0153
0.1	0.85	-0.0165	-0.0165
0.1	0.9	-0.017	-0.017
0.1	0.95	-0.0181	-0.0181
0.1	1	-0.0188	-0.0188
0.113	0	-0.00491	-0.00491
0.113	0.05	-0.00436	-0.00436
0.113	0.1	-0.00368	-0.00368
0.113	0.15	-0.0029	-0.0029
0.113	0.2	-0.00191	-0.00191
0.113	0.25	-0.000847	-0.000847
0.113	0.3	1.79e-06	1.79e-06
0.113	0.35	-0.000351	-0.000351
0.113	0.4	-0.00168	-0.00168
0.113	0.45	-0.00435	-0.00435
0.113	0.5	-0.00609	-0.00609
0.113	0.55	-0.00678	-0.00678
0.113	0.6	-0.00882	-0.00882
0.113	0.65	-0.012	-0.012
0.113	0.7	-0.012	-0.012
0.113	0.75	-0.0132	-0.0132
0.113	0.8	-0.0153	-0.0153
0.113	0.85	-0.0164	-0.0164
0.113	0.9	-0.0168	-0.0168
0.113	0.95	-0.0177	-0.0177
0.113	1	-0.0184	-0.0184
0.125	0	-0.00452	-0.00452
0.125	0.05	-0.00401	-0.00401
0.125	0.1	-0.00338	-0.00338
0.125	0.15	-0.00266	-0.00266
0.125	0.2	-0.00175	-0.00175
0.125	0.25	-0.000778	-0.000778
0.125	0.3	1.65e-06	1.65e-06
0.125	0.35	-0.00053	-0.00053
0.125	0.4	-0.00196	-0.00196
0.125	0.45	-0.00461	-0.00461
0.125	0.5	-0.00638	-0.00638
0.125	0.55	-0.00716	-0.00716
0.125	0.6	-0.00914	-0.00914
0.125	0.65	-0.0122	-0.0122
0.125	0.7	-0.0122	-0.0122
0.125	0.75	-0.0133	-0.0133
0.125	0.8	-0.0153	-0.0153
0.125	0.85	-0.0162	-0.0162
0.125	0.9	-0.0165	-0.0165
0.125	0.95	-0.0174	-0.0174
0.125	1	-0.018	-0.018
0.138	0	-0.00415	-0.00415
0.138	0.05	-0.00368	-0.00368
0.138	0.1	-0.00311	-0.00311
0.138	0.15	-0.00245	-0.00245
0.138	0.2	-0.00161	-0.00161
0.138	0.25	-0.000715	-0.000715
0.138	0.3	1.52e-06	1.52e-06
0.138	0.35	-0.000647	-0.000647
0.138	0.4	-0.00212	-0.00212
0.138	0.45	-0.00471	-0.00471
0.138	0.5	-0.00648	-0.00648
0.138	0.55	-0.00732	-0.00732
0.138	0.6	-0.00925	-0.00925
0.138	0.65	-0.0122	-0.0122
0.138	0.7	-0.0122	-0.0122
0.138	0.75	-0.0133	-0.0133
0.138	0.8	-0.0151	-0.0151
0.138	0.85	-0.016	-0.016
0.138	0.9	-0.0163	-0.0163
0.138	0.95	-0.0171	-0.0171
0.138	1	-0.0177	-0.0177
0.15	0	-0.00381	-0.00381
0.15	0.05	-0.00338	-0.00338
0.15	0.1	-0.00286	-0.00286
0.15	0.15	-0.00225	-0.00225
0.15	0.2	-0.00148	-0.00148
0.15	0.25	-0.000657	-0.000657
0.15	0.3	1.4e-06	1.4e-06
0.15	0.35	-0.000726	-0.000726
0.15	0.4	-0.00221	-0.00221
0.15	0.45	-0.00472	-0.00472
0.15	0.5	-0.00648	-0.00648
0.15	0.55	-0.00735	-0.00735
0.15	0.6	-0.00923	-0.00923
0.15	0.65	-0.012	-0.012
0.15	0.7	-0.0121	-0.0121
0.15	0.75	-0.0132	-0.0132
0.15	0.8	-0.0149	-0.0149
0.15	0.85	-0.0157	-0.0157
0.15	0.9	-0.0161	-0.0161
0.15	0.95	-0.0168	-0.0168
0.15	1	-0.0174	-0.0174
0.163	0	-0.0035	-0.0035
0.163	0.05	-0.00311	-0.00311
0.163	0.1	-0.00262	-0.00262
0.163	0.15	-0.00206	-0.00206
0.163	0.2	-0.00136	-0.00136
0.163	0.25	-0.000603	-0.000603
0.163	0.3	1.29e-06	1.29e-06
0.163	0.35	-0.00078	-0.00078
0.163	0.4	-0.00226	-0.00226
0.163	0.45	-0.00468	-0.00468
0.163	0.5	-0.0064	-0.0064
0.163	0.55	-0.0073	-0.0073
0.163	0.6	-0.00912	-0.00912
0.163	0.65	-0.0118	-0.0118
0.163	0.7	-0.0119	-0.0119
0.163	0.75	-0.013	-0.013
0.163	0.8	-0.0146	-0.0146
0.163	0.85	-0.0154	-0.0154
0.163	0.9	-0.0158	-0.0158
0.163	0.95	-0.0165	-0.0165
0.163	1	-0.017	-0.017
0.175	0	-0.00321	-0.00321
0.175	0.05	-0.00285	-0.00285
0.175	0.1	-0.00241	-0.00241
0.175	0.15	-0.00189	-0.00189
0.175	0.2	-0.00125	-0.00125
0.175	0.25	-0.000553	-0.000553
0.175	0.3	1.19e-06	1.19e-06
0.175	0.35	-0.000817	-0.000817
0.175	0.4	-0.00228	-0.00228
0.175	0.45	-0.0046	-0.0046
0.175	0.5	-0.00628	-0.00628
0.175	0.55	-0.00721	-0.00721
0.175	0.6	-0.00897	-0.00897
0.175	0.65	-0.0115	-0.0115
0.175	0.7	-0.0117	-0.0117
0.175	0.75	-0.0127	-0.0127
0.175	0.8	-0.0143	-0.0143
0.175	0.85	-0.0151	-0.0151
0.175	0.9	-0.0155	-0.0155
0.175	0.95	-0.0162	-0.0162
0.175	1	-0.0166	-0.0166
0.188	0	-0.00294	-0.00294
0.188	0.05	-0.00261	-0.00261
0.188	0.1	-0.0022	-0.0022
0.188	0.15	-0.00173	-0.00173
0.188	0.2	-0.00114	-0.00114
0.188	0.25	-0.000507	-0.000507
0.188	0.3	1.09e-06	1.09e-06
0.188	0.35	-0.000842	-0.000842
0.188	0.4	-0.00227	-0.00227
0.188	0.45	-0.0045	-0.0045
0.188	0.5	-0.00613	-0.00613
0.188	0.55	-0.00707	-0.00707
0.188	0.6	-0.00877	-0.00877
0.188	0.65	-0.0112	-0.0112
0.188	0.7	-0.0114	-0.0114
0.188	0.75	-0.0124	-0.0124
0.188	0.8	-0.014	-0.014
0.188	0.85	-0.0148	-0.0148
0.188	0.9	-0.0151	-0.0151
0.188	0.95	-0.0158	-0.0158
0.188	1	-0.0162	-0.0162
0.2	0	-0.00269	-0.00269
0.2	0.05	-0.00239	-0.00239
0.2	0.1	-0.00202	-0.00202
0.2	0.15	-0.00159	-0.00159
0.2	0.2	-0.00104	-0.00104
0.2	0.25	-0.000463	-0.000463
0.2	0.3	1e-06	1e-06
0.2	0.35	-0.000857	-0.000857
0.2	0.4	-0.00225	-0.00225
0.2	0.45	-0.00438	-0.00438
0.2	0.5	-0.00597	-0.00597
0.2	0.55	-0.00691	-0.00691
0.2	0.6	-0.00855	-0.00855
0.2	0.65	-0.0109	-0.0109
0.2	0.7	-0.0112	-0.0112
0.2	0.75	-0.0121	-0.0121
0.2	0.8	-0.0136	-0.0136
0.2	0.85	-0.0144	-0.0144
0.2	0.9	-0.0147	-0.0147
0.2	0.95	-0.0154	-0.0154
0.2	1	-0.0158	-0.0158
0.212	0	-0.00246	-0.00246
0.212	0.05	-0.00218	-0.00218
0.212	0.1	-0.00184	-0.00184
0.212	0.15	-0.00145	-0.00145
0.212	0.2	-0.000954	-0.000954
0.212	0.25	-0.000423	-0.000423
0.212	0.3	9.22e-07	9.22e-07
0.212	0.35	-0.000864	-0.000864
0.212	0.4	-0.00222	-0.00222
0.212	0.45	-0.00425	-0.00425
0.212	0.5	-0.00579	-0.00579
0.212	0.55	-0.00673	-0.00673
0.212	0.6	-0.00831	-0.00831
0.212	0.65	-0.0105	-0.0105
0.212	0.7	-0.0108	-0.0108
0.212	0.75	-0.0118	-0.0118
0.212	0.8	-0.0132	-0.0132
0.212	0.85	-0.014	-0.014
0.212	0.9	-0.0143	-0.0143
0.212	0.95	-0.015	-0.015
0.212	1	-0.0153	-0.0153
0.225	0	-0.00224	-0.00224
0.225	0.05	-0.00198	-0.00198
0.225	0.1	-0.00168	-0.00168
0.225	0.15	-0.00132	-0.00132
0.225	0.2	-0.000869	-0.000869
0.225	0.25	-0.000386	-0.000386
0.225	0.3	8.45e-07	8.45e-07
0.225	0.35	-0.000865	-0.000865
0.225	0.4	-0.00218	-0.00218
0.225	0.45	-0.00411	-0.00411
0.225	0.5	-0.0056	-0.0056
0.225	0.55	-0.00653	-0.00653
0.225	0.6	-0.00806	-0.00806
0.225	0.65	-0.0101	-0.0101
0.225	0.7	-0.0105	-0.0105
0.225	0.75	-0.0115	-0.0115
0.225	0.8	-0.0128	-0.0128
0.225	0.85	-0.0136	-0.0136
0.225	0.9	-0.0139	-0.0139
0.225	0.95	-0.0145	-0.0145
0.225	1	-0.0149	-0.0149
0.237	0	-0.00203	-0.00203
0.237	0.05	-0.0018	-0.0018
0.237	0.1	-0.00153	-0.00153
0.237	0.15	-0.0012	-0.0012
0.237	0.2	-0.00079	-0.00079
0.237	0.25	-0.000351	-0.000351
0.237	0.3	7.72e-07	7.72e-07
0.237	0.35	-0.00086	-0.00086
0.237	0.4	-0.00213	-0.00213
0.237	0.45	-0.00397	-0.00397
0.237	0.5	-0.0054	-0.0054
0.237	0.55	-0.00632	-0.00632
0.237	0.6	-0.00779	-0.00779
0.237	0.65	-0.00977	-0.00977
0.237	0.7	-0.0102	-0.0102
0.237	0.75	-0.0111	-0.0111
0.237	0.8	-0.0124	-0.0124
0.237	0.85	-0.0131	-0.0131
0.237	0.9	-0.0135	-0.0135
0.237	0.95	-0.014	-0.014
0.237	1	-0.0143	-0.0143
0.25	0	-0.00184	-0.00184
0.25	0.05	-0.00164	-0.00164
0.25	0.1	-0.00138	-0.00138
0.25	0.15	-0.00109	-0.00109
0.25	0.2	-0.000717	-0.000717
0.25	0.25	-0.000319	-0.000319
0.25	0.3	7.05e-07	7.05e-07
0.25	0.35	-0.000851	-0.000851
0.25	0.4	-0.00208	-0.00208
0.25	0.45	-0.00382	-0.00382
0.25	0.5	-0.00519	-0.00519
0.25	0.55	-0.0061	-0.0061
0.25	0.6	-0.0075	-0.0075
0.25	0.65	-0.00938	-0.00938
0.25	0.7	-0.0098	-0.0098
0.25	0.75	-0.0107	-0.0107
0.25	0.8	-0.0119	-0.0119
0.25	0.85	-0.0126	-0.0126
0.25	0.9	-0.013	-0.013
0.25	0.95	-0.0135	-0.0135
0.25	1	-0.0138	-0.0138
