0	0.2	0.203
7.21e-08	0.2	0.203
1.44e-07	0.2	0.203
2.16e-07	0.2	0.203
7.05e-07	0.2	0.203
1.19e-06	0.2	0.203
1.68e-06	0.2	0.203
2.17e-06	0.2	0.203
3.17e-06	0.2	0.203
4.18e-06	0.2	0.203
5.18e-06	0.2	0.203
6.18e-06	0.2	0.203
7.18e-06	0.2	0.203
8.2e-06	0.2	0.203
9.21e-06	0.2	0.203
1.02e-05	0.2	0.203
1.12e-05	0.2	0.203
1.23e-05	0.2	0.204
1.38e-05	0.2	0.204
1.52e-05	0.2	0.204
1.67e-05	0.2	0.204
1.82e-05	0.2	0.204
1.97e-05	0.2	0.204
2.19e-05	0.2	0.204
2.41e-05	0.2	0.204
2.64e-05	0.2	0.204
2.86e-05	0.2	0.204
3.08e-05	0.2	0.204
3.38e-05	0.2	0.204
3.68e-05	0.2	0.204
3.97e-05	0.2	0.204
4.27e-05	0.2	0.205
4.57e-05	0.2	0.205
4.96e-05	0.2	0.205
5.35e-05	0.2	0.205
5.73e-05	0.2	0.205
6.12e-05	0.2	0.205
6.51e-05	0.2	0.205
7.04e-05	0.2	0.206
7.57e-05	0.2	0.206
8.1e-05	0.2	0.206
8.64e-05	0.2	0.206
9.17e-05	0.2	0.206
9.91e-05	0.2	0.207
0.000106	0.2	0.207
0.000114	0.2	0.207
0.000121	0.2	0.207
0.000129	0.2	0.208
0.000139	0.2	0.208
0.000149	0.2	0.208
0.00016	0.2	0.209
0.00017	0.2	0.209
0.00018	0.2	0.209
0.000195	0.2	0.21
0.000209	0.2	0.21
0.000223	0.2	0.211
0.000237	0.2	0.211
0.000251	0.2	0.212
0.00027	0.2	0.212
0.000289	0.2	0.213
0.000309	0.2	0.214
0.000328	0.2	0.214
0.000347	0.2	0.215
0.000372	0.2	0.216
0.000398	0.2	0.217
0.000424	0.2	0.218
0.000449	0.2	0.218
0.000475	0.2	0.219
0.000509	0.2	0.22
0.000543	0.2	0.221
0.000577	0.2	0.222
0.000611	0.2	0.224
0.000645	0.2	0.225
0.000689	0.2	0.226
0.000734	0.2	0.227
0.000778	0.2	0.229
0.000823	0.2	0.23
0.000868	0.2	0.231
0.000926	0.2	0.233
0.000984	0.2	0.235
0.00104	0.2	0.236
0.0011	0.2	0.238
0.00116	0.2	0.24
0.00123	0.2	0.242
0.00131	0.2	0.244
0.00138	0.2	0.246
0.00146	0.2	0.248
0.00153	0.2	0.25
0.00163	0.2	0.252
0.00173	0.2	0.255
0.00182	0.2	0.257
0.00192	0.2	0.259
0.00201	0.2	0.261
0.00214	0.2	0.264
0.00226	0.2	0.267
0.00238	0.2	0.269
0.0025	0.2	0.272
0.00263	0.2	0.275
0.00278	0.2	0.278
0.00294	0.2	0.281
0.00309	0.2	0.283
0.00325	0.2	0.286
0.0034	0.2	0.289
0.00356	0.2	0.292
0.00382	0.2	0.296
0.00409	0.2	0.3
0.00435	0.2	0.304
0.00461	0.2	0.307
0.00487	0.2	0.311
0.00514	0.2	0.314
0.00549	0.2	0.318
0.00584	0.2	0.322
0.0062	0.2	0.326
0.00655	0.2	0.33
0.00691	0.2	0.333
0.00726	0.2	0.336
0.00775	0.2	0.34
0.00823	0.2	0.344
0.00871	0.2	0.348
0.00919	0.2	0.351
0.00967	0.2	0.354
0.0102	0.2	0.357
0.0108	0.2	0.361
0.0114	0.2	0.364
0.0121	0.2	0.368
0.0127	0.2	0.371
0.0134	0.2	0.373
0.014	0.2	0.376
0.0149	0.2	0.379
0.0158	0.2	0.382
0.0166	0.2	0.384
0.0175	0.2	0.387
0.0183	0.2	0.389
0.0192	0.2	0.391
0.0203	0.2	0.393
0.0215	0.2	0.395
0.0226	0.2	0.397
0.0237	0.2	0.398
0.0248	0.2	0.399
0.026	0.2	0.4
0.0275	0.2	0.401
0.0289	0.2	0.402
0.0304	0.2	0.403
0.0319	0.2	0.403
0.0334	0.2	0.403
0.0349	0.2	0.403
0.0361	0.2	0.402
0.0373	0.2	0.402
0.0385	0.2	0.401
0.0397	0.2	0.401
0.041	0.2	0.4
0.0425	0.2	0.399
0.044	0.2	0.398
0.0455	0.2	0.397
0.047	0.2	0.396
0.0485	0.2	0.394
0.0505	0.2	0.392
0.0525	0.2	0.39
0.0545	0.2	0.388
0.0565	0.2	0.385
0.0585	0.2	0.383
0.0605	0.2	0.38
0.0637	0.2	0.376
0.0668	0.2	0.372
0.0679	0.2	0.371
0.069	0.2	0.369
0.0701	0.2	0.368
0.0711	0.2	0.366
0.0722	0.2	0.365
0.0733	0.2	0.363
0.0753	0.2	0.36
0.0774	0.2	0.357
0.0794	0.2	0.354
0.0815	0.2	0.351
0.0836	0.2	0.348
0.0868	0.2	0.343
0.09	0.2	0.338
0.0932	0.2	0.334
0.0964	0.2	0.329
0.0996	0.2	0.324
0.103	0.2	0.319
0.106	0.2	0.315
0.108	0.2	0.311
0.111	0.2	0.307
0.114	0.2	0.303
0.117	0.2	0.299
0.121	0.2	0.293
0.125	0.2	0.287
0.13	0.2	0.282
0.134	0.2	0.276
0.135	0.2	0.274
0.136	0.2	0.273
0.138	0.2	0.271
0.139	0.2	0.269
0.14	0.2	0.268
0.142	0.2	0.265
0.144	0.2	0.263
0.146	0.2	0.261
0.147	0.2	0.258
0.151	0.2	0.254
0.154	0.2	0.25
0.158	0.2	0.245
0.161	0.2	0.241
0.165	0.2	0.237
0.166	0.2	0.236
0.167	0.2	0.235
0.168	0.2	0.233
0.169	0.2	0.232
0.17	0.2	0.231
0.171	0.2	0.23
0.171	0.2	0.23
0.173	0.2	0.228
0.174	0.2	0.227
0.175	0.2	0.225
0.177	0.2	0.224
0.179	0.2	0.221
0.182	0.2	0.218
0.184	0.2	0.216
0.187	0.2	0.213
0.189	0.2	0.211
0.194	0.2	0.206
0.198	0.2	0.201
0.199	0.2	0.2
0.2	0.2	0.199
0.202	0.2	0.198
0.202	0.2	0.197
0.203	0.2	0.196
0.204	0.2	0.195
0.205	0.2	0.194
0.206	0.2	0.193
0.208	0.2	0.192
0.209	0.2	0.19
0.211	0.2	0.189
0.213	0.2	0.187
0.216	0.2	0.184
0.218	0.2	0.182
0.221	0.2	0.18
0.223	0.2	0.177
0.228	0.2	0.173
0.233	0.2	0.17
0.234	0.2	0.169
0.235	0.2	0.168
0.236	0.2	0.167
0.237	0.2	0.166
0.238	0.2	0.165
0.239	0.2	0.164
0.241	0.2	0.163
0.243	0.2	0.161
0.244	0.2	0.16
0.246	0.2	0.159
0.249	0.2	0.156
0.252	0.2	0.154
0.255	0.2	0.151
0.258	0.2	0.149
0.261	0.2	0.147
0.267	0.2	0.142
0.268	0.2	0.142
0.269	0.2	0.141
0.269	0.2	0.141
0.27	0.2	0.14
0.271	0.2	0.14
0.272	0.2	0.139
0.273	0.2	0.138
0.275	0.2	0.137
0.276	0.2	0.136
0.279	0.2	0.134
0.282	0.2	0.132
0.284	0.2	0.13
0.287	0.2	0.128
0.29	0.2	0.126
0.296	0.2	0.122
0.3	0.2	0.12
0.301	0.2	0.119
0.303	0.2	0.118
0.304	0.2	0.117
0.305	0.2	0.116
0.307	0.2	0.115
0.309	0.2	0.114
0.311	0.2	0.113
0.312	0.2	0.112
0.314	0.2	0.111
0.319	0.2	0.108
0.323	0.2	0.106
0.327	0.2	0.103
0.331	0.2	0.101
0.334	0.2	0.0993
0.334	0.2	0.0988
0.335	0.2	0.0983
0.336	0.2	0.0978
0.337	0.2	0.0973
0.338	0.2	0.0968
0.339	0.2	0.0961
0.341	0.2	0.0953
0.342	0.2	0.0946
0.343	0.2	0.0938
0.346	0.2	0.0923
0.349	0.2	0.0908
0.352	0.2	0.0893
0.354	0.2	0.0879
0.357	0.2	0.0864
0.363	0.2	0.0834
0.367	0.2	0.0817
0.367	0.2	0.0813
0.368	0.2	0.0808
0.369	0.2	0.0804
0.37	0.2	0.0799
0.371	0.2	0.0794
0.373	0.2	0.0788
0.374	0.2	0.0781
0.375	0.2	0.0774
0.377	0.2	0.0768
0.378	0.2	0.0761
0.382	0.2	0.0742
0.386	0.2	0.0724
0.39	0.2	0.0706
0.394	0.2	0.0688
0.398	0.2	0.067
0.4	0.2	0.0663
0.401	0.2	0.0658
0.402	0.2	0.0653
0.404	0.2	0.0648
0.405	0.2	0.0643
0.406	0.2	0.0638
0.408	0.2	0.0631
0.41	0.2	0.0623
0.411	0.2	0.0616
0.413	0.2	0.0608
0.417	0.2	0.0596
0.42	0.2	0.0583
0.423	0.2	0.0571
0.426	0.2	0.0559
0.429	0.2	0.0547
0.433	0.2	0.0532
0.435	0.2	0.0528
0.436	0.2	0.0524
0.437	0.2	0.052
0.438	0.2	0.0516
0.439	0.2	0.0512
0.441	0.2	0.0506
0.443	0.2	0.05
0.445	0.2	0.0494
0.446	0.2	0.0489
0.45	0.2	0.0478
0.453	0.2	0.0467
0.456	0.2	0.0456
0.46	0.2	0.0446
0.463	0.2	0.0436
0.467	0.2	0.0424
0.469	0.2	0.042
0.47	0.2	0.0416
0.471	0.2	0.0412
0.473	0.2	0.0408
0.474	0.2	0.0404
0.476	0.2	0.0398
0.478	0.2	0.0392
0.481	0.2	0.0387
0.483	0.2	0.0381
0.487	0.2	0.0371
0.491	0.2	0.0361
0.495	0.2	0.0351
0.499	0.2	0.0341
0.501	0.2	0.0337
0.503	0.2	0.0332
0.505	0.2	0.0327
0.507	0.2	0.0323
0.509	0.2	0.0318
0.512	0.2	0.0312
0.515	0.2	0.0306
0.518	0.2	0.03
0.52	0.2	0.0294
0.523	0.2	0.0289
0.529	0.2	0.0277
0.535	0.2	0.0266
0.542	0.2	0.0256
0.546	0.2	0.0248
0.55	0.2	0.0241
0.555	0.2	0.0234
0.559	0.2	0.0228
0.563	0.2	0.0221
0.57	0.2	0.0212
0.577	0.2	0.0203
0.584	0.2	0.0194
0.591	0.2	0.0186
0.598	0.2	0.0178
0.606	0.2	0.017
0.614	0.2	0.0162
0.622	0.2	0.0155
0.63	0.2	0.0148
0.638	0.2	0.0141
0.646	0.2	0.0135
0.654	0.2	0.013
0.662	0.2	0.0124
0.669	0.2	0.012
0.676	0.2	0.0116
0.681	0.2	0.0113
0.687	0.2	0.011
0.692	0.2	0.0107
0.697	0.2	0.0104
0.703	0.2	0.0102
0.708	0.2	0.00992
0.713	0.2	0.00967
0.719	0.2	0.00944
0.724	0.2	0.00921
0.73	0.2	0.00899
0.737	0.2	0.00868
0.745	0.2	0.00839
0.753	0.2	0.00812
0.761	0.2	0.00785
0.768	0.2	0.0076
0.777	0.2	0.00731
0.786	0.2	0.00703
0.796	0.2	0.00677
0.805	0.2	0.00652
0.814	0.2	0.00627
0.827	0.2	0.00593
0.84	0.2	0.0056
0.854	0.2	0.00529
0.867	0.2	0.00499
0.881	0.2	0.00471
0.897	0.2	0.00438
0.914	0.2	0.00407
0.93	0.2	0.00378
0.947	0.2	0.00351
0.964	0.2	0.00325
0.984	0.2	0.00297
1	0.2	0.00275
