0	0.375	0.788
3.64e-09	0.375	0.788
7.27e-09	0.375	0.788
1.09e-08	0.375	0.788
1.93e-08	0.375	0.788
2.76e-08	0.375	0.788
3.6e-08	0.375	0.788
4.43e-08	0.375	0.788
6.57e-08	0.375	0.788
8.7e-08	0.375	0.788
1.08e-07	0.375	0.788
1.53e-07	0.375	0.788
1.98e-07	0.375	0.788
2.42e-07	0.375	0.788
2.87e-07	0.375	0.788
3.88e-07	0.375	0.788
4.9e-07	0.375	0.788
5.91e-07	0.375	0.788
6.92e-07	0.375	0.788
9.42e-07	0.375	0.788
1.19e-06	0.375	0.788
1.44e-06	0.375	0.788
1.69e-06	0.375	0.788
2.31e-06	0.375	0.788
2.92e-06	0.375	0.788
3.54e-06	0.375	0.788
4.15e-06	0.375	0.788
5.22e-06	0.375	0.788
6.28e-06	0.375	0.788
7.35e-06	0.375	0.788
8.41e-06	0.375	0.788
9.48e-06	0.375	0.788
1.1e-05	0.375	0.788
1.26e-05	0.375	0.788
1.41e-05	0.375	0.788
1.57e-05	0.375	0.788
1.72e-05	0.375	0.788
1.94e-05	0.375	0.788
2.16e-05	0.375	0.788
2.38e-05	0.375	0.788
2.6e-05	0.375	0.788
2.82e-05	0.375	0.788
3.13e-05	0.375	0.788
3.43e-05	0.375	0.787
3.74e-05	0.375	0.787
4.05e-05	0.375	0.787
4.35e-05	0.375	0.787
4.81e-05	0.375	0.787
5.26e-05	0.375	0.787
5.71e-05	0.375	0.787
6.17e-05	0.375	0.787
6.62e-05	0.375	0.787
7.31e-05	0.375	0.786
8e-05	0.375	0.786
8.68e-05	0.375	0.786
9.37e-05	0.375	0.786
0.000101	0.375	0.786
0.000111	0.375	0.785
0.000121	0.375	0.785
0.000131	0.375	0.785
0.000141	0.375	0.784
0.000152	0.375	0.784
0.000166	0.375	0.784
0.000181	0.375	0.783
0.000196	0.375	0.783
0.000211	0.375	0.782
0.000225	0.375	0.782
0.000247	0.375	0.782
0.000268	0.375	0.781
0.000289	0.375	0.78
0.00031	0.375	0.78
0.000331	0.375	0.779
0.000361	0.375	0.778
0.00039	0.375	0.778
0.00042	0.375	0.777
0.00045	0.375	0.776
0.00048	0.375	0.775
0.000519	0.375	0.774
0.000559	0.375	0.773
0.000599	0.375	0.772
0.000639	0.375	0.771
0.000679	0.375	0.77
0.000734	0.375	0.768
0.00079	0.375	0.767
0.000845	0.375	0.765
0.000901	0.375	0.764
0.000956	0.375	0.763
0.00103	0.375	0.761
0.0011	0.375	0.759
0.00118	0.375	0.757
0.00125	0.375	0.755
0.00132	0.375	0.753
0.00141	0.375	0.751
0.0015	0.375	0.749
0.0016	0.375	0.747
0.00169	0.375	0.744
0.00178	0.375	0.742
0.0019	0.375	0.739
0.00202	0.375	0.737
0.00214	0.375	0.734
0.00226	0.375	0.731
0.00238	0.375	0.728
0.00254	0.375	0.725
0.00269	0.375	0.721
0.00285	0.375	0.718
0.00301	0.375	0.715
0.00317	0.375	0.711
0.00338	0.375	0.707
0.00359	0.375	0.703
0.0038	0.375	0.698
0.00402	0.375	0.694
0.00423	0.375	0.69
0.00451	0.375	0.685
0.00478	0.375	0.68
0.00506	0.375	0.675
0.00534	0.375	0.67
0.00562	0.375	0.665
0.00597	0.375	0.659
0.00632	0.375	0.653
0.00667	0.375	0.648
0.00702	0.375	0.642
0.00737	0.375	0.637
0.00773	0.375	0.632
0.00831	0.375	0.623
0.00889	0.375	0.615
0.00948	0.375	0.608
0.0101	0.375	0.6
0.0106	0.375	0.593
0.0112	0.375	0.586
0.012	0.375	0.577
0.0127	0.375	0.569
0.0135	0.375	0.561
0.0143	0.375	0.554
0.015	0.375	0.547
0.0158	0.375	0.54
0.0168	0.375	0.531
0.0177	0.375	0.523
0.0187	0.375	0.516
0.0197	0.375	0.509
0.0207	0.375	0.502
0.0216	0.375	0.495
0.0229	0.375	0.487
0.0242	0.375	0.479
0.0254	0.375	0.472
0.0267	0.375	0.465
0.028	0.375	0.458
0.0292	0.375	0.452
0.0308	0.375	0.444
0.0324	0.375	0.437
0.034	0.375	0.43
0.0355	0.375	0.424
0.0371	0.375	0.417
0.0387	0.375	0.411
0.0402	0.375	0.405
0.0419	0.375	0.399
0.0436	0.375	0.393
0.0452	0.375	0.388
0.0469	0.375	0.382
0.0486	0.375	0.376
0.0503	0.375	0.371
0.0527	0.375	0.364
0.0551	0.375	0.356
0.0575	0.375	0.349
0.0599	0.375	0.342
0.0623	0.375	0.335
0.0647	0.375	0.329
0.0679	0.375	0.321
0.0711	0.375	0.312
0.0738	0.375	0.306
0.0764	0.375	0.299
0.0791	0.375	0.293
0.0818	0.375	0.287
0.0845	0.375	0.281
0.0879	0.375	0.273
0.0914	0.375	0.266
0.0949	0.375	0.259
0.0984	0.375	0.252
0.102	0.375	0.245
0.106	0.375	0.237
0.11	0.375	0.23
0.114	0.375	0.224
0.118	0.375	0.217
0.121	0.375	0.211
0.127	0.375	0.202
0.132	0.375	0.194
0.134	0.375	0.191
0.136	0.375	0.188
0.138	0.375	0.186
0.14	0.375	0.183
0.142	0.375	0.18
0.144	0.375	0.177
0.147	0.375	0.173
0.149	0.375	0.17
0.152	0.375	0.167
0.155	0.375	0.163
0.161	0.375	0.156
0.166	0.375	0.15
0.167	0.375	0.149
0.169	0.375	0.147
0.17	0.375	0.146
0.171	0.375	0.144
0.173	0.375	0.143
0.174	0.375	0.141
0.176	0.375	0.139
0.178	0.375	0.137
0.18	0.375	0.135
0.181	0.375	0.134
0.186	0.375	0.13
0.19	0.375	0.126
0.194	0.375	0.122
0.198	0.375	0.119
0.2	0.375	0.116
0.201	0.375	0.115
0.202	0.375	0.115
0.203	0.375	0.114
0.204	0.375	0.113
0.205	0.375	0.112
0.207	0.375	0.111
0.208	0.375	0.11
0.21	0.375	0.109
0.211	0.375	0.107
0.214	0.375	0.105
0.217	0.375	0.103
0.22	0.375	0.1
0.223	0.375	0.0981
0.227	0.375	0.0958
0.232	0.375	0.0921
0.233	0.375	0.0911
0.235	0.375	0.0901
0.236	0.375	0.0892
0.238	0.375	0.0882
0.239	0.375	0.0873
0.241	0.375	0.0864
0.243	0.375	0.085
0.245	0.375	0.0836
0.247	0.375	0.0822
0.25	0.375	0.0809
0.254	0.375	0.0785
0.258	0.375	0.0762
0.262	0.375	0.074
0.266	0.375	0.0718
0.267	0.375	0.0711
0.269	0.375	0.0703
0.27	0.375	0.0696
0.271	0.375	0.0689
0.273	0.375	0.0682
0.275	0.375	0.0671
0.277	0.375	0.0661
0.279	0.375	0.065
0.281	0.375	0.064
0.283	0.375	0.063
0.289	0.375	0.0604
0.295	0.375	0.058
0.3	0.375	0.0556
0.302	0.375	0.0547
0.305	0.375	0.0539
0.307	0.375	0.053
0.309	0.375	0.0522
0.311	0.375	0.0514
0.314	0.375	0.0501
0.317	0.375	0.0489
0.321	0.375	0.0477
0.324	0.375	0.0465
0.327	0.375	0.0453
0.335	0.375	0.0426
0.343	0.375	0.0401
0.346	0.375	0.0393
0.348	0.375	0.0385
0.351	0.375	0.0378
0.354	0.375	0.037
0.356	0.375	0.0363
0.362	0.375	0.0348
0.367	0.375	0.0333
0.369	0.375	0.0328
0.371	0.375	0.0323
0.373	0.375	0.0319
0.375	0.375	0.0314
0.376	0.375	0.0309
0.38	0.375	0.0301
0.383	0.375	0.0294
0.386	0.375	0.0286
0.389	0.375	0.0279
0.395	0.375	0.0265
0.402	0.375	0.0252
0.407	0.375	0.0242
0.41	0.375	0.0235
0.414	0.375	0.0228
0.418	0.375	0.0221
0.421	0.375	0.0215
0.425	0.375	0.0208
0.431	0.375	0.0198
0.436	0.375	0.0191
0.44	0.375	0.0184
0.444	0.375	0.0178
0.448	0.375	0.0172
0.452	0.375	0.0167
0.455	0.375	0.0162
0.459	0.375	0.0157
0.466	0.375	0.0148
0.468	0.375	0.0145
0.471	0.375	0.0142
0.473	0.375	0.0139
0.475	0.375	0.0137
0.478	0.375	0.0134
0.482	0.375	0.013
0.485	0.375	0.0125
0.489	0.375	0.0121
0.493	0.375	0.0117
0.497	0.375	0.0114
0.504	0.375	0.0107
0.511	0.375	0.0101
0.518	0.375	0.00949
0.526	0.375	0.00894
0.533	0.375	0.00842
0.539	0.375	0.00798
0.545	0.375	0.00757
0.552	0.375	0.00718
0.558	0.375	0.00682
0.564	0.375	0.00647
0.573	0.375	0.00603
0.582	0.375	0.00561
0.59	0.375	0.00524
0.599	0.375	0.00488
0.607	0.375	0.00456
0.616	0.375	0.00424
0.625	0.375	0.00395
0.634	0.375	0.00369
0.644	0.375	0.00344
0.653	0.375	0.00321
0.663	0.375	0.00296
0.674	0.375	0.00274
0.684	0.375	0.00253
0.695	0.375	0.00234
0.706	0.375	0.00216
0.717	0.375	0.00199
0.728	0.375	0.00184
0.74	0.375	0.00169
0.751	0.375	0.00156
0.763	0.375	0.00144
0.778	0.375	0.00129
0.793	0.375	0.00116
0.808	0.375	0.00104
0.823	0.375	0.000931
0.838	0.375	0.000834
0.858	0.375	0.000721
0.878	0.375	0.000622
0.898	0.375	0.000537
0.918	0.375	0.000463
0.938	0.375	0.000398
0.958	0.375	0.000343
0.978	0.375	0.000295
1	0.375	0.000251
