0	0.7	0.53
3.64e-09	0.7	0.53
7.27e-09	0.7	0.53
1.09e-08	0.7	0.53
1.93e-08	0.7	0.53
2.76e-08	0.7	0.53
3.6e-08	0.7	0.53
4.43e-08	0.7	0.53
6.57e-08	0.7	0.53
8.7e-08	0.7	0.53
1.08e-07	0.7	0.53
1.53e-07	0.7	0.53
1.98e-07	0.7	0.53
2.42e-07	0.7	0.53
2.87e-07	0.7	0.53
3.88e-07	0.7	0.53
4.9e-07	0.7	0.53
5.91e-07	0.7	0.53
6.92e-07	0.7	0.53
9.42e-07	0.7	0.53
1.19e-06	0.7	0.53
1.44e-06	0.7	0.53
1.69e-06	0.7	0.53
2.31e-06	0.7	0.53
2.92e-06	0.7	0.53
3.54e-06	0.7	0.53
4.15e-06	0.7	0.53
5.22e-06	0.7	0.53
6.28e-06	0.7	0.53
7.35e-06	0.7	0.53
8.41e-06	0.7	0.53
9.48e-06	0.7	0.53
1.1e-05	0.7	0.53
1.26e-05	0.7	0.53
1.41e-05	0.7	0.53
1.57e-05	0.7	0.53
1.72e-05	0.7	0.53
1.94e-05	0.7	0.53
2.16e-05	0.7	0.53
2.38e-05	0.7	0.53
2.6e-05	0.7	0.53
2.82e-05	0.7	0.53
3.13e-05	0.7	0.53
3.43e-05	0.7	0.53
3.74e-05	0.7	0.53
4.05e-05	0.7	0.53
4.35e-05	0.7	0.53
4.81e-05	0.7	0.53
5.26e-05	0.7	0.53
5.71e-05	0.7	0.53
6.17e-05	0.7	0.53
6.62e-05	0.7	0.53
7.31e-05	0.7	0.53
8e-05	0.7	0.53
8.68e-05	0.7	0.53
9.37e-05	0.7	0.53
0.000101	0.7	0.53
0.000111	0.7	0.53
0.000121	0.7	0.53
0.000131	0.7	0.53
0.000141	0.7	0.53
0.000152	0.7	0.53
0.000166	0.7	0.53
0.000181	0.7	0.53
0.000196	0.7	0.531
0.000211	0.7	0.531
0.000225	0.7	0.531
0.000247	0.7	0.531
0.000268	0.7	0.531
0.000289	0.7	0.531
0.00031	0.7	0.531
0.000331	0.7	0.531
0.000361	0.7	0.531
0.00039	0.7	0.531
0.00042	0.7	0.532
0.00045	0.7	0.532
0.00048	0.7	0.532
0.000519	0.7	0.532
0.000559	0.7	0.532
0.000599	0.7	0.532
0.000639	0.7	0.533
0.000679	0.7	0.533
0.000734	0.7	0.533
0.00079	0.7	0.533
0.000845	0.7	0.533
0.000901	0.7	0.534
0.000956	0.7	0.534
0.00103	0.7	0.534
0.0011	0.7	0.534
0.00118	0.7	0.535
0.00125	0.7	0.535
0.00132	0.7	0.535
0.00141	0.7	0.535
0.0015	0.7	0.535
0.0016	0.7	0.536
0.00169	0.7	0.536
0.00178	0.7	0.536
0.0019	0.7	0.536
0.00202	0.7	0.536
0.00214	0.7	0.537
0.00226	0.7	0.537
0.00238	0.7	0.537
0.00254	0.7	0.537
0.00269	0.7	0.537
0.00285	0.7	0.537
0.00301	0.7	0.537
0.00317	0.7	0.537
0.00338	0.7	0.537
0.00359	0.7	0.536
0.0038	0.7	0.536
0.00402	0.7	0.536
0.00423	0.7	0.535
0.00451	0.7	0.535
0.00478	0.7	0.534
0.00506	0.7	0.533
0.00534	0.7	0.533
0.00562	0.7	0.532
0.00597	0.7	0.531
0.00632	0.7	0.529
0.00667	0.7	0.528
0.00702	0.7	0.527
0.00737	0.7	0.526
0.00773	0.7	0.524
0.00831	0.7	0.522
0.00889	0.7	0.52
0.00948	0.7	0.518
0.0101	0.7	0.515
0.0106	0.7	0.513
0.0112	0.7	0.511
0.012	0.7	0.508
0.0127	0.7	0.505
0.0135	0.7	0.502
0.0143	0.7	0.5
0.015	0.7	0.497
0.0158	0.7	0.494
0.0168	0.7	0.49
0.0177	0.7	0.487
0.0187	0.7	0.483
0.0197	0.7	0.48
0.0207	0.7	0.477
0.0216	0.7	0.473
0.0229	0.7	0.469
0.0242	0.7	0.464
0.0254	0.7	0.46
0.0267	0.7	0.456
0.028	0.7	0.452
0.0292	0.7	0.447
0.0308	0.7	0.442
0.0324	0.7	0.437
0.034	0.7	0.432
0.0355	0.7	0.426
0.0371	0.7	0.421
0.0387	0.7	0.416
0.0402	0.7	0.411
0.0419	0.7	0.406
0.0436	0.7	0.401
0.0452	0.7	0.396
0.0469	0.7	0.39
0.0486	0.7	0.385
0.0503	0.7	0.38
0.0527	0.7	0.373
0.0551	0.7	0.366
0.0575	0.7	0.359
0.0599	0.7	0.352
0.0623	0.7	0.346
0.0647	0.7	0.339
0.0679	0.7	0.331
0.0711	0.7	0.322
0.0738	0.7	0.316
0.0764	0.7	0.309
0.0791	0.7	0.302
0.0818	0.7	0.296
0.0845	0.7	0.29
0.0879	0.7	0.282
0.0914	0.7	0.274
0.0949	0.7	0.267
0.0984	0.7	0.259
0.102	0.7	0.252
0.106	0.7	0.245
0.11	0.7	0.237
0.114	0.7	0.23
0.118	0.7	0.223
0.121	0.7	0.216
0.127	0.7	0.207
0.132	0.7	0.199
0.134	0.7	0.196
0.136	0.7	0.193
0.138	0.7	0.19
0.14	0.7	0.187
0.142	0.7	0.185
0.144	0.7	0.181
0.147	0.7	0.177
0.149	0.7	0.174
0.152	0.7	0.17
0.155	0.7	0.167
0.161	0.7	0.159
0.166	0.7	0.153
0.167	0.7	0.151
0.169	0.7	0.15
0.17	0.7	0.148
0.171	0.7	0.147
0.173	0.7	0.145
0.174	0.7	0.143
0.176	0.7	0.142
0.178	0.7	0.14
0.18	0.7	0.138
0.181	0.7	0.136
0.186	0.7	0.132
0.19	0.7	0.128
0.194	0.7	0.124
0.198	0.7	0.12
0.2	0.7	0.118
0.201	0.7	0.117
0.202	0.7	0.116
0.203	0.7	0.115
0.204	0.7	0.115
0.205	0.7	0.114
0.207	0.7	0.113
0.208	0.7	0.111
0.21	0.7	0.11
0.211	0.7	0.109
0.214	0.7	0.106
0.217	0.7	0.104
0.22	0.7	0.102
0.223	0.7	0.0993
0.227	0.7	0.097
0.232	0.7	0.0932
0.233	0.7	0.0922
0.235	0.7	0.0912
0.236	0.7	0.0902
0.238	0.7	0.0892
0.239	0.7	0.0883
0.241	0.7	0.0873
0.243	0.7	0.0859
0.245	0.7	0.0845
0.247	0.7	0.0831
0.25	0.7	0.0818
0.254	0.7	0.0794
0.258	0.7	0.077
0.262	0.7	0.0747
0.266	0.7	0.0725
0.267	0.7	0.0718
0.269	0.7	0.071
0.27	0.7	0.0703
0.271	0.7	0.0696
0.273	0.7	0.0688
0.275	0.7	0.0678
0.277	0.7	0.0667
0.279	0.7	0.0657
0.281	0.7	0.0646
0.283	0.7	0.0636
0.289	0.7	0.061
0.295	0.7	0.0585
0.3	0.7	0.0561
0.302	0.7	0.0552
0.305	0.7	0.0543
0.307	0.7	0.0535
0.309	0.7	0.0527
0.311	0.7	0.0519
0.314	0.7	0.0506
0.317	0.7	0.0493
0.321	0.7	0.0481
0.324	0.7	0.0469
0.327	0.7	0.0457
0.335	0.7	0.043
0.343	0.7	0.0404
0.346	0.7	0.0396
0.348	0.7	0.0388
0.351	0.7	0.0381
0.354	0.7	0.0373
0.356	0.7	0.0365
0.362	0.7	0.035
0.367	0.7	0.0336
0.369	0.7	0.0331
0.371	0.7	0.0326
0.373	0.7	0.0321
0.375	0.7	0.0316
0.376	0.7	0.0311
0.38	0.7	0.0303
0.383	0.7	0.0296
0.386	0.7	0.0288
0.389	0.7	0.0281
0.395	0.7	0.0267
0.402	0.7	0.0254
0.407	0.7	0.0243
0.41	0.7	0.0236
0.414	0.7	0.0229
0.418	0.7	0.0222
0.421	0.7	0.0215
0.425	0.7	0.0209
0.431	0.7	0.0199
0.436	0.7	0.0191
0.44	0.7	0.0184
0.444	0.7	0.0178
0.448	0.7	0.0173
0.452	0.7	0.0167
0.455	0.7	0.0162
0.459	0.7	0.0157
0.466	0.7	0.0148
0.468	0.7	0.0145
0.471	0.7	0.0142
0.473	0.7	0.0139
0.475	0.7	0.0137
0.478	0.7	0.0134
0.482	0.7	0.0129
0.485	0.7	0.0125
0.489	0.7	0.0121
0.493	0.7	0.0117
0.497	0.7	0.0113
0.504	0.7	0.0107
0.511	0.7	0.01
0.518	0.7	0.00944
0.526	0.7	0.00888
0.533	0.7	0.00836
0.539	0.7	0.00792
0.545	0.7	0.00751
0.552	0.7	0.00712
0.558	0.7	0.00675
0.564	0.7	0.0064
0.573	0.7	0.00596
0.582	0.7	0.00555
0.59	0.7	0.00517
0.599	0.7	0.00482
0.607	0.7	0.0045
0.616	0.7	0.00419
0.625	0.7	0.0039
0.634	0.7	0.00363
0.644	0.7	0.00339
0.653	0.7	0.00316
0.663	0.7	0.00292
0.674	0.7	0.0027
0.684	0.7	0.0025
0.695	0.7	0.00231
0.706	0.7	0.00214
0.717	0.7	0.00197
0.728	0.7	0.00182
0.74	0.7	0.00168
0.751	0.7	0.00155
0.763	0.7	0.00143
0.778	0.7	0.00129
0.793	0.7	0.00116
0.808	0.7	0.00104
0.823	0.7	0.000936
0.838	0.7	0.000841
0.858	0.7	0.000728
0.878	0.7	0.00063
0.898	0.7	0.000544
0.918	0.7	0.000469
0.938	0.7	0.000405
0.958	0.7	0.000348
0.978	0.7	0.0003
1	0.7	0.000255
